%!PS-Adobe-3.0 EPSF-3.0
%%Title: ./fig/a1_report.eps
%%Creator: matplotlib version 3.2.1, http://matplotlib.org/
%%CreationDate: Thu Apr 23 22:24:41 2020
%%Orientation: landscape
%%BoundingBox: 117.30812499999999 55.52500000000006 494.691875 736.4749999999999
%%EndComments
%%BeginProlog
/mpldict 9 dict def
mpldict begin
/m { moveto } bind def
/l { lineto } bind def
/r { rlineto } bind def
/c { curveto } bind def
/cl { closepath } bind def
/box {
m
1 index 0 r
0 exch r
neg 0 r
cl
} bind def
/clipbox {
box
clip
newpath
} bind def
%!PS-Adobe-3.0 Resource-Font
%%Title: DejaVu Sans
%%Copyright: Copyright (c) 2003 by Bitstream, Inc. All Rights Reserved. Copyright (c) 2006 by Tavmjong Bah. All Rights Reserved. DejaVu changes are in public domain 
%%Creator: Converted from TrueType to type 3 by PPR
25 dict begin
/_d{bind def}bind def
/_m{moveto}_d
/_l{lineto}_d
/_cl{closepath eofill}_d
/_c{curveto}_d
/_sc{7 -1 roll{setcachedevice}{pop pop pop pop pop pop}ifelse}_d
/_e{exec}_d
/FontName /DejaVuSans def
/PaintType 0 def
/FontMatrix[.001 0 0 .001 0 0]def
/FontBBox[-1021 -463 1793 1232]def
/FontType 3 def
/Encoding [ /space /plus /hyphen /period /zero /one /two /three /four /six /seven /eight /nine /colon /equal /P /underscore /a /b /c /d /e /f /i /l /n /o /p /r /s /t /u /x /y /twosuperior ] def
/FontInfo 10 dict dup begin
/FamilyName (DejaVu Sans) def
/FullName (DejaVu Sans) def
/Notice (Copyright (c) 2003 by Bitstream, Inc. All Rights Reserved. Copyright (c) 2006 by Tavmjong Bah. All Rights Reserved. DejaVu changes are in public domain ) def
/Weight (Book) def
/Version (Version 2.35) def
/ItalicAngle 0.0 def
/isFixedPitch false def
/UnderlinePosition -130 def
/UnderlineThickness 90 def
end readonly def
/CharStrings 36 dict dup begin
/.notdef 0 def
/space{318 0 0 0 0 0 _sc
}_d
/plus{838 0 106 0 732 627 _sc
460 627 _m
460 355 _l
732 355 _l
732 272 _l
460 272 _l
460 0 _l
378 0 _l
378 272 _l
106 272 _l
106 355 _l
378 355 _l
378 627 _l
460 627 _l
_cl}_d
/hyphen{361 0 49 234 312 314 _sc
49 314 _m
312 314 _l
312 234 _l
49 234 _l
49 314 _l
_cl}_d
/period{318 0 107 0 210 124 _sc
107 124 _m
210 124 _l
210 0 _l
107 0 _l
107 124 _l
_cl}_d
/zero{636 0 66 -13 570 742 _sc
318 664 _m
267 664 229 639 203 589 _c
177 539 165 464 165 364 _c
165 264 177 189 203 139 _c
229 89 267 64 318 64 _c
369 64 407 89 433 139 _c
458 189 471 264 471 364 _c
471 464 458 539 433 589 _c
407 639 369 664 318 664 _c
318 742 _m
399 742 461 709 505 645 _c
548 580 570 486 570 364 _c
570 241 548 147 505 83 _c
461 19 399 -13 318 -13 _c
236 -13 173 19 130 83 _c
87 147 66 241 66 364 _c
66 486 87 580 130 645 _c
173 709 236 742 318 742 _c
_cl}_d
/one{636 0 110 0 544 729 _sc
124 83 _m
285 83 _l
285 639 _l
110 604 _l
110 694 _l
284 729 _l
383 729 _l
383 83 _l
544 83 _l
544 0 _l
124 0 _l
124 83 _l
_cl}_d
/two{{636 0 73 0 536 742 _sc
192 83 _m
536 83 _l
536 0 _l
73 0 _l
73 83 _l
110 121 161 173 226 239 _c
290 304 331 346 348 365 _c
380 400 402 430 414 455 _c
426 479 433 504 433 528 _c
433 566 419 598 392 622 _c
365 646 330 659 286 659 _c
255 659 222 653 188 643 _c
154 632 117 616 78 594 _c
78 694 _l
118 710 155 722 189 730 _c
223 738 255 742 284 742 _c
}_e{359 742 419 723 464 685 _c
509 647 532 597 532 534 _c
532 504 526 475 515 449 _c
504 422 484 390 454 354 _c
446 344 420 317 376 272 _c
332 227 271 164 192 83 _c
_cl}_e}_d
/three{{636 0 76 -13 556 742 _sc
406 393 _m
453 383 490 362 516 330 _c
542 298 556 258 556 212 _c
556 140 531 84 482 45 _c
432 6 362 -13 271 -13 _c
240 -13 208 -10 176 -4 _c
144 1 110 10 76 22 _c
76 117 _l
103 101 133 89 166 81 _c
198 73 232 69 268 69 _c
330 69 377 81 409 105 _c
441 129 458 165 458 212 _c
458 254 443 288 413 312 _c
383 336 341 349 287 349 _c
}_e{202 349 _l
202 430 _l
291 430 _l
339 430 376 439 402 459 _c
428 478 441 506 441 543 _c
441 580 427 609 401 629 _c
374 649 336 659 287 659 _c
260 659 231 656 200 650 _c
169 644 135 635 98 623 _c
98 711 _l
135 721 170 729 203 734 _c
235 739 266 742 296 742 _c
370 742 429 725 473 691 _c
517 657 539 611 539 553 _c
539 513 527 479 504 451 _c
481 423 448 403 406 393 _c
_cl}_e}_d
/four{636 0 49 0 580 729 _sc
378 643 _m
129 254 _l
378 254 _l
378 643 _l
352 729 _m
476 729 _l
476 254 _l
580 254 _l
580 172 _l
476 172 _l
476 0 _l
378 0 _l
378 172 _l
49 172 _l
49 267 _l
352 729 _l
_cl}_d
/six{{636 0 70 -13 573 742 _sc
330 404 _m
286 404 251 388 225 358 _c
199 328 186 286 186 234 _c
186 181 199 139 225 109 _c
251 79 286 64 330 64 _c
374 64 409 79 435 109 _c
461 139 474 181 474 234 _c
474 286 461 328 435 358 _c
409 388 374 404 330 404 _c
526 713 _m
526 623 _l
501 635 476 644 451 650 _c
425 656 400 659 376 659 _c
310 659 260 637 226 593 _c
}_e{192 549 172 482 168 394 _c
187 422 211 444 240 459 _c
269 474 301 482 336 482 _c
409 482 467 459 509 415 _c
551 371 573 310 573 234 _c
573 159 550 99 506 54 _c
462 9 403 -13 330 -13 _c
246 -13 181 19 137 83 _c
92 147 70 241 70 364 _c
70 479 97 571 152 639 _c
206 707 280 742 372 742 _c
396 742 421 739 447 735 _c
472 730 498 723 526 713 _c
_cl}_e}_d
/seven{636 0 82 0 551 729 _sc
82 729 _m
551 729 _l
551 687 _l
286 0 _l
183 0 _l
432 646 _l
82 646 _l
82 729 _l
_cl}_d
/eight{{636 0 68 -13 568 742 _sc
318 346 _m
271 346 234 333 207 308 _c
180 283 167 249 167 205 _c
167 161 180 126 207 101 _c
234 76 271 64 318 64 _c
364 64 401 76 428 102 _c
455 127 469 161 469 205 _c
469 249 455 283 429 308 _c
402 333 365 346 318 346 _c
219 388 _m
177 398 144 418 120 447 _c
96 476 85 511 85 553 _c
85 611 105 657 147 691 _c
188 725 245 742 318 742 _c
}_e{390 742 447 725 489 691 _c
530 657 551 611 551 553 _c
551 511 539 476 515 447 _c
491 418 459 398 417 388 _c
464 377 501 355 528 323 _c
554 291 568 251 568 205 _c
568 134 546 80 503 43 _c
459 5 398 -13 318 -13 _c
237 -13 175 5 132 43 _c
89 80 68 134 68 205 _c
68 251 81 291 108 323 _c
134 355 171 377 219 388 _c
183 544 _m
183 506 194 476 218 455 _c
}_e{242 434 275 424 318 424 _c
360 424 393 434 417 455 _c
441 476 453 506 453 544 _c
453 582 441 611 417 632 _c
393 653 360 664 318 664 _c
275 664 242 653 218 632 _c
194 611 183 582 183 544 _c
_cl}_e}_d
/nine{{636 0 63 -13 566 742 _sc
110 15 _m
110 105 _l
134 93 159 84 185 78 _c
210 72 235 69 260 69 _c
324 69 374 90 408 134 _c
442 178 462 244 468 334 _c
448 306 424 284 396 269 _c
367 254 335 247 300 247 _c
226 247 168 269 126 313 _c
84 357 63 417 63 494 _c
63 568 85 628 129 674 _c
173 719 232 742 306 742 _c
390 742 455 709 499 645 _c
543 580 566 486 566 364 _c
}_e{566 248 538 157 484 89 _c
429 21 356 -13 264 -13 _c
239 -13 214 -10 189 -6 _c
163 -2 137 5 110 15 _c
306 324 _m
350 324 385 339 411 369 _c
437 399 450 441 450 494 _c
450 546 437 588 411 618 _c
385 648 350 664 306 664 _c
262 664 227 648 201 618 _c
175 588 162 546 162 494 _c
162 441 175 399 201 369 _c
227 339 262 324 306 324 _c
_cl}_e}_d
/colon{337 0 117 0 220 517 _sc
117 124 _m
220 124 _l
220 0 _l
117 0 _l
117 124 _l
117 517 _m
220 517 _l
220 393 _l
117 393 _l
117 517 _l
_cl}_d
/equal{838 0 106 172 732 454 _sc
106 454 _m
732 454 _l
732 372 _l
106 372 _l
106 454 _l
106 255 _m
732 255 _l
732 172 _l
106 172 _l
106 255 _l
_cl}_d
/P{603 0 98 0 569 729 _sc
197 648 _m
197 374 _l
321 374 _l
367 374 402 385 427 409 _c
452 433 465 467 465 511 _c
465 555 452 588 427 612 _c
402 636 367 648 321 648 _c
197 648 _l
98 729 _m
321 729 _l
402 729 464 710 506 673 _c
548 636 569 582 569 511 _c
569 439 548 384 506 348 _c
464 311 402 293 321 293 _c
197 293 _l
197 0 _l
98 0 _l
98 729 _l
_cl}_d
/underscore{500 0 -9 -235 510 -165 _sc
510 -165 _m
510 -235 _l
-9 -235 _l
-9 -165 _l
510 -165 _l
_cl}_d
/a{{613 0 60 -13 522 560 _sc
343 275 _m
270 275 220 266 192 250 _c
164 233 150 205 150 165 _c
150 133 160 107 181 89 _c
202 70 231 61 267 61 _c
317 61 357 78 387 114 _c
417 149 432 196 432 255 _c
432 275 _l
343 275 _l
522 312 _m
522 0 _l
432 0 _l
432 83 _l
411 49 385 25 355 10 _c
325 -5 287 -13 243 -13 _c
187 -13 142 2 109 33 _c
76 64 60 106 60 159 _c
}_e{60 220 80 266 122 298 _c
163 329 224 345 306 345 _c
432 345 _l
432 354 _l
432 395 418 427 391 450 _c
364 472 326 484 277 484 _c
245 484 215 480 185 472 _c
155 464 127 453 100 439 _c
100 522 _l
132 534 164 544 195 550 _c
226 556 256 560 286 560 _c
365 560 424 539 463 498 _c
502 457 522 395 522 312 _c
_cl}_e}_d
/b{{635 0 91 -13 580 760 _sc
487 273 _m
487 339 473 390 446 428 _c
418 466 381 485 334 485 _c
286 485 249 466 222 428 _c
194 390 181 339 181 273 _c
181 207 194 155 222 117 _c
249 79 286 61 334 61 _c
381 61 418 79 446 117 _c
473 155 487 207 487 273 _c
181 464 _m
199 496 223 520 252 536 _c
281 552 316 560 356 560 _c
422 560 476 533 518 481 _c
559 428 580 359 580 273 _c
}_e{580 187 559 117 518 65 _c
476 13 422 -13 356 -13 _c
316 -13 281 -5 252 10 _c
223 25 199 49 181 82 _c
181 0 _l
91 0 _l
91 760 _l
181 760 _l
181 464 _l
_cl}_e}_d
/c{{550 0 55 -13 488 560 _sc
488 526 _m
488 442 _l
462 456 437 466 411 473 _c
385 480 360 484 334 484 _c
276 484 230 465 198 428 _c
166 391 150 339 150 273 _c
150 206 166 154 198 117 _c
230 80 276 62 334 62 _c
360 62 385 65 411 72 _c
437 79 462 90 488 104 _c
488 21 _l
462 9 436 0 410 -5 _c
383 -10 354 -13 324 -13 _c
242 -13 176 12 128 64 _c
}_e{79 115 55 185 55 273 _c
55 362 79 432 128 483 _c
177 534 244 560 330 560 _c
358 560 385 557 411 551 _c
437 545 463 537 488 526 _c
_cl}_e}_d
/d{{635 0 55 -13 544 760 _sc
454 464 _m
454 760 _l
544 760 _l
544 0 _l
454 0 _l
454 82 _l
435 49 411 25 382 10 _c
353 -5 319 -13 279 -13 _c
213 -13 159 13 117 65 _c
75 117 55 187 55 273 _c
55 359 75 428 117 481 _c
159 533 213 560 279 560 _c
319 560 353 552 382 536 _c
411 520 435 496 454 464 _c
148 273 _m
148 207 161 155 188 117 _c
215 79 253 61 301 61 _c
}_e{348 61 385 79 413 117 _c
440 155 454 207 454 273 _c
454 339 440 390 413 428 _c
385 466 348 485 301 485 _c
253 485 215 466 188 428 _c
161 390 148 339 148 273 _c
_cl}_e}_d
/e{{615 0 55 -13 562 560 _sc
562 296 _m
562 252 _l
149 252 _l
153 190 171 142 205 110 _c
238 78 284 62 344 62 _c
378 62 412 66 444 74 _c
476 82 509 95 541 113 _c
541 28 _l
509 14 476 3 442 -3 _c
408 -9 373 -13 339 -13 _c
251 -13 182 12 131 62 _c
80 112 55 181 55 268 _c
55 357 79 428 127 481 _c
175 533 241 560 323 560 _c
397 560 455 536 498 489 _c
}_e{540 441 562 377 562 296 _c
472 322 _m
471 371 457 410 431 440 _c
404 469 368 484 324 484 _c
274 484 234 469 204 441 _c
174 413 156 373 152 322 _c
472 322 _l
_cl}_e}_d
/f{352 0 23 0 371 760 _sc
371 760 _m
371 685 _l
285 685 _l
253 685 230 678 218 665 _c
205 652 199 629 199 595 _c
199 547 _l
347 547 _l
347 477 _l
199 477 _l
199 0 _l
109 0 _l
109 477 _l
23 477 _l
23 547 _l
109 547 _l
109 585 _l
109 645 123 690 151 718 _c
179 746 224 760 286 760 _c
371 760 _l
_cl}_d
/i{278 0 94 0 184 760 _sc
94 547 _m
184 547 _l
184 0 _l
94 0 _l
94 547 _l
94 760 _m
184 760 _l
184 646 _l
94 646 _l
94 760 _l
_cl}_d
/l{278 0 94 0 184 760 _sc
94 760 _m
184 760 _l
184 0 _l
94 0 _l
94 760 _l
_cl}_d
/n{634 0 91 0 549 560 _sc
549 330 _m
549 0 _l
459 0 _l
459 327 _l
459 379 448 417 428 443 _c
408 469 378 482 338 482 _c
289 482 251 466 223 435 _c
195 404 181 362 181 309 _c
181 0 _l
91 0 _l
91 547 _l
181 547 _l
181 462 _l
202 494 227 519 257 535 _c
286 551 320 560 358 560 _c
420 560 468 540 500 501 _c
532 462 549 405 549 330 _c
_cl}_d
/o{612 0 55 -13 557 560 _sc
306 484 _m
258 484 220 465 192 427 _c
164 389 150 338 150 273 _c
150 207 163 156 191 118 _c
219 80 257 62 306 62 _c
354 62 392 80 420 118 _c
448 156 462 207 462 273 _c
462 337 448 389 420 427 _c
392 465 354 484 306 484 _c
306 560 _m
384 560 445 534 490 484 _c
534 433 557 363 557 273 _c
557 183 534 113 490 63 _c
445 12 384 -13 306 -13 _c
227 -13 165 12 121 63 _c
77 113 55 183 55 273 _c
55 363 77 433 121 484 _c
165 534 227 560 306 560 _c
_cl}_d
/p{{635 0 91 -207 580 560 _sc
181 82 _m
181 -207 _l
91 -207 _l
91 547 _l
181 547 _l
181 464 _l
199 496 223 520 252 536 _c
281 552 316 560 356 560 _c
422 560 476 533 518 481 _c
559 428 580 359 580 273 _c
580 187 559 117 518 65 _c
476 13 422 -13 356 -13 _c
316 -13 281 -5 252 10 _c
223 25 199 49 181 82 _c
487 273 _m
487 339 473 390 446 428 _c
418 466 381 485 334 485 _c
}_e{286 485 249 466 222 428 _c
194 390 181 339 181 273 _c
181 207 194 155 222 117 _c
249 79 286 61 334 61 _c
381 61 418 79 446 117 _c
473 155 487 207 487 273 _c
_cl}_e}_d
/r{411 0 91 0 411 560 _sc
411 463 _m
401 469 390 473 378 476 _c
366 478 353 480 339 480 _c
288 480 249 463 222 430 _c
194 397 181 350 181 288 _c
181 0 _l
91 0 _l
91 547 _l
181 547 _l
181 462 _l
199 495 224 520 254 536 _c
284 552 321 560 365 560 _c
371 560 378 559 386 559 _c
393 558 401 557 411 555 _c
411 463 _l
_cl}_d
/s{{521 0 54 -13 472 560 _sc
443 531 _m
443 446 _l
417 458 391 468 364 475 _c
336 481 308 485 279 485 _c
234 485 200 478 178 464 _c
156 450 145 430 145 403 _c
145 382 153 366 169 354 _c
185 342 217 330 265 320 _c
296 313 _l
360 299 405 279 432 255 _c
458 230 472 195 472 151 _c
472 100 452 60 412 31 _c
372 1 316 -13 246 -13 _c
216 -13 186 -10 154 -5 _c
}_e{122 0 89 8 54 20 _c
54 113 _l
87 95 120 82 152 74 _c
184 65 216 61 248 61 _c
290 61 323 68 346 82 _c
368 96 380 117 380 144 _c
380 168 371 187 355 200 _c
339 213 303 226 247 238 _c
216 245 _l
160 257 119 275 95 299 _c
70 323 58 356 58 399 _c
58 450 76 490 112 518 _c
148 546 200 560 268 560 _c
301 560 332 557 362 552 _c
391 547 418 540 443 531 _c
}_e{_cl}_e}_d
/t{392 0 27 0 368 702 _sc
183 702 _m
183 547 _l
368 547 _l
368 477 _l
183 477 _l
183 180 _l
183 135 189 106 201 94 _c
213 81 238 75 276 75 _c
368 75 _l
368 0 _l
276 0 _l
206 0 158 13 132 39 _c
106 65 93 112 93 180 _c
93 477 _l
27 477 _l
27 547 _l
93 547 _l
93 702 _l
183 702 _l
_cl}_d
/u{634 0 85 -13 543 560 _sc
85 216 _m
85 547 _l
175 547 _l
175 219 _l
175 167 185 129 205 103 _c
225 77 255 64 296 64 _c
344 64 383 79 411 110 _c
439 141 453 183 453 237 _c
453 547 _l
543 547 _l
543 0 _l
453 0 _l
453 84 _l
431 50 405 26 377 10 _c
348 -5 315 -13 277 -13 _c
214 -13 166 6 134 45 _c
101 83 85 140 85 216 _c
311 560 _m
311 560 _l
_cl}_d
/x{592 0 29 0 559 547 _sc
549 547 _m
351 281 _l
559 0 _l
453 0 _l
294 215 _l
135 0 _l
29 0 _l
241 286 _l
47 547 _l
153 547 _l
298 352 _l
443 547 _l
549 547 _l
_cl}_d
/y{592 0 30 -207 562 547 _sc
322 -50 _m
296 -114 271 -157 247 -177 _c
223 -197 191 -207 151 -207 _c
79 -207 _l
79 -132 _l
132 -132 _l
156 -132 175 -126 189 -114 _c
203 -102 218 -75 235 -31 _c
251 9 _l
30 547 _l
125 547 _l
296 119 _l
467 547 _l
562 547 _l
322 -50 _l
_cl}_d
/twosuperior{401 0 46 326 338 742 _sc
131 382 _m
338 382 _l
338 326 _l
46 326 _l
46 380 _l
57 390 73 404 93 422 _c
205 521 261 586 261 617 _c
261 638 252 655 235 669 _c
218 682 196 689 169 689 _c
152 689 134 686 114 680 _c
94 674 72 666 49 655 _c
49 715 _l
73 724 96 731 118 735 _c
140 739 160 742 179 742 _c
226 742 264 731 292 710 _c
320 688 335 660 335 625 _c
335 579 281 510 173 418 _c
155 402 141 390 131 382 _c
_cl}_d
end readonly def

/BuildGlyph
 {exch begin
 CharStrings exch
 2 copy known not{pop /.notdef}if
 true 3 1 roll get exec
 end}_d

/BuildChar {
 1 index /Encoding get exch get
 1 index /BuildGlyph get exec
}_d

FontName currentdict end definefont pop
%!PS-Adobe-3.0 Resource-Font
%%Title: DejaVu Sans Oblique
%%Copyright: Copyright (c) 2003 by Bitstream, Inc. All Rights Reserved. Copyright (c) 2006 by Tavmjong Bah. All Rights Reserved. DejaVu changes are in public domain 
%%Creator: Converted from TrueType to type 3 by PPR
25 dict begin
/_d{bind def}bind def
/_m{moveto}_d
/_l{lineto}_d
/_cl{closepath eofill}_d
/_c{curveto}_d
/_sc{7 -1 roll{setcachedevice}{pop pop pop pop pop pop}ifelse}_d
/_e{exec}_d
/FontName /DejaVuSans-Oblique def
/PaintType 0 def
/FontMatrix[.001 0 0 .001 0 0]def
/FontBBox[-1016 -350 1659 1068]def
/FontType 3 def
/Encoding [ /rho ] def
/FontInfo 10 dict dup begin
/FamilyName (DejaVu Sans) def
/FullName (DejaVu Sans Oblique) def
/Notice (Copyright (c) 2003 by Bitstream, Inc. All Rights Reserved. Copyright (c) 2006 by Tavmjong Bah. All Rights Reserved. DejaVu changes are in public domain ) def
/Weight (Oblique) def
/Version (Version 2.35) def
/ItalicAngle -11.0 def
/isFixedPitch false def
/UnderlinePosition -130 def
/UnderlineThickness 90 def
end readonly def
/CharStrings 2 dict dup begin
/.notdef 0 def
/rho{{635 0 16 -207 599 560 _sc
188 449 _m
214 482 254 513 310 543 _c
331 554 371 560 431 560 _c
497 560 545 533 577 481 _c
608 428 615 359 599 273 _c
582 187 548 117 496 65 _c
444 13 385 -13 319 -13 _c
279 -13 246 -5 220 10 _c
194 25 175 49 163 82 _c
106 -207 _l
16 -207 _l
109 268 _l
123 343 150 403 188 449 _c
506 273 _m
518 339 515 391 495 429 _c
475 466 441 485 394 485 _c
}_e{346 485 305 466 271 429 _c
236 391 212 339 200 273 _c
187 207 190 155 210 117 _c
230 79 263 61 311 61 _c
359 61 400 79 435 117 _c
469 155 492 207 506 273 _c
_cl}_e}_d
end readonly def

/BuildGlyph
 {exch begin
 CharStrings exch
 2 copy known not{pop /.notdef}if
 true 3 1 roll get exec
 end}_d

/BuildChar {
 1 index /Encoding get exch get
 1 index /BuildGlyph get exec
}_d

FontName currentdict end definefont pop
end
%%EndProlog
mpldict begin
494.692 55.525 translate
90 rotate
680.95 377.384 0 0 clipbox
gsave
0 0 m
680.95 0 l
680.95 377.38375 l
0 377.38375 l
cl
1.000 setgray
fill
grestore
gsave
59.95 37.54375 m
338.95 37.54375 l
338.95 370.18375 l
59.95 370.18375 l
cl
1.000 setgray
fill
grestore
0.800 setlinewidth
1 setlinejoin
0 setlinecap
[] 0 setdash
0.000 setgray
gsave
/o {
gsave
newpath
translate
0.8 setlinewidth
1 setlinejoin
0 setlinecap
0 0 m
0 -3.5 l

gsave
0.000 setgray
fill
grestore
stroke
grestore
} bind def
72.6318 37.5438 o
grestore
/DejaVuSans findfont
10.000 scalefont
setfont
gsave
64.678693 22.950000 translate
0.000000 rotate
0.000000 0 m /zero glyphshow
6.362305 0 m /period glyphshow
9.541016 0 m /zero glyphshow
grestore
gsave
/o {
gsave
newpath
translate
0.8 setlinewidth
1 setlinejoin
0 setlinecap
0 0 m
0 -3.5 l

gsave
0.000 setgray
fill
grestore
stroke
grestore
} bind def
123.359 37.5438 o
grestore
gsave
115.405966 22.950000 translate
0.000000 rotate
0.000000 0 m /zero glyphshow
6.362305 0 m /period glyphshow
9.541016 0 m /two glyphshow
grestore
gsave
/o {
gsave
newpath
translate
0.8 setlinewidth
1 setlinejoin
0 setlinecap
0 0 m
0 -3.5 l

gsave
0.000 setgray
fill
grestore
stroke
grestore
} bind def
174.086 37.5438 o
grestore
gsave
166.133239 22.950000 translate
0.000000 rotate
0.000000 0 m /zero glyphshow
6.362305 0 m /period glyphshow
9.541016 0 m /four glyphshow
grestore
gsave
/o {
gsave
newpath
translate
0.8 setlinewidth
1 setlinejoin
0 setlinecap
0 0 m
0 -3.5 l

gsave
0.000 setgray
fill
grestore
stroke
grestore
} bind def
224.814 37.5438 o
grestore
gsave
216.860511 22.950000 translate
0.000000 rotate
0.000000 0 m /zero glyphshow
6.362305 0 m /period glyphshow
9.541016 0 m /six glyphshow
grestore
gsave
/o {
gsave
newpath
translate
0.8 setlinewidth
1 setlinejoin
0 setlinecap
0 0 m
0 -3.5 l

gsave
0.000 setgray
fill
grestore
stroke
grestore
} bind def
275.541 37.5438 o
grestore
gsave
267.587784 22.950000 translate
0.000000 rotate
0.000000 0 m /zero glyphshow
6.362305 0 m /period glyphshow
9.541016 0 m /eight glyphshow
grestore
gsave
/o {
gsave
newpath
translate
0.8 setlinewidth
1 setlinejoin
0 setlinecap
0 0 m
0 -3.5 l

gsave
0.000 setgray
fill
grestore
stroke
grestore
} bind def
326.268 37.5438 o
grestore
gsave
318.315057 22.950000 translate
0.000000 rotate
0.000000 0 m /one glyphshow
6.362305 0 m /period glyphshow
9.541016 0 m /zero glyphshow
grestore
gsave
193.450000 10.200000 translate
0.000000 rotate
/DejaVuSans-Oblique findfont
10.0 scalefont
setfont
0.000000 0.406250 moveto
/rho glyphshow
/DejaVuSans findfont
7.0 scalefont
setfont
6.347656 -1.234375 moveto
/zero glyphshow

grestore
gsave
/o {
gsave
newpath
translate
0.8 setlinewidth
1 setlinejoin
0 setlinecap
0 0 m
-3.5 0 l

gsave
0.000 setgray
fill
grestore
stroke
grestore
} bind def
59.95 52.6638 o
grestore
gsave
46.590625 48.866875 translate
0.000000 rotate
0.000000 0 m /zero glyphshow
grestore
gsave
/o {
gsave
newpath
translate
0.8 setlinewidth
1 setlinejoin
0 setlinecap
0 0 m
-3.5 0 l

gsave
0.000 setgray
fill
grestore
stroke
grestore
} bind def
59.95 102.346 o
grestore
gsave
27.512500 98.548663 translate
0.000000 rotate
0.000000 0 m /two glyphshow
6.362305 0 m /zero glyphshow
12.724609 0 m /zero glyphshow
19.086914 0 m /zero glyphshow
grestore
gsave
/o {
gsave
newpath
translate
0.8 setlinewidth
1 setlinejoin
0 setlinecap
0 0 m
-3.5 0 l

gsave
0.000 setgray
fill
grestore
stroke
grestore
} bind def
59.95 152.027 o
grestore
gsave
27.512500 148.230450 translate
0.000000 rotate
0.000000 0 m /four glyphshow
6.362305 0 m /zero glyphshow
12.724609 0 m /zero glyphshow
19.086914 0 m /zero glyphshow
grestore
gsave
/o {
gsave
newpath
translate
0.8 setlinewidth
1 setlinejoin
0 setlinecap
0 0 m
-3.5 0 l

gsave
0.000 setgray
fill
grestore
stroke
grestore
} bind def
59.95 201.709 o
grestore
gsave
27.512500 197.912238 translate
0.000000 rotate
0.000000 0 m /six glyphshow
6.362305 0 m /zero glyphshow
12.724609 0 m /zero glyphshow
19.086914 0 m /zero glyphshow
grestore
gsave
/o {
gsave
newpath
translate
0.8 setlinewidth
1 setlinejoin
0 setlinecap
0 0 m
-3.5 0 l

gsave
0.000 setgray
fill
grestore
stroke
grestore
} bind def
59.95 251.391 o
grestore
gsave
27.512500 247.594026 translate
0.000000 rotate
0.000000 0 m /eight glyphshow
6.362305 0 m /zero glyphshow
12.724609 0 m /zero glyphshow
19.086914 0 m /zero glyphshow
grestore
gsave
/o {
gsave
newpath
translate
0.8 setlinewidth
1 setlinejoin
0 setlinecap
0 0 m
-3.5 0 l

gsave
0.000 setgray
fill
grestore
stroke
grestore
} bind def
59.95 301.073 o
grestore
gsave
21.153125 297.275813 translate
0.000000 rotate
0.000000 0 m /one glyphshow
6.362305 0 m /zero glyphshow
12.724609 0 m /zero glyphshow
19.086914 0 m /zero glyphshow
25.449219 0 m /zero glyphshow
grestore
gsave
/o {
gsave
newpath
translate
0.8 setlinewidth
1 setlinejoin
0 setlinecap
0 0 m
-3.5 0 l

gsave
0.000 setgray
fill
grestore
stroke
grestore
} bind def
59.95 350.754 o
grestore
gsave
21.153125 346.957601 translate
0.000000 rotate
0.000000 0 m /one glyphshow
6.362305 0 m /two glyphshow
12.724609 0 m /zero glyphshow
19.086914 0 m /zero glyphshow
25.449219 0 m /zero glyphshow
grestore
gsave
14.793750 148.465313 translate
90.000000 rotate
0.000000 0 m /n glyphshow
6.337891 0 m /underscore glyphshow
11.337891 0 m /s glyphshow
16.547852 0 m /t glyphshow
20.468750 0 m /e glyphshow
26.621094 0 m /p glyphshow
32.968750 0 m /s glyphshow
38.178711 0 m /space glyphshow
41.357422 0 m /f glyphshow
44.877930 0 m /o glyphshow
50.996094 0 m /r glyphshow
55.107422 0 m /space glyphshow
58.286133 0 m /c glyphshow
63.784180 0 m /o glyphshow
69.902344 0 m /n glyphshow
76.240234 0 m /s glyphshow
81.450195 0 m /e glyphshow
87.602539 0 m /n glyphshow
93.940430 0 m /s glyphshow
99.150391 0 m /u glyphshow
105.488281 0 m /s glyphshow
grestore
1.500 setlinewidth
2 setlinecap
0.122 0.467 0.706 setrgbcolor
gsave
279 332.6 59.95 37.54 clipbox
72.631818 52.66375 m
77.808071 82.359176 l
82.984323 103.945167 l
88.160575 124.482128 l
93.336827 140.506864 l
98.51308 172.225953 l
103.689332 183.753121 l
108.865584 201.878528 l
114.041837 215.99213 l
119.218089 248.395337 l
124.394341 244.057372 l
129.570594 249.33097 l
134.746846 282.54163 l
139.923098 263.42147 l
145.099351 274.519139 l
150.275603 322.376736 l
155.451855 320.24961 l
160.628108 313.584425 l
165.80436 328.029902 l
170.980612 317.928228 l
176.156865 274.113115 l
181.333117 349.680853 l
186.509369 355.06375 l
191.685622 349.939819 l
196.861874 334.258756 l
202.038126 320.788409 l
207.214378 346.025763 l
212.390631 353.049899 l
217.566883 341.319283 l
222.743135 324.793506 l
227.919388 318.661283 l
233.09564 305.05605 l
238.271892 299.99596 l
243.448145 315.904192 l
248.624397 337.757223 l
253.800649 292.627405 l
258.976902 279.269587 l
264.153154 278.246515 l
269.329406 259.86562 l
274.505659 241.012996 l
279.681911 245.235203 l
284.858163 199.197699 l
290.034416 214.06547 l
295.210668 178.959947 l
300.38692 178.723958 l
305.563173 158.882791 l
310.739425 132.984545 l
315.915677 107.319057 l
321.091929 91.442497 l
326.268182 52.66375 l
stroke
grestore
1.000 0.498 0.055 setrgbcolor
gsave
279 332.6 59.95 37.54 clipbox
72.631818 61.677756 m
77.808071 83.959735 l
82.984323 105.318236 l
88.160575 125.75326 l
93.336827 145.264805 l
98.51308 163.852873 l
103.689332 181.517463 l
108.865584 198.258575 l
114.041837 214.076209 l
119.218089 228.970365 l
124.394341 242.941044 l
129.570594 255.988244 l
134.746846 268.111967 l
139.923098 279.312212 l
145.099351 289.588979 l
150.275603 298.942269 l
155.451855 307.37208 l
160.628108 314.878414 l
165.80436 321.46127 l
170.980612 327.120648 l
176.156865 331.856548 l
181.333117 335.66897 l
186.509369 338.557915 l
191.685622 340.523381 l
196.861874 341.56537 l
202.038126 341.683881 l
207.214378 340.878914 l
212.390631 339.15047 l
217.566883 336.498547 l
222.743135 332.923147 l
227.919388 328.424268 l
233.09564 323.001912 l
238.271892 316.656079 l
243.448145 309.386767 l
248.624397 301.193977 l
253.800649 292.07771 l
258.976902 282.037965 l
264.153154 271.074742 l
269.329406 259.188041 l
274.505659 246.377862 l
279.681911 232.644205 l
284.858163 217.987071 l
290.034416 202.406459 l
295.210668 185.902369 l
300.38692 168.474801 l
305.563173 150.123755 l
310.739425 130.849231 l
315.915677 110.65123 l
321.091929 89.529751 l
326.268182 67.484794 l
stroke
grestore
0.800 setlinewidth
0 setlinejoin
[] 0 setdash
0.000 setgray
gsave
59.95 37.54375 m
59.95 370.18375 l
stroke
grestore
gsave
338.95 37.54375 m
338.95 370.18375 l
stroke
grestore
gsave
59.95 37.54375 m
338.95 37.54375 l
stroke
grestore
gsave
59.95 370.18375 m
338.95 370.18375 l
stroke
grestore
1.000 setlinewidth
0 setlinecap
0.800 setgray
gsave
91.754688 42.54375 m
307.145312 42.54375 l
308.478646 42.54375 309.145312 43.210417 309.145312 44.54375 c
309.145312 72.8875 l
309.145312 74.220833 308.478646 74.8875 307.145312 74.8875 c
91.754688 74.8875 l
90.421354 74.8875 89.754688 74.220833 89.754688 72.8875 c
89.754688 44.54375 l
89.754688 43.210417 90.421354 42.54375 91.754688 42.54375 c
cl
gsave
1.000 setgray
fill
grestore
stroke
grestore
1.500 setlinewidth
1 setlinejoin
2 setlinecap
[] 0 setdash
0.122 0.467 0.706 setrgbcolor
gsave
93.754688 66.79375 m
113.754688 66.79375 l
stroke
grestore
0.000 setgray
gsave
121.754688 63.293750 translate
0.000000 rotate
0.000000 0 m /d glyphshow
6.347656 0 m /a glyphshow
12.475586 0 m /t glyphshow
16.396484 0 m /a glyphshow
grestore
1.000 0.498 0.055 setrgbcolor
gsave
93.754688 52.121875 m
113.754688 52.121875 l
stroke
grestore
0.000 setgray
gsave
121.754688 48.621875 translate
0.000000 rotate
0.000000 0 m /f glyphshow
3.520508 0 m /i glyphshow
6.298828 0 m /t glyphshow
10.219727 0 m /colon glyphshow
13.588867 0 m /space glyphshow
16.767578 0 m /hyphen glyphshow
20.375977 0 m /four glyphshow
26.738281 0 m /four glyphshow
33.100586 0 m /six glyphshow
39.462891 0 m /two glyphshow
45.825195 0 m /nine glyphshow
52.187500 0 m /period glyphshow
55.366211 0 m /four glyphshow
61.728516 0 m /four glyphshow
68.090820 0 m /x glyphshow
74.008789 0 m /twosuperior glyphshow
78.017578 0 m /plus glyphshow
86.396484 0 m /four glyphshow
92.758789 0 m /four glyphshow
99.121094 0 m /eight glyphshow
105.483398 0 m /six glyphshow
111.845703 0 m /three glyphshow
118.208008 0 m /period glyphshow
121.386719 0 m /two glyphshow
127.749023 0 m /one glyphshow
134.111328 0 m /x glyphshow
140.029297 0 m /plus glyphshow
148.408203 0 m /three glyphshow
154.770508 0 m /six glyphshow
161.132812 0 m /two glyphshow
167.495117 0 m /period glyphshow
170.673828 0 m /eight glyphshow
177.036133 0 m /seven glyphshow
grestore
gsave
394.75 37.54375 m
673.75 37.54375 l
673.75 370.18375 l
394.75 370.18375 l
cl
1.000 setgray
fill
grestore
0.800 setlinewidth
0 setlinecap
gsave
/o {
gsave
newpath
translate
0.8 setlinewidth
1 setlinejoin
0 setlinecap
0 0 m
0 -3.5 l

gsave
0.000 setgray
fill
grestore
stroke
grestore
} bind def
407.432 37.5438 o
grestore
gsave
399.478693 22.950000 translate
0.000000 rotate
0.000000 0 m /zero glyphshow
6.362305 0 m /period glyphshow
9.541016 0 m /zero glyphshow
grestore
gsave
/o {
gsave
newpath
translate
0.8 setlinewidth
1 setlinejoin
0 setlinecap
0 0 m
0 -3.5 l

gsave
0.000 setgray
fill
grestore
stroke
grestore
} bind def
458.159 37.5438 o
grestore
gsave
450.205966 22.950000 translate
0.000000 rotate
0.000000 0 m /zero glyphshow
6.362305 0 m /period glyphshow
9.541016 0 m /two glyphshow
grestore
gsave
/o {
gsave
newpath
translate
0.8 setlinewidth
1 setlinejoin
0 setlinecap
0 0 m
0 -3.5 l

gsave
0.000 setgray
fill
grestore
stroke
grestore
} bind def
508.886 37.5438 o
grestore
gsave
500.933239 22.950000 translate
0.000000 rotate
0.000000 0 m /zero glyphshow
6.362305 0 m /period glyphshow
9.541016 0 m /four glyphshow
grestore
gsave
/o {
gsave
newpath
translate
0.8 setlinewidth
1 setlinejoin
0 setlinecap
0 0 m
0 -3.5 l

gsave
0.000 setgray
fill
grestore
stroke
grestore
} bind def
559.614 37.5438 o
grestore
gsave
551.660511 22.950000 translate
0.000000 rotate
0.000000 0 m /zero glyphshow
6.362305 0 m /period glyphshow
9.541016 0 m /six glyphshow
grestore
gsave
/o {
gsave
newpath
translate
0.8 setlinewidth
1 setlinejoin
0 setlinecap
0 0 m
0 -3.5 l

gsave
0.000 setgray
fill
grestore
stroke
grestore
} bind def
610.341 37.5438 o
grestore
gsave
602.387784 22.950000 translate
0.000000 rotate
0.000000 0 m /zero glyphshow
6.362305 0 m /period glyphshow
9.541016 0 m /eight glyphshow
grestore
gsave
/o {
gsave
newpath
translate
0.8 setlinewidth
1 setlinejoin
0 setlinecap
0 0 m
0 -3.5 l

gsave
0.000 setgray
fill
grestore
stroke
grestore
} bind def
661.068 37.5438 o
grestore
gsave
653.115057 22.950000 translate
0.000000 rotate
0.000000 0 m /one glyphshow
6.362305 0 m /period glyphshow
9.541016 0 m /zero glyphshow
grestore
gsave
528.250000 10.200000 translate
0.000000 rotate
/DejaVuSans-Oblique findfont
10.0 scalefont
setfont
0.000000 0.406250 moveto
/rho glyphshow
/DejaVuSans findfont
7.0 scalefont
setfont
6.347656 -1.234375 moveto
/zero glyphshow

grestore
gsave
/o {
gsave
newpath
translate
0.8 setlinewidth
1 setlinejoin
0 setlinecap
0 0 m
-3.5 0 l

gsave
0.000 setgray
fill
grestore
stroke
grestore
} bind def
394.75 53.7746 o
grestore
gsave
371.843750 49.977768 translate
0.000000 rotate
0.000000 0 m /zero glyphshow
6.362305 0 m /period glyphshow
9.541016 0 m /zero glyphshow
grestore
gsave
/o {
gsave
newpath
translate
0.8 setlinewidth
1 setlinejoin
0 setlinecap
0 0 m
-3.5 0 l

gsave
0.000 setgray
fill
grestore
stroke
grestore
} bind def
394.75 113.919 o
grestore
gsave
371.843750 110.121670 translate
0.000000 rotate
0.000000 0 m /zero glyphshow
6.362305 0 m /period glyphshow
9.541016 0 m /two glyphshow
grestore
gsave
/o {
gsave
newpath
translate
0.8 setlinewidth
1 setlinejoin
0 setlinecap
0 0 m
-3.5 0 l

gsave
0.000 setgray
fill
grestore
stroke
grestore
} bind def
394.75 174.062 o
grestore
gsave
371.843750 170.265572 translate
0.000000 rotate
0.000000 0 m /zero glyphshow
6.362305 0 m /period glyphshow
9.541016 0 m /four glyphshow
grestore
gsave
/o {
gsave
newpath
translate
0.8 setlinewidth
1 setlinejoin
0 setlinecap
0 0 m
-3.5 0 l

gsave
0.000 setgray
fill
grestore
stroke
grestore
} bind def
394.75 234.206 o
grestore
gsave
371.843750 230.409473 translate
0.000000 rotate
0.000000 0 m /zero glyphshow
6.362305 0 m /period glyphshow
9.541016 0 m /six glyphshow
grestore
gsave
/o {
gsave
newpath
translate
0.8 setlinewidth
1 setlinejoin
0 setlinecap
0 0 m
-3.5 0 l

gsave
0.000 setgray
fill
grestore
stroke
grestore
} bind def
394.75 294.35 o
grestore
gsave
371.843750 290.553375 translate
0.000000 rotate
0.000000 0 m /zero glyphshow
6.362305 0 m /period glyphshow
9.541016 0 m /eight glyphshow
grestore
gsave
/o {
gsave
newpath
translate
0.8 setlinewidth
1 setlinejoin
0 setlinecap
0 0 m
-3.5 0 l

gsave
0.000 setgray
fill
grestore
stroke
grestore
} bind def
394.75 354.494 o
grestore
gsave
371.843750 350.697277 translate
0.000000 rotate
0.000000 0 m /one glyphshow
6.362305 0 m /period glyphshow
9.541016 0 m /zero glyphshow
grestore
gsave
365.765625 128.434063 translate
90.000000 rotate
0.000000 0 m /P glyphshow
5.905273 0 m /r glyphshow
9.766602 0 m /o glyphshow
15.884766 0 m /b glyphshow
22.232422 0 m /a glyphshow
28.360352 0 m /b glyphshow
34.708008 0 m /i glyphshow
37.486328 0 m /l glyphshow
40.264648 0 m /i glyphshow
43.042969 0 m /t glyphshow
46.963867 0 m /y glyphshow
52.881836 0 m /space glyphshow
56.060547 0 m /o glyphshow
62.178711 0 m /f glyphshow
65.699219 0 m /space glyphshow
68.877930 0 m /c glyphshow
74.375977 0 m /o glyphshow
80.494141 0 m /n glyphshow
86.832031 0 m /s glyphshow
92.041992 0 m /e glyphshow
98.194336 0 m /n glyphshow
104.532227 0 m /s glyphshow
109.742188 0 m /u glyphshow
116.080078 0 m /s glyphshow
121.290039 0 m /space glyphshow
124.468750 0 m /equal glyphshow
132.847656 0 m /space glyphshow
136.026367 0 m /plus glyphshow
144.405273 0 m /one glyphshow
grestore
1.500 setlinewidth
2 setlinecap
0.122 0.467 0.706 setrgbcolor
gsave
279 332.6 394.7 37.54 clipbox
407.431818 53.774643 m
412.608071 61.292631 l
417.784323 61.292631 l
422.960575 62.796229 l
428.136827 77.832204 l
433.31308 77.832204 l
438.489332 74.825009 l
443.665584 94.371777 l
448.841837 101.889765 l
454.018089 125.947325 l
459.194341 115.422143 l
464.370594 119.932935 l
469.546846 134.968911 l
474.723098 133.465313 l
479.899351 136.472508 l
485.075603 153.012081 l
490.251855 150.004886 l
495.428108 150.004886 l
500.60436 165.040861 l
505.780612 196.61641 l
510.956865 172.558849 l
516.133117 180.076837 l
521.309369 190.60202 l
526.485622 199.623605 l
531.661874 187.594825 l
536.838126 204.134398 l
542.014378 205.637995 l
547.190631 231.199153 l
552.366883 232.702751 l
557.543135 229.695556 l
562.719388 237.213544 l
567.89564 243.227934 l
573.071892 258.263909 l
578.248145 237.213544 l
583.424397 252.249519 l
588.600649 276.30708 l
593.776902 280.817872 l
598.953154 280.817872 l
604.129406 292.846653 l
609.305659 291.343055 l
614.481911 276.30708 l
619.658163 310.889823 l
624.834416 312.393421 l
630.010668 313.897018 l
635.18692 324.422201 l
640.363173 327.429396 l
645.539425 345.472567 l
650.715677 345.472567 l
655.891929 351.486957 l
661.068182 354.494152 l
stroke
grestore
1.000 0.498 0.055 setrgbcolor
gsave
279 332.6 394.7 37.54 clipbox
407.431818 52.66375 m
412.608071 58.835179 l
417.784323 65.006607 l
422.960575 71.178036 l
428.136827 77.349464 l
433.31308 83.520893 l
438.489332 89.692321 l
443.665584 95.86375 l
448.841837 102.035179 l
454.018089 108.206607 l
459.194341 114.378036 l
464.370594 120.549464 l
469.546846 126.720893 l
474.723098 132.892321 l
479.899351 139.06375 l
485.075603 145.235179 l
490.251855 151.406607 l
495.428108 157.578036 l
500.60436 163.749464 l
505.780612 169.920893 l
510.956865 176.092321 l
516.133117 182.26375 l
521.309369 188.435179 l
526.485622 194.606607 l
531.661874 200.778036 l
536.838126 206.949464 l
542.014378 213.120893 l
547.190631 219.292321 l
552.366883 225.46375 l
557.543135 231.635179 l
562.719388 237.806607 l
567.89564 243.978036 l
573.071892 250.149464 l
578.248145 256.320893 l
583.424397 262.492321 l
588.600649 268.66375 l
593.776902 274.835179 l
598.953154 281.006607 l
604.129406 287.178036 l
609.305659 293.349464 l
614.481911 299.520893 l
619.658163 305.692321 l
624.834416 311.86375 l
630.010668 318.035179 l
635.18692 324.206607 l
640.363173 330.378036 l
645.539425 336.549464 l
650.715677 342.720893 l
655.891929 348.892321 l
661.068182 355.06375 l
stroke
grestore
0.800 setlinewidth
0 setlinejoin
[] 0 setdash
0.000 setgray
gsave
394.75 37.54375 m
394.75 370.18375 l
stroke
grestore
gsave
673.75 37.54375 m
673.75 370.18375 l
stroke
grestore
gsave
394.75 37.54375 m
673.75 37.54375 l
stroke
grestore
gsave
394.75 370.18375 m
673.75 370.18375 l
stroke
grestore
1.000 setlinewidth
0 setlinecap
0.800 setgray
gsave
401.75 332.84 m
517.3125 332.84 l
518.645833 332.84 519.3125 333.506667 519.3125 334.84 c
519.3125 363.18375 l
519.3125 364.517083 518.645833 365.18375 517.3125 365.18375 c
401.75 365.18375 l
400.416667 365.18375 399.75 364.517083 399.75 363.18375 c
399.75 334.84 l
399.75 333.506667 400.416667 332.84 401.75 332.84 c
cl
gsave
1.000 setgray
fill
grestore
stroke
grestore
1.500 setlinewidth
1 setlinejoin
2 setlinecap
[] 0 setdash
0.122 0.467 0.706 setrgbcolor
gsave
403.75 357.09 m
423.75 357.09 l
stroke
grestore
0.000 setgray
gsave
431.750000 353.590000 translate
0.000000 rotate
0.000000 0 m /d glyphshow
6.347656 0 m /a glyphshow
12.475586 0 m /t glyphshow
16.396484 0 m /a glyphshow
grestore
1.000 0.498 0.055 setrgbcolor
gsave
403.75 342.418125 m
423.75 342.418125 l
stroke
grestore
0.000 setgray
gsave
431.750000 338.918125 translate
0.000000 rotate
0.000000 0 m /f glyphshow
3.520508 0 m /i glyphshow
6.298828 0 m /t glyphshow
10.219727 0 m /colon glyphshow
13.588867 0 m /space glyphshow
16.767578 0 m /one glyphshow
23.129883 0 m /period glyphshow
26.308594 0 m /zero glyphshow
32.670898 0 m /zero glyphshow
39.033203 0 m /six glyphshow
45.395508 0 m /x glyphshow
51.313477 0 m /hyphen glyphshow
54.921875 0 m /zero glyphshow
61.284180 0 m /period glyphshow
64.462891 0 m /zero glyphshow
70.825195 0 m /zero glyphshow
77.187500 0 m /four glyphshow
grestore

end
showpage
