%!PS-Adobe-3.0 EPSF-3.0
%%Title: ./fig/b_histograms_highres.eps
%%Creator: matplotlib version 3.2.1, http://matplotlib.org/
%%CreationDate: Fri Apr 17 00:30:24 2020
%%Orientation: landscape
%%BoundingBox: -54.627874999999975 -173.11437500000008 666.6278749999999 965.1143750000001
%%EndComments
%%BeginProlog
/mpldict 8 dict def
mpldict begin
/m { moveto } bind def
/l { lineto } bind def
/r { rlineto } bind def
/c { curveto } bind def
/cl { closepath } bind def
/box {
m
1 index 0 r
0 exch r
neg 0 r
cl
} bind def
/clipbox {
box
clip
newpath
} bind def
%!PS-Adobe-3.0 Resource-Font
%%Title: DejaVu Sans
%%Copyright: Copyright (c) 2003 by Bitstream, Inc. All Rights Reserved. Copyright (c) 2006 by Tavmjong Bah. All Rights Reserved. DejaVu changes are in public domain 
%%Creator: Converted from TrueType to type 3 by PPR
25 dict begin
/_d{bind def}bind def
/_m{moveto}_d
/_l{lineto}_d
/_cl{closepath eofill}_d
/_c{curveto}_d
/_sc{7 -1 roll{setcachedevice}{pop pop pop pop pop pop}ifelse}_d
/_e{exec}_d
/FontName /DejaVuSans def
/PaintType 0 def
/FontMatrix[.001 0 0 .001 0 0]def
/FontBBox[-1021 -463 1793 1232]def
/FontType 3 def
/Encoding [ /space /comma /period /zero /one /two /three /four /five /six /seven /eight /equal /F /a /b /d /i /l /m /n /o /p /r /s /t /u /epsilon ] def
/FontInfo 10 dict dup begin
/FamilyName (DejaVu Sans) def
/FullName (DejaVu Sans) def
/Notice (Copyright (c) 2003 by Bitstream, Inc. All Rights Reserved. Copyright (c) 2006 by Tavmjong Bah. All Rights Reserved. DejaVu changes are in public domain ) def
/Weight (Book) def
/Version (Version 2.35) def
/ItalicAngle 0.0 def
/isFixedPitch false def
/UnderlinePosition -130 def
/UnderlineThickness 90 def
end readonly def
/CharStrings 29 dict dup begin
/.notdef 0 def
/space{318 0 0 0 0 0 _sc
}_d
/comma{318 0 77 -115 220 124 _sc
117 124 _m
220 124 _l
220 40 _l
140 -115 _l
77 -115 _l
117 40 _l
117 124 _l
_cl}_d
/period{318 0 107 0 210 124 _sc
107 124 _m
210 124 _l
210 0 _l
107 0 _l
107 124 _l
_cl}_d
/zero{636 0 66 -13 570 742 _sc
318 664 _m
267 664 229 639 203 589 _c
177 539 165 464 165 364 _c
165 264 177 189 203 139 _c
229 89 267 64 318 64 _c
369 64 407 89 433 139 _c
458 189 471 264 471 364 _c
471 464 458 539 433 589 _c
407 639 369 664 318 664 _c
318 742 _m
399 742 461 709 505 645 _c
548 580 570 486 570 364 _c
570 241 548 147 505 83 _c
461 19 399 -13 318 -13 _c
236 -13 173 19 130 83 _c
87 147 66 241 66 364 _c
66 486 87 580 130 645 _c
173 709 236 742 318 742 _c
_cl}_d
/one{636 0 110 0 544 729 _sc
124 83 _m
285 83 _l
285 639 _l
110 604 _l
110 694 _l
284 729 _l
383 729 _l
383 83 _l
544 83 _l
544 0 _l
124 0 _l
124 83 _l
_cl}_d
/two{{636 0 73 0 536 742 _sc
192 83 _m
536 83 _l
536 0 _l
73 0 _l
73 83 _l
110 121 161 173 226 239 _c
290 304 331 346 348 365 _c
380 400 402 430 414 455 _c
426 479 433 504 433 528 _c
433 566 419 598 392 622 _c
365 646 330 659 286 659 _c
255 659 222 653 188 643 _c
154 632 117 616 78 594 _c
78 694 _l
118 710 155 722 189 730 _c
223 738 255 742 284 742 _c
}_e{359 742 419 723 464 685 _c
509 647 532 597 532 534 _c
532 504 526 475 515 449 _c
504 422 484 390 454 354 _c
446 344 420 317 376 272 _c
332 227 271 164 192 83 _c
_cl}_e}_d
/three{{636 0 76 -13 556 742 _sc
406 393 _m
453 383 490 362 516 330 _c
542 298 556 258 556 212 _c
556 140 531 84 482 45 _c
432 6 362 -13 271 -13 _c
240 -13 208 -10 176 -4 _c
144 1 110 10 76 22 _c
76 117 _l
103 101 133 89 166 81 _c
198 73 232 69 268 69 _c
330 69 377 81 409 105 _c
441 129 458 165 458 212 _c
458 254 443 288 413 312 _c
383 336 341 349 287 349 _c
}_e{202 349 _l
202 430 _l
291 430 _l
339 430 376 439 402 459 _c
428 478 441 506 441 543 _c
441 580 427 609 401 629 _c
374 649 336 659 287 659 _c
260 659 231 656 200 650 _c
169 644 135 635 98 623 _c
98 711 _l
135 721 170 729 203 734 _c
235 739 266 742 296 742 _c
370 742 429 725 473 691 _c
517 657 539 611 539 553 _c
539 513 527 479 504 451 _c
481 423 448 403 406 393 _c
_cl}_e}_d
/four{636 0 49 0 580 729 _sc
378 643 _m
129 254 _l
378 254 _l
378 643 _l
352 729 _m
476 729 _l
476 254 _l
580 254 _l
580 172 _l
476 172 _l
476 0 _l
378 0 _l
378 172 _l
49 172 _l
49 267 _l
352 729 _l
_cl}_d
/five{{636 0 77 -13 549 729 _sc
108 729 _m
495 729 _l
495 646 _l
198 646 _l
198 467 _l
212 472 227 476 241 478 _c
255 480 270 482 284 482 _c
365 482 429 459 477 415 _c
525 370 549 310 549 234 _c
549 155 524 94 475 51 _c
426 8 357 -13 269 -13 _c
238 -13 207 -10 175 -6 _c
143 -1 111 6 77 17 _c
77 116 _l
106 100 136 88 168 80 _c
199 72 232 69 267 69 _c
}_e{323 69 368 83 401 113 _c
433 143 450 183 450 234 _c
450 284 433 324 401 354 _c
368 384 323 399 267 399 _c
241 399 214 396 188 390 _c
162 384 135 375 108 363 _c
108 729 _l
_cl}_e}_d
/six{{636 0 70 -13 573 742 _sc
330 404 _m
286 404 251 388 225 358 _c
199 328 186 286 186 234 _c
186 181 199 139 225 109 _c
251 79 286 64 330 64 _c
374 64 409 79 435 109 _c
461 139 474 181 474 234 _c
474 286 461 328 435 358 _c
409 388 374 404 330 404 _c
526 713 _m
526 623 _l
501 635 476 644 451 650 _c
425 656 400 659 376 659 _c
310 659 260 637 226 593 _c
}_e{192 549 172 482 168 394 _c
187 422 211 444 240 459 _c
269 474 301 482 336 482 _c
409 482 467 459 509 415 _c
551 371 573 310 573 234 _c
573 159 550 99 506 54 _c
462 9 403 -13 330 -13 _c
246 -13 181 19 137 83 _c
92 147 70 241 70 364 _c
70 479 97 571 152 639 _c
206 707 280 742 372 742 _c
396 742 421 739 447 735 _c
472 730 498 723 526 713 _c
_cl}_e}_d
/seven{636 0 82 0 551 729 _sc
82 729 _m
551 729 _l
551 687 _l
286 0 _l
183 0 _l
432 646 _l
82 646 _l
82 729 _l
_cl}_d
/eight{{636 0 68 -13 568 742 _sc
318 346 _m
271 346 234 333 207 308 _c
180 283 167 249 167 205 _c
167 161 180 126 207 101 _c
234 76 271 64 318 64 _c
364 64 401 76 428 102 _c
455 127 469 161 469 205 _c
469 249 455 283 429 308 _c
402 333 365 346 318 346 _c
219 388 _m
177 398 144 418 120 447 _c
96 476 85 511 85 553 _c
85 611 105 657 147 691 _c
188 725 245 742 318 742 _c
}_e{390 742 447 725 489 691 _c
530 657 551 611 551 553 _c
551 511 539 476 515 447 _c
491 418 459 398 417 388 _c
464 377 501 355 528 323 _c
554 291 568 251 568 205 _c
568 134 546 80 503 43 _c
459 5 398 -13 318 -13 _c
237 -13 175 5 132 43 _c
89 80 68 134 68 205 _c
68 251 81 291 108 323 _c
134 355 171 377 219 388 _c
183 544 _m
183 506 194 476 218 455 _c
}_e{242 434 275 424 318 424 _c
360 424 393 434 417 455 _c
441 476 453 506 453 544 _c
453 582 441 611 417 632 _c
393 653 360 664 318 664 _c
275 664 242 653 218 632 _c
194 611 183 582 183 544 _c
_cl}_e}_d
/equal{838 0 106 172 732 454 _sc
106 454 _m
732 454 _l
732 372 _l
106 372 _l
106 454 _l
106 255 _m
732 255 _l
732 172 _l
106 172 _l
106 255 _l
_cl}_d
/F{575 0 98 0 517 729 _sc
98 729 _m
517 729 _l
517 646 _l
197 646 _l
197 431 _l
486 431 _l
486 348 _l
197 348 _l
197 0 _l
98 0 _l
98 729 _l
_cl}_d
/a{{613 0 60 -13 522 560 _sc
343 275 _m
270 275 220 266 192 250 _c
164 233 150 205 150 165 _c
150 133 160 107 181 89 _c
202 70 231 61 267 61 _c
317 61 357 78 387 114 _c
417 149 432 196 432 255 _c
432 275 _l
343 275 _l
522 312 _m
522 0 _l
432 0 _l
432 83 _l
411 49 385 25 355 10 _c
325 -5 287 -13 243 -13 _c
187 -13 142 2 109 33 _c
76 64 60 106 60 159 _c
}_e{60 220 80 266 122 298 _c
163 329 224 345 306 345 _c
432 345 _l
432 354 _l
432 395 418 427 391 450 _c
364 472 326 484 277 484 _c
245 484 215 480 185 472 _c
155 464 127 453 100 439 _c
100 522 _l
132 534 164 544 195 550 _c
226 556 256 560 286 560 _c
365 560 424 539 463 498 _c
502 457 522 395 522 312 _c
_cl}_e}_d
/b{{635 0 91 -13 580 760 _sc
487 273 _m
487 339 473 390 446 428 _c
418 466 381 485 334 485 _c
286 485 249 466 222 428 _c
194 390 181 339 181 273 _c
181 207 194 155 222 117 _c
249 79 286 61 334 61 _c
381 61 418 79 446 117 _c
473 155 487 207 487 273 _c
181 464 _m
199 496 223 520 252 536 _c
281 552 316 560 356 560 _c
422 560 476 533 518 481 _c
559 428 580 359 580 273 _c
}_e{580 187 559 117 518 65 _c
476 13 422 -13 356 -13 _c
316 -13 281 -5 252 10 _c
223 25 199 49 181 82 _c
181 0 _l
91 0 _l
91 760 _l
181 760 _l
181 464 _l
_cl}_e}_d
/d{{635 0 55 -13 544 760 _sc
454 464 _m
454 760 _l
544 760 _l
544 0 _l
454 0 _l
454 82 _l
435 49 411 25 382 10 _c
353 -5 319 -13 279 -13 _c
213 -13 159 13 117 65 _c
75 117 55 187 55 273 _c
55 359 75 428 117 481 _c
159 533 213 560 279 560 _c
319 560 353 552 382 536 _c
411 520 435 496 454 464 _c
148 273 _m
148 207 161 155 188 117 _c
215 79 253 61 301 61 _c
}_e{348 61 385 79 413 117 _c
440 155 454 207 454 273 _c
454 339 440 390 413 428 _c
385 466 348 485 301 485 _c
253 485 215 466 188 428 _c
161 390 148 339 148 273 _c
_cl}_e}_d
/i{278 0 94 0 184 760 _sc
94 547 _m
184 547 _l
184 0 _l
94 0 _l
94 547 _l
94 760 _m
184 760 _l
184 646 _l
94 646 _l
94 760 _l
_cl}_d
/l{278 0 94 0 184 760 _sc
94 760 _m
184 760 _l
184 0 _l
94 0 _l
94 760 _l
_cl}_d
/m{{974 0 91 0 889 560 _sc
520 442 _m
542 482 569 511 600 531 _c
631 550 668 560 711 560 _c
767 560 811 540 842 500 _c
873 460 889 403 889 330 _c
889 0 _l
799 0 _l
799 327 _l
799 379 789 418 771 444 _c
752 469 724 482 686 482 _c
639 482 602 466 575 435 _c
548 404 535 362 535 309 _c
535 0 _l
445 0 _l
445 327 _l
445 379 435 418 417 444 _c
398 469 369 482 331 482 _c
}_e{285 482 248 466 221 435 _c
194 404 181 362 181 309 _c
181 0 _l
91 0 _l
91 547 _l
181 547 _l
181 462 _l
201 495 226 520 255 536 _c
283 552 317 560 357 560 _c
397 560 430 550 458 530 _c
486 510 506 480 520 442 _c
_cl}_e}_d
/n{634 0 91 0 549 560 _sc
549 330 _m
549 0 _l
459 0 _l
459 327 _l
459 379 448 417 428 443 _c
408 469 378 482 338 482 _c
289 482 251 466 223 435 _c
195 404 181 362 181 309 _c
181 0 _l
91 0 _l
91 547 _l
181 547 _l
181 462 _l
202 494 227 519 257 535 _c
286 551 320 560 358 560 _c
420 560 468 540 500 501 _c
532 462 549 405 549 330 _c
_cl}_d
/o{612 0 55 -13 557 560 _sc
306 484 _m
258 484 220 465 192 427 _c
164 389 150 338 150 273 _c
150 207 163 156 191 118 _c
219 80 257 62 306 62 _c
354 62 392 80 420 118 _c
448 156 462 207 462 273 _c
462 337 448 389 420 427 _c
392 465 354 484 306 484 _c
306 560 _m
384 560 445 534 490 484 _c
534 433 557 363 557 273 _c
557 183 534 113 490 63 _c
445 12 384 -13 306 -13 _c
227 -13 165 12 121 63 _c
77 113 55 183 55 273 _c
55 363 77 433 121 484 _c
165 534 227 560 306 560 _c
_cl}_d
/p{{635 0 91 -207 580 560 _sc
181 82 _m
181 -207 _l
91 -207 _l
91 547 _l
181 547 _l
181 464 _l
199 496 223 520 252 536 _c
281 552 316 560 356 560 _c
422 560 476 533 518 481 _c
559 428 580 359 580 273 _c
580 187 559 117 518 65 _c
476 13 422 -13 356 -13 _c
316 -13 281 -5 252 10 _c
223 25 199 49 181 82 _c
487 273 _m
487 339 473 390 446 428 _c
418 466 381 485 334 485 _c
}_e{286 485 249 466 222 428 _c
194 390 181 339 181 273 _c
181 207 194 155 222 117 _c
249 79 286 61 334 61 _c
381 61 418 79 446 117 _c
473 155 487 207 487 273 _c
_cl}_e}_d
/r{411 0 91 0 411 560 _sc
411 463 _m
401 469 390 473 378 476 _c
366 478 353 480 339 480 _c
288 480 249 463 222 430 _c
194 397 181 350 181 288 _c
181 0 _l
91 0 _l
91 547 _l
181 547 _l
181 462 _l
199 495 224 520 254 536 _c
284 552 321 560 365 560 _c
371 560 378 559 386 559 _c
393 558 401 557 411 555 _c
411 463 _l
_cl}_d
/s{{521 0 54 -13 472 560 _sc
443 531 _m
443 446 _l
417 458 391 468 364 475 _c
336 481 308 485 279 485 _c
234 485 200 478 178 464 _c
156 450 145 430 145 403 _c
145 382 153 366 169 354 _c
185 342 217 330 265 320 _c
296 313 _l
360 299 405 279 432 255 _c
458 230 472 195 472 151 _c
472 100 452 60 412 31 _c
372 1 316 -13 246 -13 _c
216 -13 186 -10 154 -5 _c
}_e{122 0 89 8 54 20 _c
54 113 _l
87 95 120 82 152 74 _c
184 65 216 61 248 61 _c
290 61 323 68 346 82 _c
368 96 380 117 380 144 _c
380 168 371 187 355 200 _c
339 213 303 226 247 238 _c
216 245 _l
160 257 119 275 95 299 _c
70 323 58 356 58 399 _c
58 450 76 490 112 518 _c
148 546 200 560 268 560 _c
301 560 332 557 362 552 _c
391 547 418 540 443 531 _c
}_e{_cl}_e}_d
/t{392 0 27 0 368 702 _sc
183 702 _m
183 547 _l
368 547 _l
368 477 _l
183 477 _l
183 180 _l
183 135 189 106 201 94 _c
213 81 238 75 276 75 _c
368 75 _l
368 0 _l
276 0 _l
206 0 158 13 132 39 _c
106 65 93 112 93 180 _c
93 477 _l
27 477 _l
27 547 _l
93 547 _l
93 702 _l
183 702 _l
_cl}_d
/u{634 0 85 -13 543 560 _sc
85 216 _m
85 547 _l
175 547 _l
175 219 _l
175 167 185 129 205 103 _c
225 77 255 64 296 64 _c
344 64 383 79 411 110 _c
439 141 453 183 453 237 _c
453 547 _l
543 547 _l
543 0 _l
453 0 _l
453 84 _l
431 50 405 26 377 10 _c
348 -5 315 -13 277 -13 _c
214 -13 166 6 134 45 _c
101 83 85 140 85 216 _c
311 560 _m
311 560 _l
_cl}_d
/epsilon{{541 0 65 -13 473 561 _sc
193 295 _m
156 303 128 317 109 338 _c
89 359 80 385 80 415 _c
80 461 98 496 135 522 _c
171 548 222 561 286 561 _c
310 561 336 559 364 555 _c
392 551 422 545 454 537 _c
454 456 _l
422 465 394 472 368 476 _c
341 480 316 482 293 482 _c
254 482 224 474 202 460 _c
178 445 167 427 167 406 _c
167 383 178 364 201 350 _c
222 336 252 329 290 329 _c
}_e{366 329 _l
366 254 _l
293 254 _l
249 254 215 245 191 229 _c
165 211 153 187 153 159 _c
153 129 166 106 194 88 _c
222 70 260 61 310 61 _c
340 61 368 63 396 69 _c
424 75 449 85 473 97 _c
473 13 _l
443 4 415 -2 388 -6 _c
360 -10 333 -13 307 -13 _c
229 -13 170 1 128 30 _c
86 60 65 103 65 159 _c
65 194 76 223 98 247 _c
120 271 152 287 193 295 _c
_cl}_e}_d
end readonly def

/BuildGlyph
 {exch begin
 CharStrings exch
 2 copy known not{pop /.notdef}if
 true 3 1 roll get exec
 end}_d

/BuildChar {
 1 index /Encoding get exch get
 1 index /BuildGlyph get exec
}_d

FontName currentdict end definefont pop
end
%%EndProlog
mpldict begin
666.628 -173.114 translate
90 rotate
1138.229 721.256 0 0 clipbox
gsave
0 0 m
1138.22875 0 l
1138.22875 721.25575 l
0 721.25575 l
cl
1.000 setgray
fill
grestore
gsave
59.66875 364.13575 m
374.774632 364.13575 l
374.774632 636.29575 l
59.66875 636.29575 l
cl
1.000 setgray
fill
grestore
gsave
315.1 272.2 59.67 364.1 clipbox
73.991745 364.13575 m
82.943616 364.13575 l
82.943616 368.734928 l
73.991745 368.734928 l
cl
0.122 0.467 0.706 setrgbcolor
fill
grestore
gsave
315.1 272.2 59.67 364.1 clipbox
82.943616 364.13575 m
91.895488 364.13575 l
91.895488 623.33575 l
82.943616 623.33575 l
cl
0.122 0.467 0.706 setrgbcolor
fill
grestore
gsave
315.1 272.2 59.67 364.1 clipbox
91.895488 364.13575 m
100.84736 364.13575 l
100.84736 396.33968 l
91.895488 396.33968 l
cl
0.122 0.467 0.706 setrgbcolor
fill
grestore
gsave
315.1 272.2 59.67 364.1 clipbox
100.84736 364.13575 m
109.799231 364.13575 l
109.799231 487.354995 l
100.84736 487.354995 l
cl
0.122 0.467 0.706 setrgbcolor
fill
grestore
gsave
315.1 272.2 59.67 364.1 clipbox
109.799231 364.13575 m
118.751103 364.13575 l
118.751103 481.20662 l
109.799231 481.20662 l
cl
0.122 0.467 0.706 setrgbcolor
fill
grestore
gsave
315.1 272.2 59.67 364.1 clipbox
118.751103 364.13575 m
127.702975 364.13575 l
127.702975 443.22225 l
118.751103 443.22225 l
cl
0.122 0.467 0.706 setrgbcolor
fill
grestore
gsave
315.1 272.2 59.67 364.1 clipbox
127.702975 364.13575 m
136.654846 364.13575 l
136.654846 486.744999 l
127.702975 486.744999 l
cl
0.122 0.467 0.706 setrgbcolor
fill
grestore
gsave
315.1 272.2 59.67 364.1 clipbox
136.654846 364.13575 m
145.606718 364.13575 l
145.606718 466.45052 l
136.654846 466.45052 l
cl
0.122 0.467 0.706 setrgbcolor
fill
grestore
gsave
315.1 272.2 59.67 364.1 clipbox
145.606718 364.13575 m
154.55859 364.13575 l
154.55859 465.55005 l
145.606718 465.55005 l
cl
0.122 0.467 0.706 setrgbcolor
fill
grestore
gsave
315.1 272.2 59.67 364.1 clipbox
154.55859 364.13575 m
163.510461 364.13575 l
163.510461 471.698425 l
154.55859 471.698425 l
cl
0.122 0.467 0.706 setrgbcolor
fill
grestore
gsave
315.1 272.2 59.67 364.1 clipbox
163.510461 364.13575 m
172.462333 364.13575 l
172.462333 464.000853 l
163.510461 464.000853 l
cl
0.122 0.467 0.706 setrgbcolor
fill
grestore
gsave
315.1 272.2 59.67 364.1 clipbox
172.462333 364.13575 m
181.414205 364.13575 l
181.414205 476.200778 l
172.462333 476.200778 l
cl
0.122 0.467 0.706 setrgbcolor
fill
grestore
gsave
315.1 272.2 59.67 364.1 clipbox
181.414205 364.13575 m
190.366076 364.13575 l
190.366076 465.685604 l
181.414205 465.685604 l
cl
0.122 0.467 0.706 setrgbcolor
fill
grestore
gsave
315.1 272.2 59.67 364.1 clipbox
190.366076 364.13575 m
199.317948 364.13575 l
199.317948 455.354398 l
190.366076 455.354398 l
cl
0.122 0.467 0.706 setrgbcolor
fill
grestore
gsave
315.1 272.2 59.67 364.1 clipbox
199.317948 364.13575 m
208.26982 364.13575 l
208.26982 484.217872 l
199.317948 484.217872 l
cl
0.122 0.467 0.706 setrgbcolor
fill
grestore
gsave
315.1 272.2 59.67 364.1 clipbox
208.26982 364.13575 m
217.221691 364.13575 l
217.221691 467.370356 l
208.26982 467.370356 l
cl
0.122 0.467 0.706 setrgbcolor
fill
grestore
gsave
315.1 272.2 59.67 364.1 clipbox
217.221691 364.13575 m
226.173563 364.13575 l
226.173563 456.245186 l
217.221691 456.245186 l
cl
0.122 0.467 0.706 setrgbcolor
fill
grestore
gsave
315.1 272.2 59.67 364.1 clipbox
226.173563 364.13575 m
235.125434 364.13575 l
235.125434 484.033905 l
226.173563 484.033905 l
cl
0.122 0.467 0.706 setrgbcolor
fill
grestore
gsave
315.1 272.2 59.67 364.1 clipbox
235.125434 364.13575 m
244.077306 364.13575 l
244.077306 458.365649 l
235.125434 458.365649 l
cl
0.122 0.467 0.706 setrgbcolor
fill
grestore
gsave
315.1 272.2 59.67 364.1 clipbox
244.077306 364.13575 m
253.029178 364.13575 l
253.029178 486.047861 l
244.077306 486.047861 l
cl
0.122 0.467 0.706 setrgbcolor
fill
grestore
gsave
315.1 272.2 59.67 364.1 clipbox
253.029178 364.13575 m
261.981049 364.13575 l
261.981049 462.771178 l
253.029178 462.771178 l
cl
0.122 0.467 0.706 setrgbcolor
fill
grestore
gsave
315.1 272.2 59.67 364.1 clipbox
261.981049 364.13575 m
270.932921 364.13575 l
270.932921 464.310692 l
261.981049 464.310692 l
cl
0.122 0.467 0.706 setrgbcolor
fill
grestore
gsave
315.1 272.2 59.67 364.1 clipbox
270.932921 364.13575 m
279.884793 364.13575 l
279.884793 480.470752 l
270.932921 480.470752 l
cl
0.122 0.467 0.706 setrgbcolor
fill
grestore
gsave
315.1 272.2 59.67 364.1 clipbox
279.884793 364.13575 m
288.836664 364.13575 l
288.836664 461.638328 l
279.884793 461.638328 l
cl
0.122 0.467 0.706 setrgbcolor
fill
grestore
gsave
315.1 272.2 59.67 364.1 clipbox
288.836664 364.13575 m
297.788536 364.13575 l
297.788536 463.565141 l
288.836664 463.565141 l
cl
0.122 0.467 0.706 setrgbcolor
fill
grestore
gsave
315.1 272.2 59.67 364.1 clipbox
297.788536 364.13575 m
306.740408 364.13575 l
306.740408 478.389019 l
297.788536 478.389019 l
cl
0.122 0.467 0.706 setrgbcolor
fill
grestore
gsave
315.1 272.2 59.67 364.1 clipbox
306.740408 364.13575 m
315.692279 364.13575 l
315.692279 468.038447 l
306.740408 468.038447 l
cl
0.122 0.467 0.706 setrgbcolor
fill
grestore
gsave
315.1 272.2 59.67 364.1 clipbox
315.692279 364.13575 m
324.644151 364.13575 l
324.644151 458.481839 l
315.692279 458.481839 l
cl
0.122 0.467 0.706 setrgbcolor
fill
grestore
gsave
315.1 272.2 59.67 364.1 clipbox
324.644151 364.13575 m
333.596023 364.13575 l
333.596023 491.876714 l
324.644151 491.876714 l
cl
0.122 0.467 0.706 setrgbcolor
fill
grestore
gsave
315.1 272.2 59.67 364.1 clipbox
333.596023 364.13575 m
342.547894 364.13575 l
342.547894 406.118985 l
333.596023 406.118985 l
cl
0.122 0.467 0.706 setrgbcolor
fill
grestore
gsave
315.1 272.2 59.67 364.1 clipbox
342.547894 364.13575 m
351.499766 364.13575 l
351.499766 609.325201 l
342.547894 609.325201 l
cl
0.122 0.467 0.706 setrgbcolor
fill
grestore
gsave
315.1 272.2 59.67 364.1 clipbox
351.499766 364.13575 m
360.451638 364.13575 l
360.451638 365.46225 l
351.499766 365.46225 l
cl
0.122 0.467 0.706 setrgbcolor
fill
grestore
0.800 setlinewidth
1 setlinejoin
0 setlinecap
[] 0 setdash
0.000 setgray
gsave
/o {
gsave
newpath
translate
0.8 setlinewidth
1 setlinejoin
0 setlinecap
0 0 m
0 -3.5 l

gsave
0.000 setgray
fill
grestore
stroke
grestore
} bind def
73.9917 364.136 o
grestore
/DejaVuSans findfont
10.000 scalefont
setfont
gsave
70.812057 349.542000 translate
0.000000 rotate
0.000000 0 m /zero glyphshow
grestore
gsave
/o {
gsave
newpath
translate
0.8 setlinewidth
1 setlinejoin
0 setlinecap
0 0 m
0 -3.5 l

gsave
0.000 setgray
fill
grestore
stroke
grestore
} bind def
129.941 364.136 o
grestore
gsave
123.581568 349.542000 translate
0.000000 rotate
0.000000 0 m /five glyphshow
6.362305 0 m /zero glyphshow
grestore
gsave
/o {
gsave
newpath
translate
0.8 setlinewidth
1 setlinejoin
0 setlinecap
0 0 m
0 -3.5 l

gsave
0.000 setgray
fill
grestore
stroke
grestore
} bind def
185.89 364.136 o
grestore
gsave
176.351078 349.542000 translate
0.000000 rotate
0.000000 0 m /one glyphshow
6.362305 0 m /zero glyphshow
12.724609 0 m /zero glyphshow
grestore
gsave
/o {
gsave
newpath
translate
0.8 setlinewidth
1 setlinejoin
0 setlinecap
0 0 m
0 -3.5 l

gsave
0.000 setgray
fill
grestore
stroke
grestore
} bind def
241.839 364.136 o
grestore
gsave
232.300276 349.542000 translate
0.000000 rotate
0.000000 0 m /one glyphshow
6.362305 0 m /five glyphshow
12.724609 0 m /zero glyphshow
grestore
gsave
/o {
gsave
newpath
translate
0.8 setlinewidth
1 setlinejoin
0 setlinecap
0 0 m
0 -3.5 l

gsave
0.000 setgray
fill
grestore
stroke
grestore
} bind def
297.789 364.136 o
grestore
gsave
288.249474 349.542000 translate
0.000000 rotate
0.000000 0 m /two glyphshow
6.362305 0 m /zero glyphshow
12.724609 0 m /zero glyphshow
grestore
gsave
/o {
gsave
newpath
translate
0.8 setlinewidth
1 setlinejoin
0 setlinecap
0 0 m
0 -3.5 l

gsave
0.000 setgray
fill
grestore
stroke
grestore
} bind def
353.738 364.136 o
grestore
gsave
344.198671 349.542000 translate
0.000000 rotate
0.000000 0 m /two glyphshow
6.362305 0 m /five glyphshow
12.724609 0 m /zero glyphshow
grestore
gsave
198.799816 335.870125 translate
0.000000 rotate
0.000000 0 m /o glyphshow
6.118164 0 m /p glyphshow
12.465820 0 m /i glyphshow
15.244141 0 m /n glyphshow
21.582031 0 m /i glyphshow
24.360352 0 m /o glyphshow
30.478516 0 m /n glyphshow
grestore
gsave
/o {
gsave
newpath
translate
0.8 setlinewidth
1 setlinejoin
0 setlinecap
0 0 m
-3.5 0 l

gsave
0.000 setgray
fill
grestore
stroke
grestore
} bind def
59.6688 364.136 o
grestore
gsave
46.309375 360.338875 translate
0.000000 rotate
0.000000 0 m /zero glyphshow
grestore
gsave
/o {
gsave
newpath
translate
0.8 setlinewidth
1 setlinejoin
0 setlinecap
0 0 m
-3.5 0 l

gsave
0.000 setgray
fill
grestore
stroke
grestore
} bind def
59.6688 412.548 o
grestore
gsave
27.231250 408.751277 translate
0.000000 rotate
0.000000 0 m /five glyphshow
6.362305 0 m /zero glyphshow
12.724609 0 m /zero glyphshow
19.086914 0 m /zero glyphshow
grestore
gsave
/o {
gsave
newpath
translate
0.8 setlinewidth
1 setlinejoin
0 setlinecap
0 0 m
-3.5 0 l

gsave
0.000 setgray
fill
grestore
stroke
grestore
} bind def
59.6688 460.961 o
grestore
gsave
20.871875 457.163679 translate
0.000000 rotate
0.000000 0 m /one glyphshow
6.362305 0 m /zero glyphshow
12.724609 0 m /zero glyphshow
19.086914 0 m /zero glyphshow
25.449219 0 m /zero glyphshow
grestore
gsave
/o {
gsave
newpath
translate
0.8 setlinewidth
1 setlinejoin
0 setlinecap
0 0 m
-3.5 0 l

gsave
0.000 setgray
fill
grestore
stroke
grestore
} bind def
59.6688 509.373 o
grestore
gsave
20.871875 505.576081 translate
0.000000 rotate
0.000000 0 m /one glyphshow
6.362305 0 m /five glyphshow
12.724609 0 m /zero glyphshow
19.086914 0 m /zero glyphshow
25.449219 0 m /zero glyphshow
grestore
gsave
/o {
gsave
newpath
translate
0.8 setlinewidth
1 setlinejoin
0 setlinecap
0 0 m
-3.5 0 l

gsave
0.000 setgray
fill
grestore
stroke
grestore
} bind def
59.6688 557.785 o
grestore
gsave
20.871875 553.988483 translate
0.000000 rotate
0.000000 0 m /two glyphshow
6.362305 0 m /zero glyphshow
12.724609 0 m /zero glyphshow
19.086914 0 m /zero glyphshow
25.449219 0 m /zero glyphshow
grestore
gsave
/o {
gsave
newpath
translate
0.8 setlinewidth
1 setlinejoin
0 setlinecap
0 0 m
-3.5 0 l

gsave
0.000 setgray
fill
grestore
stroke
grestore
} bind def
59.6688 606.198 o
grestore
gsave
20.871875 602.400885 translate
0.000000 rotate
0.000000 0 m /two glyphshow
6.362305 0 m /five glyphshow
12.724609 0 m /zero glyphshow
19.086914 0 m /zero glyphshow
25.449219 0 m /zero glyphshow
grestore
gsave
14.793750 485.786063 translate
90.000000 rotate
0.000000 0 m /o glyphshow
6.118164 0 m /o glyphshow
12.236328 0 m /u glyphshow
18.574219 0 m /n glyphshow
24.912109 0 m /t glyphshow
grestore
0 setlinejoin
2 setlinecap
[] 0 setdash
gsave
59.66875 364.13575 m
59.66875 636.29575 l
stroke
grestore
gsave
374.774632 364.13575 m
374.774632 636.29575 l
stroke
grestore
gsave
59.66875 364.13575 m
374.774632 364.13575 l
stroke
grestore
gsave
59.66875 636.29575 m
374.774632 636.29575 l
stroke
grestore
/DejaVuSans findfont
12.000 scalefont
setfont
gsave
169.448254 642.295750 translate
0.000000 rotate
0.000000 0 m /m glyphshow
11.689453 0 m /space glyphshow
15.503906 0 m /equal glyphshow
25.558594 0 m /space glyphshow
29.373047 0 m /zero glyphshow
37.007812 0 m /period glyphshow
40.822266 0 m /three glyphshow
48.457031 0 m /comma glyphshow
52.271484 0 m /space glyphshow
56.085938 0 m /epsilon glyphshow
62.572266 0 m /space glyphshow
66.386719 0 m /equal glyphshow
76.441406 0 m /space glyphshow
80.255859 0 m /one glyphshow
87.890625 0 m /zero glyphshow
grestore
gsave
437.795809 364.13575 m
752.901691 364.13575 l
752.901691 636.29575 l
437.795809 636.29575 l
cl
1.000 setgray
fill
grestore
gsave
315.1 272.2 437.8 364.1 clipbox
452.118803 364.13575 m
461.070675 364.13575 l
461.070675 364.141079 l
452.118803 364.141079 l
cl
0.122 0.467 0.706 setrgbcolor
fill
grestore
gsave
315.1 272.2 437.8 364.1 clipbox
461.070675 364.13575 m
470.022547 364.13575 l
470.022547 364.137526 l
461.070675 364.137526 l
cl
0.122 0.467 0.706 setrgbcolor
fill
grestore
gsave
315.1 272.2 437.8 364.1 clipbox
470.022547 364.13575 m
478.974418 364.13575 l
478.974418 364.13575 l
470.022547 364.13575 l
cl
0.122 0.467 0.706 setrgbcolor
fill
grestore
gsave
315.1 272.2 437.8 364.1 clipbox
478.974418 364.13575 m
487.92629 364.13575 l
487.92629 364.13575 l
478.974418 364.13575 l
cl
0.122 0.467 0.706 setrgbcolor
fill
grestore
gsave
315.1 272.2 437.8 364.1 clipbox
487.92629 364.13575 m
496.878162 364.13575 l
496.878162 364.13575 l
487.92629 364.13575 l
cl
0.122 0.467 0.706 setrgbcolor
fill
grestore
gsave
315.1 272.2 437.8 364.1 clipbox
496.878162 364.13575 m
505.830033 364.13575 l
505.830033 364.13575 l
496.878162 364.13575 l
cl
0.122 0.467 0.706 setrgbcolor
fill
grestore
gsave
315.1 272.2 437.8 364.1 clipbox
505.830033 364.13575 m
514.781905 364.13575 l
514.781905 364.13575 l
505.830033 364.13575 l
cl
0.122 0.467 0.706 setrgbcolor
fill
grestore
gsave
315.1 272.2 437.8 364.1 clipbox
514.781905 364.13575 m
523.733777 364.13575 l
523.733777 364.13575 l
514.781905 364.13575 l
cl
0.122 0.467 0.706 setrgbcolor
fill
grestore
gsave
315.1 272.2 437.8 364.1 clipbox
523.733777 364.13575 m
532.685648 364.13575 l
532.685648 623.33575 l
523.733777 623.33575 l
cl
0.122 0.467 0.706 setrgbcolor
fill
grestore
gsave
315.1 272.2 437.8 364.1 clipbox
532.685648 364.13575 m
541.63752 364.13575 l
541.63752 413.288184 l
532.685648 413.288184 l
cl
0.122 0.467 0.706 setrgbcolor
fill
grestore
gsave
315.1 272.2 437.8 364.1 clipbox
541.63752 364.13575 m
550.589392 364.13575 l
550.589392 364.13575 l
541.63752 364.13575 l
cl
0.122 0.467 0.706 setrgbcolor
fill
grestore
gsave
315.1 272.2 437.8 364.1 clipbox
550.589392 364.13575 m
559.541263 364.13575 l
559.541263 364.13575 l
550.589392 364.13575 l
cl
0.122 0.467 0.706 setrgbcolor
fill
grestore
gsave
315.1 272.2 437.8 364.1 clipbox
559.541263 364.13575 m
568.493135 364.13575 l
568.493135 364.13575 l
559.541263 364.13575 l
cl
0.122 0.467 0.706 setrgbcolor
fill
grestore
gsave
315.1 272.2 437.8 364.1 clipbox
568.493135 364.13575 m
577.445007 364.13575 l
577.445007 364.13575 l
568.493135 364.13575 l
cl
0.122 0.467 0.706 setrgbcolor
fill
grestore
gsave
315.1 272.2 437.8 364.1 clipbox
577.445007 364.13575 m
586.396878 364.13575 l
586.396878 364.13575 l
577.445007 364.13575 l
cl
0.122 0.467 0.706 setrgbcolor
fill
grestore
gsave
315.1 272.2 437.8 364.1 clipbox
586.396878 364.13575 m
595.34875 364.13575 l
595.34875 365.398711 l
586.396878 365.398711 l
cl
0.122 0.467 0.706 setrgbcolor
fill
grestore
gsave
315.1 272.2 437.8 364.1 clipbox
595.34875 364.13575 m
604.300622 364.13575 l
604.300622 365.176671 l
595.34875 365.176671 l
cl
0.122 0.467 0.706 setrgbcolor
fill
grestore
gsave
315.1 272.2 437.8 364.1 clipbox
604.300622 364.13575 m
613.252493 364.13575 l
613.252493 364.13575 l
604.300622 364.13575 l
cl
0.122 0.467 0.706 setrgbcolor
fill
grestore
gsave
315.1 272.2 437.8 364.1 clipbox
613.252493 364.13575 m
622.204365 364.13575 l
622.204365 364.13575 l
613.252493 364.13575 l
cl
0.122 0.467 0.706 setrgbcolor
fill
grestore
gsave
315.1 272.2 437.8 364.1 clipbox
622.204365 364.13575 m
631.156237 364.13575 l
631.156237 364.13575 l
622.204365 364.13575 l
cl
0.122 0.467 0.706 setrgbcolor
fill
grestore
gsave
315.1 272.2 437.8 364.1 clipbox
631.156237 364.13575 m
640.108108 364.13575 l
640.108108 364.13575 l
631.156237 364.13575 l
cl
0.122 0.467 0.706 setrgbcolor
fill
grestore
gsave
315.1 272.2 437.8 364.1 clipbox
640.108108 364.13575 m
649.05998 364.13575 l
649.05998 364.13575 l
640.108108 364.13575 l
cl
0.122 0.467 0.706 setrgbcolor
fill
grestore
gsave
315.1 272.2 437.8 364.1 clipbox
649.05998 364.13575 m
658.011852 364.13575 l
658.011852 455.552066 l
649.05998 455.552066 l
cl
0.122 0.467 0.706 setrgbcolor
fill
grestore
gsave
315.1 272.2 437.8 364.1 clipbox
658.011852 364.13575 m
666.963723 364.13575 l
666.963723 575.940092 l
658.011852 575.940092 l
cl
0.122 0.467 0.706 setrgbcolor
fill
grestore
gsave
315.1 272.2 437.8 364.1 clipbox
666.963723 364.13575 m
675.915595 364.13575 l
675.915595 364.13575 l
666.963723 364.13575 l
cl
0.122 0.467 0.706 setrgbcolor
fill
grestore
gsave
315.1 272.2 437.8 364.1 clipbox
675.915595 364.13575 m
684.867467 364.13575 l
684.867467 364.13575 l
675.915595 364.13575 l
cl
0.122 0.467 0.706 setrgbcolor
fill
grestore
gsave
315.1 272.2 437.8 364.1 clipbox
684.867467 364.13575 m
693.819338 364.13575 l
693.819338 364.13575 l
684.867467 364.13575 l
cl
0.122 0.467 0.706 setrgbcolor
fill
grestore
gsave
315.1 272.2 437.8 364.1 clipbox
693.819338 364.13575 m
702.77121 364.13575 l
702.77121 364.13575 l
693.819338 364.13575 l
cl
0.122 0.467 0.706 setrgbcolor
fill
grestore
gsave
315.1 272.2 437.8 364.1 clipbox
702.77121 364.13575 m
711.723082 364.13575 l
711.723082 364.13575 l
702.77121 364.13575 l
cl
0.122 0.467 0.706 setrgbcolor
fill
grestore
gsave
315.1 272.2 437.8 364.1 clipbox
711.723082 364.13575 m
720.674953 364.13575 l
720.674953 364.13575 l
711.723082 364.13575 l
cl
0.122 0.467 0.706 setrgbcolor
fill
grestore
gsave
315.1 272.2 437.8 364.1 clipbox
720.674953 364.13575 m
729.626825 364.13575 l
729.626825 364.142855 l
720.674953 364.142855 l
cl
0.122 0.467 0.706 setrgbcolor
fill
grestore
gsave
315.1 272.2 437.8 364.1 clipbox
729.626825 364.13575 m
738.578697 364.13575 l
738.578697 364.139303 l
729.626825 364.139303 l
cl
0.122 0.467 0.706 setrgbcolor
fill
grestore
1 setlinejoin
0 setlinecap
[] 0 setdash
gsave
/o {
gsave
newpath
translate
0.8 setlinewidth
1 setlinejoin
0 setlinecap
0 0 m
0 -3.5 l

gsave
0.000 setgray
fill
grestore
stroke
grestore
} bind def
452.119 364.136 o
grestore
/DejaVuSans findfont
10.000 scalefont
setfont
gsave
448.939116 349.542000 translate
0.000000 rotate
0.000000 0 m /zero glyphshow
grestore
gsave
/o {
gsave
newpath
translate
0.8 setlinewidth
1 setlinejoin
0 setlinecap
0 0 m
0 -3.5 l

gsave
0.000 setgray
fill
grestore
stroke
grestore
} bind def
508.068 364.136 o
grestore
gsave
501.708626 349.542000 translate
0.000000 rotate
0.000000 0 m /five glyphshow
6.362305 0 m /zero glyphshow
grestore
gsave
/o {
gsave
newpath
translate
0.8 setlinewidth
1 setlinejoin
0 setlinecap
0 0 m
0 -3.5 l

gsave
0.000 setgray
fill
grestore
stroke
grestore
} bind def
564.017 364.136 o
grestore
gsave
554.478137 349.542000 translate
0.000000 rotate
0.000000 0 m /one glyphshow
6.362305 0 m /zero glyphshow
12.724609 0 m /zero glyphshow
grestore
gsave
/o {
gsave
newpath
translate
0.8 setlinewidth
1 setlinejoin
0 setlinecap
0 0 m
0 -3.5 l

gsave
0.000 setgray
fill
grestore
stroke
grestore
} bind def
619.966 364.136 o
grestore
gsave
610.427335 349.542000 translate
0.000000 rotate
0.000000 0 m /one glyphshow
6.362305 0 m /five glyphshow
12.724609 0 m /zero glyphshow
grestore
gsave
/o {
gsave
newpath
translate
0.8 setlinewidth
1 setlinejoin
0 setlinecap
0 0 m
0 -3.5 l

gsave
0.000 setgray
fill
grestore
stroke
grestore
} bind def
675.916 364.136 o
grestore
gsave
666.376532 349.542000 translate
0.000000 rotate
0.000000 0 m /two glyphshow
6.362305 0 m /zero glyphshow
12.724609 0 m /zero glyphshow
grestore
gsave
/o {
gsave
newpath
translate
0.8 setlinewidth
1 setlinejoin
0 setlinecap
0 0 m
0 -3.5 l

gsave
0.000 setgray
fill
grestore
stroke
grestore
} bind def
731.865 364.136 o
grestore
gsave
722.325730 349.542000 translate
0.000000 rotate
0.000000 0 m /two glyphshow
6.362305 0 m /five glyphshow
12.724609 0 m /zero glyphshow
grestore
gsave
576.926875 335.870125 translate
0.000000 rotate
0.000000 0 m /o glyphshow
6.118164 0 m /p glyphshow
12.465820 0 m /i glyphshow
15.244141 0 m /n glyphshow
21.582031 0 m /i glyphshow
24.360352 0 m /o glyphshow
30.478516 0 m /n glyphshow
grestore
gsave
/o {
gsave
newpath
translate
0.8 setlinewidth
1 setlinejoin
0 setlinecap
0 0 m
-3.5 0 l

gsave
0.000 setgray
fill
grestore
stroke
grestore
} bind def
437.796 364.136 o
grestore
gsave
424.436434 360.338875 translate
0.000000 rotate
0.000000 0 m /zero glyphshow
grestore
gsave
/o {
gsave
newpath
translate
0.8 setlinewidth
1 setlinejoin
0 setlinecap
0 0 m
-3.5 0 l

gsave
0.000 setgray
fill
grestore
stroke
grestore
} bind def
437.796 399.662 o
grestore
gsave
398.998934 395.865191 translate
0.000000 rotate
0.000000 0 m /two glyphshow
6.362305 0 m /zero glyphshow
12.724609 0 m /zero glyphshow
19.086914 0 m /zero glyphshow
25.449219 0 m /zero glyphshow
grestore
gsave
/o {
gsave
newpath
translate
0.8 setlinewidth
1 setlinejoin
0 setlinecap
0 0 m
-3.5 0 l

gsave
0.000 setgray
fill
grestore
stroke
grestore
} bind def
437.796 435.188 o
grestore
gsave
398.998934 431.391507 translate
0.000000 rotate
0.000000 0 m /four glyphshow
6.362305 0 m /zero glyphshow
12.724609 0 m /zero glyphshow
19.086914 0 m /zero glyphshow
25.449219 0 m /zero glyphshow
grestore
gsave
/o {
gsave
newpath
translate
0.8 setlinewidth
1 setlinejoin
0 setlinecap
0 0 m
-3.5 0 l

gsave
0.000 setgray
fill
grestore
stroke
grestore
} bind def
437.796 470.715 o
grestore
gsave
398.998934 466.917822 translate
0.000000 rotate
0.000000 0 m /six glyphshow
6.362305 0 m /zero glyphshow
12.724609 0 m /zero glyphshow
19.086914 0 m /zero glyphshow
25.449219 0 m /zero glyphshow
grestore
gsave
/o {
gsave
newpath
translate
0.8 setlinewidth
1 setlinejoin
0 setlinecap
0 0 m
-3.5 0 l

gsave
0.000 setgray
fill
grestore
stroke
grestore
} bind def
437.796 506.241 o
grestore
gsave
398.998934 502.444138 translate
0.000000 rotate
0.000000 0 m /eight glyphshow
6.362305 0 m /zero glyphshow
12.724609 0 m /zero glyphshow
19.086914 0 m /zero glyphshow
25.449219 0 m /zero glyphshow
grestore
gsave
/o {
gsave
newpath
translate
0.8 setlinewidth
1 setlinejoin
0 setlinecap
0 0 m
-3.5 0 l

gsave
0.000 setgray
fill
grestore
stroke
grestore
} bind def
437.796 541.767 o
grestore
gsave
392.639559 537.970454 translate
0.000000 rotate
0.000000 0 m /one glyphshow
6.362305 0 m /zero glyphshow
12.724609 0 m /zero glyphshow
19.086914 0 m /zero glyphshow
25.449219 0 m /zero glyphshow
31.811523 0 m /zero glyphshow
grestore
gsave
/o {
gsave
newpath
translate
0.8 setlinewidth
1 setlinejoin
0 setlinecap
0 0 m
-3.5 0 l

gsave
0.000 setgray
fill
grestore
stroke
grestore
} bind def
437.796 577.294 o
grestore
gsave
392.639559 573.496770 translate
0.000000 rotate
0.000000 0 m /one glyphshow
6.362305 0 m /two glyphshow
12.724609 0 m /zero glyphshow
19.086914 0 m /zero glyphshow
25.449219 0 m /zero glyphshow
31.811523 0 m /zero glyphshow
grestore
gsave
/o {
gsave
newpath
translate
0.8 setlinewidth
1 setlinejoin
0 setlinecap
0 0 m
-3.5 0 l

gsave
0.000 setgray
fill
grestore
stroke
grestore
} bind def
437.796 612.82 o
grestore
gsave
392.639559 609.023086 translate
0.000000 rotate
0.000000 0 m /one glyphshow
6.362305 0 m /four glyphshow
12.724609 0 m /zero glyphshow
19.086914 0 m /zero glyphshow
25.449219 0 m /zero glyphshow
31.811523 0 m /zero glyphshow
grestore
gsave
386.561434 485.786063 translate
90.000000 rotate
0.000000 0 m /o glyphshow
6.118164 0 m /o glyphshow
12.236328 0 m /u glyphshow
18.574219 0 m /n glyphshow
24.912109 0 m /t glyphshow
grestore
0 setlinejoin
2 setlinecap
[] 0 setdash
gsave
437.795809 364.13575 m
437.795809 636.29575 l
stroke
grestore
gsave
752.901691 364.13575 m
752.901691 636.29575 l
stroke
grestore
gsave
437.795809 364.13575 m
752.901691 364.13575 l
stroke
grestore
gsave
437.795809 636.29575 m
752.901691 636.29575 l
stroke
grestore
/DejaVuSans findfont
12.000 scalefont
setfont
gsave
547.575312 642.295750 translate
0.000000 rotate
0.000000 0 m /m glyphshow
11.689453 0 m /space glyphshow
15.503906 0 m /equal glyphshow
25.558594 0 m /space glyphshow
29.373047 0 m /zero glyphshow
37.007812 0 m /period glyphshow
40.822266 0 m /three glyphshow
48.457031 0 m /comma glyphshow
52.271484 0 m /space glyphshow
56.085938 0 m /epsilon glyphshow
62.572266 0 m /space glyphshow
66.386719 0 m /equal glyphshow
76.441406 0 m /space glyphshow
80.255859 0 m /five glyphshow
87.890625 0 m /zero glyphshow
grestore
gsave
815.922868 364.13575 m
1131.02875 364.13575 l
1131.02875 636.29575 l
815.922868 636.29575 l
cl
1.000 setgray
fill
grestore
gsave
315.1 272.2 815.9 364.1 clipbox
830.245862 364.13575 m
839.197734 364.13575 l
839.197734 364.171846 l
830.245862 364.171846 l
cl
0.122 0.467 0.706 setrgbcolor
fill
grestore
gsave
315.1 272.2 815.9 364.1 clipbox
839.197734 364.13575 m
848.149606 364.13575 l
848.149606 364.167334 l
839.197734 364.167334 l
cl
0.122 0.467 0.706 setrgbcolor
fill
grestore
gsave
315.1 272.2 815.9 364.1 clipbox
848.149606 364.13575 m
857.101477 364.13575 l
857.101477 364.153798 l
848.149606 364.153798 l
cl
0.122 0.467 0.706 setrgbcolor
fill
grestore
gsave
315.1 272.2 815.9 364.1 clipbox
857.101477 364.13575 m
866.053349 364.13575 l
866.053349 364.13575 l
857.101477 364.13575 l
cl
0.122 0.467 0.706 setrgbcolor
fill
grestore
gsave
315.1 272.2 815.9 364.1 clipbox
866.053349 364.13575 m
875.005221 364.13575 l
875.005221 364.13575 l
866.053349 364.13575 l
cl
0.122 0.467 0.706 setrgbcolor
fill
grestore
gsave
315.1 272.2 815.9 364.1 clipbox
875.005221 364.13575 m
883.957092 364.13575 l
883.957092 364.13575 l
875.005221 364.13575 l
cl
0.122 0.467 0.706 setrgbcolor
fill
grestore
gsave
315.1 272.2 815.9 364.1 clipbox
883.957092 364.13575 m
892.908964 364.13575 l
892.908964 364.13575 l
883.957092 364.13575 l
cl
0.122 0.467 0.706 setrgbcolor
fill
grestore
gsave
315.1 272.2 815.9 364.1 clipbox
892.908964 364.13575 m
901.860836 364.13575 l
901.860836 364.13575 l
892.908964 364.13575 l
cl
0.122 0.467 0.706 setrgbcolor
fill
grestore
gsave
315.1 272.2 815.9 364.1 clipbox
901.860836 364.13575 m
910.812707 364.13575 l
910.812707 364.13575 l
901.860836 364.13575 l
cl
0.122 0.467 0.706 setrgbcolor
fill
grestore
gsave
315.1 272.2 815.9 364.1 clipbox
910.812707 364.13575 m
919.764579 364.13575 l
919.764579 364.13575 l
910.812707 364.13575 l
cl
0.122 0.467 0.706 setrgbcolor
fill
grestore
gsave
315.1 272.2 815.9 364.1 clipbox
919.764579 364.13575 m
928.716451 364.13575 l
928.716451 364.13575 l
919.764579 364.13575 l
cl
0.122 0.467 0.706 setrgbcolor
fill
grestore
gsave
315.1 272.2 815.9 364.1 clipbox
928.716451 364.13575 m
937.668322 364.13575 l
937.668322 364.13575 l
928.716451 364.13575 l
cl
0.122 0.467 0.706 setrgbcolor
fill
grestore
gsave
315.1 272.2 815.9 364.1 clipbox
937.668322 364.13575 m
946.620194 364.13575 l
946.620194 364.13575 l
937.668322 364.13575 l
cl
0.122 0.467 0.706 setrgbcolor
fill
grestore
gsave
315.1 272.2 815.9 364.1 clipbox
946.620194 364.13575 m
955.572066 364.13575 l
955.572066 364.13575 l
946.620194 364.13575 l
cl
0.122 0.467 0.706 setrgbcolor
fill
grestore
gsave
315.1 272.2 815.9 364.1 clipbox
955.572066 364.13575 m
964.523937 364.13575 l
964.523937 364.13575 l
955.572066 364.13575 l
cl
0.122 0.467 0.706 setrgbcolor
fill
grestore
gsave
315.1 272.2 815.9 364.1 clipbox
964.523937 364.13575 m
973.475809 364.13575 l
973.475809 623.33575 l
964.523937 623.33575 l
cl
0.122 0.467 0.706 setrgbcolor
fill
grestore
gsave
315.1 272.2 815.9 364.1 clipbox
973.475809 364.13575 m
982.42768 364.13575 l
982.42768 494.625179 l
973.475809 494.625179 l
cl
0.122 0.467 0.706 setrgbcolor
fill
grestore
gsave
315.1 272.2 815.9 364.1 clipbox
982.42768 364.13575 m
991.379552 364.13575 l
991.379552 364.13575 l
982.42768 364.13575 l
cl
0.122 0.467 0.706 setrgbcolor
fill
grestore
gsave
315.1 272.2 815.9 364.1 clipbox
991.379552 364.13575 m
1000.331424 364.13575 l
1000.331424 364.13575 l
991.379552 364.13575 l
cl
0.122 0.467 0.706 setrgbcolor
fill
grestore
gsave
315.1 272.2 815.9 364.1 clipbox
1000.331424 364.13575 m
1009.283295 364.13575 l
1009.283295 364.13575 l
1000.331424 364.13575 l
cl
0.122 0.467 0.706 setrgbcolor
fill
grestore
gsave
315.1 272.2 815.9 364.1 clipbox
1009.283295 364.13575 m
1018.235167 364.13575 l
1018.235167 364.13575 l
1009.283295 364.13575 l
cl
0.122 0.467 0.706 setrgbcolor
fill
grestore
gsave
315.1 272.2 815.9 364.1 clipbox
1018.235167 364.13575 m
1027.187039 364.13575 l
1027.187039 364.13575 l
1018.235167 364.13575 l
cl
0.122 0.467 0.706 setrgbcolor
fill
grestore
gsave
315.1 272.2 815.9 364.1 clipbox
1027.187039 364.13575 m
1036.13891 364.13575 l
1036.13891 364.13575 l
1027.187039 364.13575 l
cl
0.122 0.467 0.706 setrgbcolor
fill
grestore
gsave
315.1 272.2 815.9 364.1 clipbox
1036.13891 364.13575 m
1045.090782 364.13575 l
1045.090782 364.13575 l
1036.13891 364.13575 l
cl
0.122 0.467 0.706 setrgbcolor
fill
grestore
gsave
315.1 272.2 815.9 364.1 clipbox
1045.090782 364.13575 m
1054.042654 364.13575 l
1054.042654 364.13575 l
1045.090782 364.13575 l
cl
0.122 0.467 0.706 setrgbcolor
fill
grestore
gsave
315.1 272.2 815.9 364.1 clipbox
1054.042654 364.13575 m
1062.994525 364.13575 l
1062.994525 364.13575 l
1054.042654 364.13575 l
cl
0.122 0.467 0.706 setrgbcolor
fill
grestore
gsave
315.1 272.2 815.9 364.1 clipbox
1062.994525 364.13575 m
1071.946397 364.13575 l
1071.946397 364.13575 l
1062.994525 364.13575 l
cl
0.122 0.467 0.706 setrgbcolor
fill
grestore
gsave
315.1 272.2 815.9 364.1 clipbox
1071.946397 364.13575 m
1080.898269 364.13575 l
1080.898269 364.13575 l
1071.946397 364.13575 l
cl
0.122 0.467 0.706 setrgbcolor
fill
grestore
gsave
315.1 272.2 815.9 364.1 clipbox
1080.898269 364.13575 m
1089.85014 364.13575 l
1089.85014 364.139134 l
1080.898269 364.139134 l
cl
0.122 0.467 0.706 setrgbcolor
fill
grestore
gsave
315.1 272.2 815.9 364.1 clipbox
1089.85014 364.13575 m
1098.802012 364.13575 l
1098.802012 364.156054 l
1089.85014 364.156054 l
cl
0.122 0.467 0.706 setrgbcolor
fill
grestore
gsave
315.1 272.2 815.9 364.1 clipbox
1098.802012 364.13575 m
1107.753884 364.13575 l
1107.753884 364.15831 l
1098.802012 364.15831 l
cl
0.122 0.467 0.706 setrgbcolor
fill
grestore
gsave
315.1 272.2 815.9 364.1 clipbox
1107.753884 364.13575 m
1116.705755 364.13575 l
1116.705755 364.151542 l
1107.753884 364.151542 l
cl
0.122 0.467 0.706 setrgbcolor
fill
grestore
1 setlinejoin
0 setlinecap
[] 0 setdash
gsave
/o {
gsave
newpath
translate
0.8 setlinewidth
1 setlinejoin
0 setlinecap
0 0 m
0 -3.5 l

gsave
0.000 setgray
fill
grestore
stroke
grestore
} bind def
830.246 364.136 o
grestore
/DejaVuSans findfont
10.000 scalefont
setfont
gsave
827.066175 349.542000 translate
0.000000 rotate
0.000000 0 m /zero glyphshow
grestore
gsave
/o {
gsave
newpath
translate
0.8 setlinewidth
1 setlinejoin
0 setlinecap
0 0 m
0 -3.5 l

gsave
0.000 setgray
fill
grestore
stroke
grestore
} bind def
886.195 364.136 o
grestore
gsave
879.835685 349.542000 translate
0.000000 rotate
0.000000 0 m /five glyphshow
6.362305 0 m /zero glyphshow
grestore
gsave
/o {
gsave
newpath
translate
0.8 setlinewidth
1 setlinejoin
0 setlinecap
0 0 m
0 -3.5 l

gsave
0.000 setgray
fill
grestore
stroke
grestore
} bind def
942.144 364.136 o
grestore
gsave
932.605196 349.542000 translate
0.000000 rotate
0.000000 0 m /one glyphshow
6.362305 0 m /zero glyphshow
12.724609 0 m /zero glyphshow
grestore
gsave
/o {
gsave
newpath
translate
0.8 setlinewidth
1 setlinejoin
0 setlinecap
0 0 m
0 -3.5 l

gsave
0.000 setgray
fill
grestore
stroke
grestore
} bind def
998.093 364.136 o
grestore
gsave
988.554393 349.542000 translate
0.000000 rotate
0.000000 0 m /one glyphshow
6.362305 0 m /five glyphshow
12.724609 0 m /zero glyphshow
grestore
gsave
/o {
gsave
newpath
translate
0.8 setlinewidth
1 setlinejoin
0 setlinecap
0 0 m
0 -3.5 l

gsave
0.000 setgray
fill
grestore
stroke
grestore
} bind def
1054.04 364.136 o
grestore
gsave
1044.503591 349.542000 translate
0.000000 rotate
0.000000 0 m /two glyphshow
6.362305 0 m /zero glyphshow
12.724609 0 m /zero glyphshow
grestore
gsave
/o {
gsave
newpath
translate
0.8 setlinewidth
1 setlinejoin
0 setlinecap
0 0 m
0 -3.5 l

gsave
0.000 setgray
fill
grestore
stroke
grestore
} bind def
1109.99 364.136 o
grestore
gsave
1100.452789 349.542000 translate
0.000000 rotate
0.000000 0 m /two glyphshow
6.362305 0 m /five glyphshow
12.724609 0 m /zero glyphshow
grestore
gsave
955.053934 335.870125 translate
0.000000 rotate
0.000000 0 m /o glyphshow
6.118164 0 m /p glyphshow
12.465820 0 m /i glyphshow
15.244141 0 m /n glyphshow
21.582031 0 m /i glyphshow
24.360352 0 m /o glyphshow
30.478516 0 m /n glyphshow
grestore
gsave
/o {
gsave
newpath
translate
0.8 setlinewidth
1 setlinejoin
0 setlinecap
0 0 m
-3.5 0 l

gsave
0.000 setgray
fill
grestore
stroke
grestore
} bind def
815.923 364.136 o
grestore
gsave
802.563493 360.338875 translate
0.000000 rotate
0.000000 0 m /zero glyphshow
grestore
gsave
/o {
gsave
newpath
translate
0.8 setlinewidth
1 setlinejoin
0 setlinecap
0 0 m
-3.5 0 l

gsave
0.000 setgray
fill
grestore
stroke
grestore
} bind def
815.923 420.536 o
grestore
gsave
777.125993 416.738932 translate
0.000000 rotate
0.000000 0 m /five glyphshow
6.362305 0 m /zero glyphshow
12.724609 0 m /zero glyphshow
19.086914 0 m /zero glyphshow
25.449219 0 m /zero glyphshow
grestore
gsave
/o {
gsave
newpath
translate
0.8 setlinewidth
1 setlinejoin
0 setlinecap
0 0 m
-3.5 0 l

gsave
0.000 setgray
fill
grestore
stroke
grestore
} bind def
815.923 476.936 o
grestore
gsave
770.766618 473.138990 translate
0.000000 rotate
0.000000 0 m /one glyphshow
6.362305 0 m /zero glyphshow
12.724609 0 m /zero glyphshow
19.086914 0 m /zero glyphshow
25.449219 0 m /zero glyphshow
31.811523 0 m /zero glyphshow
grestore
gsave
/o {
gsave
newpath
translate
0.8 setlinewidth
1 setlinejoin
0 setlinecap
0 0 m
-3.5 0 l

gsave
0.000 setgray
fill
grestore
stroke
grestore
} bind def
815.923 533.336 o
grestore
gsave
770.766618 529.539047 translate
0.000000 rotate
0.000000 0 m /one glyphshow
6.362305 0 m /five glyphshow
12.724609 0 m /zero glyphshow
19.086914 0 m /zero glyphshow
25.449219 0 m /zero glyphshow
31.811523 0 m /zero glyphshow
grestore
gsave
/o {
gsave
newpath
translate
0.8 setlinewidth
1 setlinejoin
0 setlinecap
0 0 m
-3.5 0 l

gsave
0.000 setgray
fill
grestore
stroke
grestore
} bind def
815.923 589.736 o
grestore
gsave
770.766618 585.939105 translate
0.000000 rotate
0.000000 0 m /two glyphshow
6.362305 0 m /zero glyphshow
12.724609 0 m /zero glyphshow
19.086914 0 m /zero glyphshow
25.449219 0 m /zero glyphshow
31.811523 0 m /zero glyphshow
grestore
gsave
764.688493 485.786063 translate
90.000000 rotate
0.000000 0 m /o glyphshow
6.118164 0 m /o glyphshow
12.236328 0 m /u glyphshow
18.574219 0 m /n glyphshow
24.912109 0 m /t glyphshow
grestore
0 setlinejoin
2 setlinecap
[] 0 setdash
gsave
815.922868 364.13575 m
815.922868 636.29575 l
stroke
grestore
gsave
1131.02875 364.13575 m
1131.02875 636.29575 l
stroke
grestore
gsave
815.922868 364.13575 m
1131.02875 364.13575 l
stroke
grestore
gsave
815.922868 636.29575 m
1131.02875 636.29575 l
stroke
grestore
/DejaVuSans findfont
12.000 scalefont
setfont
gsave
921.882059 642.295750 translate
0.000000 rotate
0.000000 0 m /m glyphshow
11.689453 0 m /space glyphshow
15.503906 0 m /equal glyphshow
25.558594 0 m /space glyphshow
29.373047 0 m /zero glyphshow
37.007812 0 m /period glyphshow
40.822266 0 m /three glyphshow
48.457031 0 m /comma glyphshow
52.271484 0 m /space glyphshow
56.085938 0 m /epsilon glyphshow
62.572266 0 m /space glyphshow
66.386719 0 m /equal glyphshow
76.441406 0 m /space glyphshow
80.255859 0 m /one glyphshow
87.890625 0 m /zero glyphshow
95.525391 0 m /zero glyphshow
grestore
gsave
59.66875 37.54375 m
374.774632 37.54375 l
374.774632 309.70375 l
59.66875 309.70375 l
cl
1.000 setgray
fill
grestore
gsave
315.1 272.2 59.67 37.54 clipbox
73.991745 37.54375 m
82.943616 37.54375 l
82.943616 37.571217 l
73.991745 37.571217 l
cl
0.122 0.467 0.706 setrgbcolor
fill
grestore
gsave
315.1 272.2 59.67 37.54 clipbox
82.943616 37.54375 m
91.895488 37.54375 l
91.895488 296.74375 l
82.943616 296.74375 l
cl
0.122 0.467 0.706 setrgbcolor
fill
grestore
gsave
315.1 272.2 59.67 37.54 clipbox
91.895488 37.54375 m
100.84736 37.54375 l
100.84736 37.60784 l
91.895488 37.60784 l
cl
0.122 0.467 0.706 setrgbcolor
fill
grestore
gsave
315.1 272.2 59.67 37.54 clipbox
100.84736 37.54375 m
109.799231 37.54375 l
109.799231 147.742662 l
100.84736 147.742662 l
cl
0.122 0.467 0.706 setrgbcolor
fill
grestore
gsave
315.1 272.2 59.67 37.54 clipbox
109.799231 37.54375 m
118.751103 37.54375 l
118.751103 192.99966 l
109.799231 192.99966 l
cl
0.122 0.467 0.706 setrgbcolor
fill
grestore
gsave
315.1 272.2 59.67 37.54 clipbox
118.751103 37.54375 m
127.702975 37.54375 l
127.702975 55.782054 l
118.751103 55.782054 l
cl
0.122 0.467 0.706 setrgbcolor
fill
grestore
gsave
315.1 272.2 59.67 37.54 clipbox
127.702975 37.54375 m
136.654846 37.54375 l
136.654846 212.647953 l
127.702975 212.647953 l
cl
0.122 0.467 0.706 setrgbcolor
fill
grestore
gsave
315.1 272.2 59.67 37.54 clipbox
136.654846 37.54375 m
145.606718 37.54375 l
145.606718 152.238148 l
136.654846 152.238148 l
cl
0.122 0.467 0.706 setrgbcolor
fill
grestore
gsave
315.1 272.2 59.67 37.54 clipbox
145.606718 37.54375 m
154.55859 37.54375 l
154.55859 65.743538 l
145.606718 65.743538 l
cl
0.122 0.467 0.706 setrgbcolor
fill
grestore
gsave
315.1 272.2 59.67 37.54 clipbox
154.55859 37.54375 m
163.510461 37.54375 l
163.510461 156.065262 l
154.55859 156.065262 l
cl
0.122 0.467 0.706 setrgbcolor
fill
grestore
gsave
315.1 272.2 59.67 37.54 clipbox
163.510461 37.54375 m
172.462333 37.54375 l
172.462333 177.901786 l
163.510461 177.901786 l
cl
0.122 0.467 0.706 setrgbcolor
fill
grestore
gsave
315.1 272.2 59.67 37.54 clipbox
172.462333 37.54375 m
181.414205 37.54375 l
181.414205 66.723206 l
172.462333 66.723206 l
cl
0.122 0.467 0.706 setrgbcolor
fill
grestore
gsave
315.1 272.2 59.67 37.54 clipbox
181.414205 37.54375 m
190.366076 37.54375 l
190.366076 228.121214 l
181.414205 228.121214 l
cl
0.122 0.467 0.706 setrgbcolor
fill
grestore
gsave
315.1 272.2 59.67 37.54 clipbox
190.366076 37.54375 m
199.317948 37.54375 l
199.317948 79.58707 l
190.366076 79.58707 l
cl
0.122 0.467 0.706 setrgbcolor
fill
grestore
gsave
315.1 272.2 59.67 37.54 clipbox
199.317948 37.54375 m
208.26982 37.54375 l
208.26982 119.469628 l
199.317948 119.469628 l
cl
0.122 0.467 0.706 setrgbcolor
fill
grestore
gsave
315.1 272.2 59.67 37.54 clipbox
208.26982 37.54375 m
217.221691 37.54375 l
217.221691 206.623453 l
208.26982 206.623453 l
cl
0.122 0.467 0.706 setrgbcolor
fill
grestore
gsave
315.1 272.2 59.67 37.54 clipbox
217.221691 37.54375 m
226.173563 37.54375 l
226.173563 55.25102 l
217.221691 55.25102 l
cl
0.122 0.467 0.706 setrgbcolor
fill
grestore
gsave
315.1 272.2 59.67 37.54 clipbox
226.173563 37.54375 m
235.125434 37.54375 l
235.125434 183.505121 l
226.173563 183.505121 l
cl
0.122 0.467 0.706 setrgbcolor
fill
grestore
gsave
315.1 272.2 59.67 37.54 clipbox
235.125434 37.54375 m
244.077306 37.54375 l
244.077306 155.305332 l
235.125434 155.305332 l
cl
0.122 0.467 0.706 setrgbcolor
fill
grestore
gsave
315.1 272.2 59.67 37.54 clipbox
244.077306 37.54375 m
253.029178 37.54375 l
253.029178 49.894891 l
244.077306 49.894891 l
cl
0.122 0.467 0.706 setrgbcolor
fill
grestore
gsave
315.1 272.2 59.67 37.54 clipbox
253.029178 37.54375 m
261.981049 37.54375 l
261.981049 266.27333 l
253.029178 266.27333 l
cl
0.122 0.467 0.706 setrgbcolor
fill
grestore
gsave
315.1 272.2 59.67 37.54 clipbox
261.981049 37.54375 m
270.932921 37.54375 l
270.932921 71.630702 l
261.981049 71.630702 l
cl
0.122 0.467 0.706 setrgbcolor
fill
grestore
gsave
315.1 272.2 59.67 37.54 clipbox
270.932921 37.54375 m
279.884793 37.54375 l
279.884793 97.29434 l
270.932921 97.29434 l
cl
0.122 0.467 0.706 setrgbcolor
fill
grestore
gsave
315.1 272.2 59.67 37.54 clipbox
279.884793 37.54375 m
288.836664 37.54375 l
288.836664 163.95754 l
279.884793 163.95754 l
cl
0.122 0.467 0.706 setrgbcolor
fill
grestore
gsave
315.1 272.2 59.67 37.54 clipbox
288.836664 37.54375 m
297.788536 37.54375 l
297.788536 143.567628 l
288.836664 143.567628 l
cl
0.122 0.467 0.706 setrgbcolor
fill
grestore
gsave
315.1 272.2 59.67 37.54 clipbox
297.788536 37.54375 m
306.740408 37.54375 l
306.740408 178.103213 l
297.788536 178.103213 l
cl
0.122 0.467 0.706 setrgbcolor
fill
grestore
gsave
315.1 272.2 59.67 37.54 clipbox
306.740408 37.54375 m
315.692279 37.54375 l
315.692279 51.112609 l
306.740408 51.112609 l
cl
0.122 0.467 0.706 setrgbcolor
fill
grestore
gsave
315.1 272.2 59.67 37.54 clipbox
315.692279 37.54375 m
324.644151 37.54375 l
324.644151 286.965382 l
315.692279 286.965382 l
cl
0.122 0.467 0.706 setrgbcolor
fill
grestore
gsave
315.1 272.2 59.67 37.54 clipbox
324.644151 37.54375 m
333.596023 37.54375 l
333.596023 57.594898 l
324.644151 57.594898 l
cl
0.122 0.467 0.706 setrgbcolor
fill
grestore
gsave
315.1 272.2 59.67 37.54 clipbox
333.596023 37.54375 m
342.547894 37.54375 l
342.547894 37.7818 l
333.596023 37.7818 l
cl
0.122 0.467 0.706 setrgbcolor
fill
grestore
gsave
315.1 272.2 59.67 37.54 clipbox
342.547894 37.54375 m
351.499766 37.54375 l
351.499766 296.194403 l
342.547894 296.194403 l
cl
0.122 0.467 0.706 setrgbcolor
fill
grestore
gsave
315.1 272.2 59.67 37.54 clipbox
351.499766 37.54375 m
360.451638 37.54375 l
360.451638 37.635308 l
351.499766 37.635308 l
cl
0.122 0.467 0.706 setrgbcolor
fill
grestore
1 setlinejoin
0 setlinecap
[] 0 setdash
gsave
/o {
gsave
newpath
translate
0.8 setlinewidth
1 setlinejoin
0 setlinecap
0 0 m
0 -3.5 l

gsave
0.000 setgray
fill
grestore
stroke
grestore
} bind def
73.9917 37.5438 o
grestore
/DejaVuSans findfont
10.000 scalefont
setfont
gsave
70.812057 22.950000 translate
0.000000 rotate
0.000000 0 m /zero glyphshow
grestore
gsave
/o {
gsave
newpath
translate
0.8 setlinewidth
1 setlinejoin
0 setlinecap
0 0 m
0 -3.5 l

gsave
0.000 setgray
fill
grestore
stroke
grestore
} bind def
129.941 37.5438 o
grestore
gsave
123.581568 22.950000 translate
0.000000 rotate
0.000000 0 m /five glyphshow
6.362305 0 m /zero glyphshow
grestore
gsave
/o {
gsave
newpath
translate
0.8 setlinewidth
1 setlinejoin
0 setlinecap
0 0 m
0 -3.5 l

gsave
0.000 setgray
fill
grestore
stroke
grestore
} bind def
185.89 37.5438 o
grestore
gsave
176.351078 22.950000 translate
0.000000 rotate
0.000000 0 m /one glyphshow
6.362305 0 m /zero glyphshow
12.724609 0 m /zero glyphshow
grestore
gsave
/o {
gsave
newpath
translate
0.8 setlinewidth
1 setlinejoin
0 setlinecap
0 0 m
0 -3.5 l

gsave
0.000 setgray
fill
grestore
stroke
grestore
} bind def
241.839 37.5438 o
grestore
gsave
232.300276 22.950000 translate
0.000000 rotate
0.000000 0 m /one glyphshow
6.362305 0 m /five glyphshow
12.724609 0 m /zero glyphshow
grestore
gsave
/o {
gsave
newpath
translate
0.8 setlinewidth
1 setlinejoin
0 setlinecap
0 0 m
0 -3.5 l

gsave
0.000 setgray
fill
grestore
stroke
grestore
} bind def
297.789 37.5438 o
grestore
gsave
288.249474 22.950000 translate
0.000000 rotate
0.000000 0 m /two glyphshow
6.362305 0 m /zero glyphshow
12.724609 0 m /zero glyphshow
grestore
gsave
/o {
gsave
newpath
translate
0.8 setlinewidth
1 setlinejoin
0 setlinecap
0 0 m
0 -3.5 l

gsave
0.000 setgray
fill
grestore
stroke
grestore
} bind def
353.738 37.5438 o
grestore
gsave
344.198671 22.950000 translate
0.000000 rotate
0.000000 0 m /two glyphshow
6.362305 0 m /five glyphshow
12.724609 0 m /zero glyphshow
grestore
gsave
198.799816 9.278125 translate
0.000000 rotate
0.000000 0 m /o glyphshow
6.118164 0 m /p glyphshow
12.465820 0 m /i glyphshow
15.244141 0 m /n glyphshow
21.582031 0 m /i glyphshow
24.360352 0 m /o glyphshow
30.478516 0 m /n glyphshow
grestore
gsave
/o {
gsave
newpath
translate
0.8 setlinewidth
1 setlinejoin
0 setlinecap
0 0 m
-3.5 0 l

gsave
0.000 setgray
fill
grestore
stroke
grestore
} bind def
59.6688 37.5438 o
grestore
gsave
46.309375 33.746875 translate
0.000000 rotate
0.000000 0 m /zero glyphshow
grestore
gsave
/o {
gsave
newpath
translate
0.8 setlinewidth
1 setlinejoin
0 setlinecap
0 0 m
-3.5 0 l

gsave
0.000 setgray
fill
grestore
stroke
grestore
} bind def
59.6688 83.3226 o
grestore
gsave
27.231250 79.525752 translate
0.000000 rotate
0.000000 0 m /five glyphshow
6.362305 0 m /zero glyphshow
12.724609 0 m /zero glyphshow
19.086914 0 m /zero glyphshow
grestore
gsave
/o {
gsave
newpath
translate
0.8 setlinewidth
1 setlinejoin
0 setlinecap
0 0 m
-3.5 0 l

gsave
0.000 setgray
fill
grestore
stroke
grestore
} bind def
59.6688 129.102 o
grestore
gsave
20.871875 125.304628 translate
0.000000 rotate
0.000000 0 m /one glyphshow
6.362305 0 m /zero glyphshow
12.724609 0 m /zero glyphshow
19.086914 0 m /zero glyphshow
25.449219 0 m /zero glyphshow
grestore
gsave
/o {
gsave
newpath
translate
0.8 setlinewidth
1 setlinejoin
0 setlinecap
0 0 m
-3.5 0 l

gsave
0.000 setgray
fill
grestore
stroke
grestore
} bind def
59.6688 174.88 o
grestore
gsave
20.871875 171.083505 translate
0.000000 rotate
0.000000 0 m /one glyphshow
6.362305 0 m /five glyphshow
12.724609 0 m /zero glyphshow
19.086914 0 m /zero glyphshow
25.449219 0 m /zero glyphshow
grestore
gsave
/o {
gsave
newpath
translate
0.8 setlinewidth
1 setlinejoin
0 setlinecap
0 0 m
-3.5 0 l

gsave
0.000 setgray
fill
grestore
stroke
grestore
} bind def
59.6688 220.659 o
grestore
gsave
20.871875 216.862382 translate
0.000000 rotate
0.000000 0 m /two glyphshow
6.362305 0 m /zero glyphshow
12.724609 0 m /zero glyphshow
19.086914 0 m /zero glyphshow
25.449219 0 m /zero glyphshow
grestore
gsave
/o {
gsave
newpath
translate
0.8 setlinewidth
1 setlinejoin
0 setlinecap
0 0 m
-3.5 0 l

gsave
0.000 setgray
fill
grestore
stroke
grestore
} bind def
59.6688 266.438 o
grestore
gsave
20.871875 262.641259 translate
0.000000 rotate
0.000000 0 m /two glyphshow
6.362305 0 m /five glyphshow
12.724609 0 m /zero glyphshow
19.086914 0 m /zero glyphshow
25.449219 0 m /zero glyphshow
grestore
gsave
14.793750 159.194063 translate
90.000000 rotate
0.000000 0 m /o glyphshow
6.118164 0 m /o glyphshow
12.236328 0 m /u glyphshow
18.574219 0 m /n glyphshow
24.912109 0 m /t glyphshow
grestore
0 setlinejoin
2 setlinecap
[] 0 setdash
gsave
59.66875 37.54375 m
59.66875 309.70375 l
stroke
grestore
gsave
374.774632 37.54375 m
374.774632 309.70375 l
stroke
grestore
gsave
59.66875 37.54375 m
374.774632 37.54375 l
stroke
grestore
gsave
59.66875 309.70375 m
374.774632 309.70375 l
stroke
grestore
/DejaVuSans findfont
12.000 scalefont
setfont
gsave
169.448254 315.703750 translate
0.000000 rotate
0.000000 0 m /m glyphshow
11.689453 0 m /space glyphshow
15.503906 0 m /equal glyphshow
25.558594 0 m /space glyphshow
29.373047 0 m /zero glyphshow
37.007812 0 m /period glyphshow
40.822266 0 m /six glyphshow
48.457031 0 m /comma glyphshow
52.271484 0 m /space glyphshow
56.085938 0 m /epsilon glyphshow
62.572266 0 m /space glyphshow
66.386719 0 m /equal glyphshow
76.441406 0 m /space glyphshow
80.255859 0 m /one glyphshow
87.890625 0 m /zero glyphshow
grestore
gsave
437.795809 37.54375 m
752.901691 37.54375 l
752.901691 309.70375 l
437.795809 309.70375 l
cl
1.000 setgray
fill
grestore
gsave
315.1 272.2 437.8 37.54 clipbox
452.118803 37.54375 m
461.070675 37.54375 l
461.070675 37.619137 l
452.118803 37.619137 l
cl
0.122 0.467 0.706 setrgbcolor
fill
grestore
gsave
315.1 272.2 437.8 37.54 clipbox
461.070675 37.54375 m
470.022547 37.54375 l
470.022547 37.564858 l
461.070675 37.564858 l
cl
0.122 0.467 0.706 setrgbcolor
fill
grestore
gsave
315.1 272.2 437.8 37.54 clipbox
470.022547 37.54375 m
478.974418 37.54375 l
478.974418 37.54375 l
470.022547 37.54375 l
cl
0.122 0.467 0.706 setrgbcolor
fill
grestore
gsave
315.1 272.2 437.8 37.54 clipbox
478.974418 37.54375 m
487.92629 37.54375 l
487.92629 37.54375 l
478.974418 37.54375 l
cl
0.122 0.467 0.706 setrgbcolor
fill
grestore
gsave
315.1 272.2 437.8 37.54 clipbox
487.92629 37.54375 m
496.878162 37.54375 l
496.878162 37.54375 l
487.92629 37.54375 l
cl
0.122 0.467 0.706 setrgbcolor
fill
grestore
gsave
315.1 272.2 437.8 37.54 clipbox
496.878162 37.54375 m
505.830033 37.54375 l
505.830033 37.54375 l
496.878162 37.54375 l
cl
0.122 0.467 0.706 setrgbcolor
fill
grestore
gsave
315.1 272.2 437.8 37.54 clipbox
505.830033 37.54375 m
514.781905 37.54375 l
514.781905 37.54375 l
505.830033 37.54375 l
cl
0.122 0.467 0.706 setrgbcolor
fill
grestore
gsave
315.1 272.2 437.8 37.54 clipbox
514.781905 37.54375 m
523.733777 37.54375 l
523.733777 37.54375 l
514.781905 37.54375 l
cl
0.122 0.467 0.706 setrgbcolor
fill
grestore
gsave
315.1 272.2 437.8 37.54 clipbox
523.733777 37.54375 m
532.685648 37.54375 l
532.685648 296.170806 l
523.733777 296.170806 l
cl
0.122 0.467 0.706 setrgbcolor
fill
grestore
gsave
315.1 272.2 437.8 37.54 clipbox
532.685648 37.54375 m
541.63752 37.54375 l
541.63752 37.54375 l
532.685648 37.54375 l
cl
0.122 0.467 0.706 setrgbcolor
fill
grestore
gsave
315.1 272.2 437.8 37.54 clipbox
541.63752 37.54375 m
550.589392 37.54375 l
550.589392 37.54375 l
541.63752 37.54375 l
cl
0.122 0.467 0.706 setrgbcolor
fill
grestore
gsave
315.1 272.2 437.8 37.54 clipbox
550.589392 37.54375 m
559.541263 37.54375 l
559.541263 37.54375 l
550.589392 37.54375 l
cl
0.122 0.467 0.706 setrgbcolor
fill
grestore
gsave
315.1 272.2 437.8 37.54 clipbox
559.541263 37.54375 m
568.493135 37.54375 l
568.493135 37.54375 l
559.541263 37.54375 l
cl
0.122 0.467 0.706 setrgbcolor
fill
grestore
gsave
315.1 272.2 437.8 37.54 clipbox
568.493135 37.54375 m
577.445007 37.54375 l
577.445007 37.54375 l
568.493135 37.54375 l
cl
0.122 0.467 0.706 setrgbcolor
fill
grestore
gsave
315.1 272.2 437.8 37.54 clipbox
577.445007 37.54375 m
586.396878 37.54375 l
586.396878 37.54375 l
577.445007 37.54375 l
cl
0.122 0.467 0.706 setrgbcolor
fill
grestore
gsave
315.1 272.2 437.8 37.54 clipbox
586.396878 37.54375 m
595.34875 37.54375 l
595.34875 39.226397 l
586.396878 39.226397 l
cl
0.122 0.467 0.706 setrgbcolor
fill
grestore
gsave
315.1 272.2 437.8 37.54 clipbox
595.34875 37.54375 m
604.300622 37.54375 l
604.300622 38.905247 l
595.34875 38.905247 l
cl
0.122 0.467 0.706 setrgbcolor
fill
grestore
gsave
315.1 272.2 437.8 37.54 clipbox
604.300622 37.54375 m
613.252493 37.54375 l
613.252493 37.54375 l
604.300622 37.54375 l
cl
0.122 0.467 0.706 setrgbcolor
fill
grestore
gsave
315.1 272.2 437.8 37.54 clipbox
613.252493 37.54375 m
622.204365 37.54375 l
622.204365 37.54375 l
613.252493 37.54375 l
cl
0.122 0.467 0.706 setrgbcolor
fill
grestore
gsave
315.1 272.2 437.8 37.54 clipbox
622.204365 37.54375 m
631.156237 37.54375 l
631.156237 37.54375 l
622.204365 37.54375 l
cl
0.122 0.467 0.706 setrgbcolor
fill
grestore
gsave
315.1 272.2 437.8 37.54 clipbox
631.156237 37.54375 m
640.108108 37.54375 l
640.108108 37.54375 l
631.156237 37.54375 l
cl
0.122 0.467 0.706 setrgbcolor
fill
grestore
gsave
315.1 272.2 437.8 37.54 clipbox
640.108108 37.54375 m
649.05998 37.54375 l
649.05998 37.54375 l
640.108108 37.54375 l
cl
0.122 0.467 0.706 setrgbcolor
fill
grestore
gsave
315.1 272.2 437.8 37.54 clipbox
649.05998 37.54375 m
658.011852 37.54375 l
658.011852 37.54375 l
649.05998 37.54375 l
cl
0.122 0.467 0.706 setrgbcolor
fill
grestore
gsave
315.1 272.2 437.8 37.54 clipbox
658.011852 37.54375 m
666.963723 37.54375 l
666.963723 296.74375 l
658.011852 296.74375 l
cl
0.122 0.467 0.706 setrgbcolor
fill
grestore
gsave
315.1 272.2 437.8 37.54 clipbox
666.963723 37.54375 m
675.915595 37.54375 l
675.915595 37.54375 l
666.963723 37.54375 l
cl
0.122 0.467 0.706 setrgbcolor
fill
grestore
gsave
315.1 272.2 437.8 37.54 clipbox
675.915595 37.54375 m
684.867467 37.54375 l
684.867467 37.54375 l
675.915595 37.54375 l
cl
0.122 0.467 0.706 setrgbcolor
fill
grestore
gsave
315.1 272.2 437.8 37.54 clipbox
684.867467 37.54375 m
693.819338 37.54375 l
693.819338 37.54375 l
684.867467 37.54375 l
cl
0.122 0.467 0.706 setrgbcolor
fill
grestore
gsave
315.1 272.2 437.8 37.54 clipbox
693.819338 37.54375 m
702.77121 37.54375 l
702.77121 37.54375 l
693.819338 37.54375 l
cl
0.122 0.467 0.706 setrgbcolor
fill
grestore
gsave
315.1 272.2 437.8 37.54 clipbox
702.77121 37.54375 m
711.723082 37.54375 l
711.723082 37.54375 l
702.77121 37.54375 l
cl
0.122 0.467 0.706 setrgbcolor
fill
grestore
gsave
315.1 272.2 437.8 37.54 clipbox
711.723082 37.54375 m
720.674953 37.54375 l
720.674953 37.546765 l
711.723082 37.546765 l
cl
0.122 0.467 0.706 setrgbcolor
fill
grestore
gsave
315.1 272.2 437.8 37.54 clipbox
720.674953 37.54375 m
729.626825 37.54375 l
729.626825 37.575413 l
720.674953 37.575413 l
cl
0.122 0.467 0.706 setrgbcolor
fill
grestore
gsave
315.1 272.2 437.8 37.54 clipbox
729.626825 37.54375 m
738.578697 37.54375 l
738.578697 37.619137 l
729.626825 37.619137 l
cl
0.122 0.467 0.706 setrgbcolor
fill
grestore
1 setlinejoin
0 setlinecap
[] 0 setdash
gsave
/o {
gsave
newpath
translate
0.8 setlinewidth
1 setlinejoin
0 setlinecap
0 0 m
0 -3.5 l

gsave
0.000 setgray
fill
grestore
stroke
grestore
} bind def
452.119 37.5438 o
grestore
/DejaVuSans findfont
10.000 scalefont
setfont
gsave
448.939116 22.950000 translate
0.000000 rotate
0.000000 0 m /zero glyphshow
grestore
gsave
/o {
gsave
newpath
translate
0.8 setlinewidth
1 setlinejoin
0 setlinecap
0 0 m
0 -3.5 l

gsave
0.000 setgray
fill
grestore
stroke
grestore
} bind def
508.068 37.5438 o
grestore
gsave
501.708626 22.950000 translate
0.000000 rotate
0.000000 0 m /five glyphshow
6.362305 0 m /zero glyphshow
grestore
gsave
/o {
gsave
newpath
translate
0.8 setlinewidth
1 setlinejoin
0 setlinecap
0 0 m
0 -3.5 l

gsave
0.000 setgray
fill
grestore
stroke
grestore
} bind def
564.017 37.5438 o
grestore
gsave
554.478137 22.950000 translate
0.000000 rotate
0.000000 0 m /one glyphshow
6.362305 0 m /zero glyphshow
12.724609 0 m /zero glyphshow
grestore
gsave
/o {
gsave
newpath
translate
0.8 setlinewidth
1 setlinejoin
0 setlinecap
0 0 m
0 -3.5 l

gsave
0.000 setgray
fill
grestore
stroke
grestore
} bind def
619.966 37.5438 o
grestore
gsave
610.427335 22.950000 translate
0.000000 rotate
0.000000 0 m /one glyphshow
6.362305 0 m /five glyphshow
12.724609 0 m /zero glyphshow
grestore
gsave
/o {
gsave
newpath
translate
0.8 setlinewidth
1 setlinejoin
0 setlinecap
0 0 m
0 -3.5 l

gsave
0.000 setgray
fill
grestore
stroke
grestore
} bind def
675.916 37.5438 o
grestore
gsave
666.376532 22.950000 translate
0.000000 rotate
0.000000 0 m /two glyphshow
6.362305 0 m /zero glyphshow
12.724609 0 m /zero glyphshow
grestore
gsave
/o {
gsave
newpath
translate
0.8 setlinewidth
1 setlinejoin
0 setlinecap
0 0 m
0 -3.5 l

gsave
0.000 setgray
fill
grestore
stroke
grestore
} bind def
731.865 37.5438 o
grestore
gsave
722.325730 22.950000 translate
0.000000 rotate
0.000000 0 m /two glyphshow
6.362305 0 m /five glyphshow
12.724609 0 m /zero glyphshow
grestore
gsave
576.926875 9.278125 translate
0.000000 rotate
0.000000 0 m /o glyphshow
6.118164 0 m /p glyphshow
12.465820 0 m /i glyphshow
15.244141 0 m /n glyphshow
21.582031 0 m /i glyphshow
24.360352 0 m /o glyphshow
30.478516 0 m /n glyphshow
grestore
gsave
/o {
gsave
newpath
translate
0.8 setlinewidth
1 setlinejoin
0 setlinecap
0 0 m
-3.5 0 l

gsave
0.000 setgray
fill
grestore
stroke
grestore
} bind def
437.796 37.5438 o
grestore
gsave
424.436434 33.746875 translate
0.000000 rotate
0.000000 0 m /zero glyphshow
grestore
gsave
/o {
gsave
newpath
translate
0.8 setlinewidth
1 setlinejoin
0 setlinecap
0 0 m
-3.5 0 l

gsave
0.000 setgray
fill
grestore
stroke
grestore
} bind def
437.796 75.2375 o
grestore
gsave
398.998934 71.440579 translate
0.000000 rotate
0.000000 0 m /two glyphshow
6.362305 0 m /five glyphshow
12.724609 0 m /zero glyphshow
19.086914 0 m /zero glyphshow
25.449219 0 m /zero glyphshow
grestore
gsave
/o {
gsave
newpath
translate
0.8 setlinewidth
1 setlinejoin
0 setlinecap
0 0 m
-3.5 0 l

gsave
0.000 setgray
fill
grestore
stroke
grestore
} bind def
437.796 112.931 o
grestore
gsave
398.998934 109.134283 translate
0.000000 rotate
0.000000 0 m /five glyphshow
6.362305 0 m /zero glyphshow
12.724609 0 m /zero glyphshow
19.086914 0 m /zero glyphshow
25.449219 0 m /zero glyphshow
grestore
gsave
/o {
gsave
newpath
translate
0.8 setlinewidth
1 setlinejoin
0 setlinecap
0 0 m
-3.5 0 l

gsave
0.000 setgray
fill
grestore
stroke
grestore
} bind def
437.796 150.625 o
grestore
gsave
398.998934 146.827986 translate
0.000000 rotate
0.000000 0 m /seven glyphshow
6.362305 0 m /five glyphshow
12.724609 0 m /zero glyphshow
19.086914 0 m /zero glyphshow
25.449219 0 m /zero glyphshow
grestore
gsave
/o {
gsave
newpath
translate
0.8 setlinewidth
1 setlinejoin
0 setlinecap
0 0 m
-3.5 0 l

gsave
0.000 setgray
fill
grestore
stroke
grestore
} bind def
437.796 188.319 o
grestore
gsave
392.639559 184.521690 translate
0.000000 rotate
0.000000 0 m /one glyphshow
6.362305 0 m /zero glyphshow
12.724609 0 m /zero glyphshow
19.086914 0 m /zero glyphshow
25.449219 0 m /zero glyphshow
31.811523 0 m /zero glyphshow
grestore
gsave
/o {
gsave
newpath
translate
0.8 setlinewidth
1 setlinejoin
0 setlinecap
0 0 m
-3.5 0 l

gsave
0.000 setgray
fill
grestore
stroke
grestore
} bind def
437.796 226.012 o
grestore
gsave
392.639559 222.215394 translate
0.000000 rotate
0.000000 0 m /one glyphshow
6.362305 0 m /two glyphshow
12.724609 0 m /five glyphshow
19.086914 0 m /zero glyphshow
25.449219 0 m /zero glyphshow
31.811523 0 m /zero glyphshow
grestore
gsave
/o {
gsave
newpath
translate
0.8 setlinewidth
1 setlinejoin
0 setlinecap
0 0 m
-3.5 0 l

gsave
0.000 setgray
fill
grestore
stroke
grestore
} bind def
437.796 263.706 o
grestore
gsave
392.639559 259.909098 translate
0.000000 rotate
0.000000 0 m /one glyphshow
6.362305 0 m /five glyphshow
12.724609 0 m /zero glyphshow
19.086914 0 m /zero glyphshow
25.449219 0 m /zero glyphshow
31.811523 0 m /zero glyphshow
grestore
gsave
/o {
gsave
newpath
translate
0.8 setlinewidth
1 setlinejoin
0 setlinecap
0 0 m
-3.5 0 l

gsave
0.000 setgray
fill
grestore
stroke
grestore
} bind def
437.796 301.4 o
grestore
gsave
392.639559 297.602801 translate
0.000000 rotate
0.000000 0 m /one glyphshow
6.362305 0 m /seven glyphshow
12.724609 0 m /five glyphshow
19.086914 0 m /zero glyphshow
25.449219 0 m /zero glyphshow
31.811523 0 m /zero glyphshow
grestore
gsave
386.561434 159.194063 translate
90.000000 rotate
0.000000 0 m /o glyphshow
6.118164 0 m /o glyphshow
12.236328 0 m /u glyphshow
18.574219 0 m /n glyphshow
24.912109 0 m /t glyphshow
grestore
0 setlinejoin
2 setlinecap
[] 0 setdash
gsave
437.795809 37.54375 m
437.795809 309.70375 l
stroke
grestore
gsave
752.901691 37.54375 m
752.901691 309.70375 l
stroke
grestore
gsave
437.795809 37.54375 m
752.901691 37.54375 l
stroke
grestore
gsave
437.795809 309.70375 m
752.901691 309.70375 l
stroke
grestore
/DejaVuSans findfont
12.000 scalefont
setfont
gsave
547.575312 315.703750 translate
0.000000 rotate
0.000000 0 m /m glyphshow
11.689453 0 m /space glyphshow
15.503906 0 m /equal glyphshow
25.558594 0 m /space glyphshow
29.373047 0 m /zero glyphshow
37.007812 0 m /period glyphshow
40.822266 0 m /six glyphshow
48.457031 0 m /comma glyphshow
52.271484 0 m /space glyphshow
56.085938 0 m /epsilon glyphshow
62.572266 0 m /space glyphshow
66.386719 0 m /equal glyphshow
76.441406 0 m /space glyphshow
80.255859 0 m /five glyphshow
87.890625 0 m /zero glyphshow
grestore
gsave
815.922868 37.54375 m
1131.02875 37.54375 l
1131.02875 309.70375 l
815.922868 309.70375 l
cl
1.000 setgray
fill
grestore
gsave
315.1 272.2 815.9 37.54 clipbox
830.245862 37.54375 m
839.197734 37.54375 l
839.197734 37.685848 l
830.245862 37.685848 l
cl
0.122 0.467 0.706 setrgbcolor
fill
grestore
gsave
315.1 272.2 815.9 37.54 clipbox
839.197734 37.54375 m
848.149606 37.54375 l
848.149606 37.654271 l
839.197734 37.654271 l
cl
0.122 0.467 0.706 setrgbcolor
fill
grestore
gsave
315.1 272.2 815.9 37.54 clipbox
848.149606 37.54375 m
857.101477 37.54375 l
857.101477 37.590364 l
848.149606 37.590364 l
cl
0.122 0.467 0.706 setrgbcolor
fill
grestore
gsave
315.1 272.2 815.9 37.54 clipbox
857.101477 37.54375 m
866.053349 37.54375 l
866.053349 37.545254 l
857.101477 37.545254 l
cl
0.122 0.467 0.706 setrgbcolor
fill
grestore
gsave
315.1 272.2 815.9 37.54 clipbox
866.053349 37.54375 m
875.005221 37.54375 l
875.005221 37.54375 l
866.053349 37.54375 l
cl
0.122 0.467 0.706 setrgbcolor
fill
grestore
gsave
315.1 272.2 815.9 37.54 clipbox
875.005221 37.54375 m
883.957092 37.54375 l
883.957092 37.54375 l
875.005221 37.54375 l
cl
0.122 0.467 0.706 setrgbcolor
fill
grestore
gsave
315.1 272.2 815.9 37.54 clipbox
883.957092 37.54375 m
892.908964 37.54375 l
892.908964 37.54375 l
883.957092 37.54375 l
cl
0.122 0.467 0.706 setrgbcolor
fill
grestore
gsave
315.1 272.2 815.9 37.54 clipbox
892.908964 37.54375 m
901.860836 37.54375 l
901.860836 37.54375 l
892.908964 37.54375 l
cl
0.122 0.467 0.706 setrgbcolor
fill
grestore
gsave
315.1 272.2 815.9 37.54 clipbox
901.860836 37.54375 m
910.812707 37.54375 l
910.812707 37.54375 l
901.860836 37.54375 l
cl
0.122 0.467 0.706 setrgbcolor
fill
grestore
gsave
315.1 272.2 815.9 37.54 clipbox
910.812707 37.54375 m
919.764579 37.54375 l
919.764579 37.54375 l
910.812707 37.54375 l
cl
0.122 0.467 0.706 setrgbcolor
fill
grestore
gsave
315.1 272.2 815.9 37.54 clipbox
919.764579 37.54375 m
928.716451 37.54375 l
928.716451 37.54375 l
919.764579 37.54375 l
cl
0.122 0.467 0.706 setrgbcolor
fill
grestore
gsave
315.1 272.2 815.9 37.54 clipbox
928.716451 37.54375 m
937.668322 37.54375 l
937.668322 37.54375 l
928.716451 37.54375 l
cl
0.122 0.467 0.706 setrgbcolor
fill
grestore
gsave
315.1 272.2 815.9 37.54 clipbox
937.668322 37.54375 m
946.620194 37.54375 l
946.620194 37.54375 l
937.668322 37.54375 l
cl
0.122 0.467 0.706 setrgbcolor
fill
grestore
gsave
315.1 272.2 815.9 37.54 clipbox
946.620194 37.54375 m
955.572066 37.54375 l
955.572066 37.54375 l
946.620194 37.54375 l
cl
0.122 0.467 0.706 setrgbcolor
fill
grestore
gsave
315.1 272.2 815.9 37.54 clipbox
955.572066 37.54375 m
964.523937 37.54375 l
964.523937 37.54375 l
955.572066 37.54375 l
cl
0.122 0.467 0.706 setrgbcolor
fill
grestore
gsave
315.1 272.2 815.9 37.54 clipbox
964.523937 37.54375 m
973.475809 37.54375 l
973.475809 296.74375 l
964.523937 296.74375 l
cl
0.122 0.467 0.706 setrgbcolor
fill
grestore
gsave
315.1 272.2 815.9 37.54 clipbox
973.475809 37.54375 m
982.42768 37.54375 l
982.42768 37.54375 l
973.475809 37.54375 l
cl
0.122 0.467 0.706 setrgbcolor
fill
grestore
gsave
315.1 272.2 815.9 37.54 clipbox
982.42768 37.54375 m
991.379552 37.54375 l
991.379552 37.54375 l
982.42768 37.54375 l
cl
0.122 0.467 0.706 setrgbcolor
fill
grestore
gsave
315.1 272.2 815.9 37.54 clipbox
991.379552 37.54375 m
1000.331424 37.54375 l
1000.331424 37.54375 l
991.379552 37.54375 l
cl
0.122 0.467 0.706 setrgbcolor
fill
grestore
gsave
315.1 272.2 815.9 37.54 clipbox
1000.331424 37.54375 m
1009.283295 37.54375 l
1009.283295 37.54375 l
1000.331424 37.54375 l
cl
0.122 0.467 0.706 setrgbcolor
fill
grestore
gsave
315.1 272.2 815.9 37.54 clipbox
1009.283295 37.54375 m
1018.235167 37.54375 l
1018.235167 37.54375 l
1009.283295 37.54375 l
cl
0.122 0.467 0.706 setrgbcolor
fill
grestore
gsave
315.1 272.2 815.9 37.54 clipbox
1018.235167 37.54375 m
1027.187039 37.54375 l
1027.187039 37.54375 l
1018.235167 37.54375 l
cl
0.122 0.467 0.706 setrgbcolor
fill
grestore
gsave
315.1 272.2 815.9 37.54 clipbox
1027.187039 37.54375 m
1036.13891 37.54375 l
1036.13891 37.54375 l
1027.187039 37.54375 l
cl
0.122 0.467 0.706 setrgbcolor
fill
grestore
gsave
315.1 272.2 815.9 37.54 clipbox
1036.13891 37.54375 m
1045.090782 37.54375 l
1045.090782 37.54375 l
1036.13891 37.54375 l
cl
0.122 0.467 0.706 setrgbcolor
fill
grestore
gsave
315.1 272.2 815.9 37.54 clipbox
1045.090782 37.54375 m
1054.042654 37.54375 l
1054.042654 37.54375 l
1045.090782 37.54375 l
cl
0.122 0.467 0.706 setrgbcolor
fill
grestore
gsave
315.1 272.2 815.9 37.54 clipbox
1054.042654 37.54375 m
1062.994525 37.54375 l
1062.994525 37.54375 l
1054.042654 37.54375 l
cl
0.122 0.467 0.706 setrgbcolor
fill
grestore
gsave
315.1 272.2 815.9 37.54 clipbox
1062.994525 37.54375 m
1071.946397 37.54375 l
1071.946397 37.54375 l
1062.994525 37.54375 l
cl
0.122 0.467 0.706 setrgbcolor
fill
grestore
gsave
315.1 272.2 815.9 37.54 clipbox
1071.946397 37.54375 m
1080.898269 37.54375 l
1080.898269 37.54375 l
1071.946397 37.54375 l
cl
0.122 0.467 0.706 setrgbcolor
fill
grestore
gsave
315.1 272.2 815.9 37.54 clipbox
1080.898269 37.54375 m
1089.85014 37.54375 l
1089.85014 37.55202 l
1080.898269 37.55202 l
cl
0.122 0.467 0.706 setrgbcolor
fill
grestore
gsave
315.1 272.2 815.9 37.54 clipbox
1089.85014 37.54375 m
1098.802012 37.54375 l
1098.802012 37.607657 l
1089.85014 37.607657 l
cl
0.122 0.467 0.706 setrgbcolor
fill
grestore
gsave
315.1 272.2 815.9 37.54 clipbox
1098.802012 37.54375 m
1107.753884 37.54375 l
1107.753884 37.681337 l
1098.802012 37.681337 l
cl
0.122 0.467 0.706 setrgbcolor
fill
grestore
gsave
315.1 272.2 815.9 37.54 clipbox
1107.753884 37.54375 m
1116.705755 37.54375 l
1116.705755 37.67006 l
1107.753884 37.67006 l
cl
0.122 0.467 0.706 setrgbcolor
fill
grestore
1 setlinejoin
0 setlinecap
[] 0 setdash
gsave
/o {
gsave
newpath
translate
0.8 setlinewidth
1 setlinejoin
0 setlinecap
0 0 m
0 -3.5 l

gsave
0.000 setgray
fill
grestore
stroke
grestore
} bind def
830.246 37.5438 o
grestore
/DejaVuSans findfont
10.000 scalefont
setfont
gsave
827.066175 22.950000 translate
0.000000 rotate
0.000000 0 m /zero glyphshow
grestore
gsave
/o {
gsave
newpath
translate
0.8 setlinewidth
1 setlinejoin
0 setlinecap
0 0 m
0 -3.5 l

gsave
0.000 setgray
fill
grestore
stroke
grestore
} bind def
886.195 37.5438 o
grestore
gsave
879.835685 22.950000 translate
0.000000 rotate
0.000000 0 m /five glyphshow
6.362305 0 m /zero glyphshow
grestore
gsave
/o {
gsave
newpath
translate
0.8 setlinewidth
1 setlinejoin
0 setlinecap
0 0 m
0 -3.5 l

gsave
0.000 setgray
fill
grestore
stroke
grestore
} bind def
942.144 37.5438 o
grestore
gsave
932.605196 22.950000 translate
0.000000 rotate
0.000000 0 m /one glyphshow
6.362305 0 m /zero glyphshow
12.724609 0 m /zero glyphshow
grestore
gsave
/o {
gsave
newpath
translate
0.8 setlinewidth
1 setlinejoin
0 setlinecap
0 0 m
0 -3.5 l

gsave
0.000 setgray
fill
grestore
stroke
grestore
} bind def
998.093 37.5438 o
grestore
gsave
988.554393 22.950000 translate
0.000000 rotate
0.000000 0 m /one glyphshow
6.362305 0 m /five glyphshow
12.724609 0 m /zero glyphshow
grestore
gsave
/o {
gsave
newpath
translate
0.8 setlinewidth
1 setlinejoin
0 setlinecap
0 0 m
0 -3.5 l

gsave
0.000 setgray
fill
grestore
stroke
grestore
} bind def
1054.04 37.5438 o
grestore
gsave
1044.503591 22.950000 translate
0.000000 rotate
0.000000 0 m /two glyphshow
6.362305 0 m /zero glyphshow
12.724609 0 m /zero glyphshow
grestore
gsave
/o {
gsave
newpath
translate
0.8 setlinewidth
1 setlinejoin
0 setlinecap
0 0 m
0 -3.5 l

gsave
0.000 setgray
fill
grestore
stroke
grestore
} bind def
1109.99 37.5438 o
grestore
gsave
1100.452789 22.950000 translate
0.000000 rotate
0.000000 0 m /two glyphshow
6.362305 0 m /five glyphshow
12.724609 0 m /zero glyphshow
grestore
gsave
955.053934 9.278125 translate
0.000000 rotate
0.000000 0 m /o glyphshow
6.118164 0 m /p glyphshow
12.465820 0 m /i glyphshow
15.244141 0 m /n glyphshow
21.582031 0 m /i glyphshow
24.360352 0 m /o glyphshow
30.478516 0 m /n glyphshow
grestore
gsave
/o {
gsave
newpath
translate
0.8 setlinewidth
1 setlinejoin
0 setlinecap
0 0 m
-3.5 0 l

gsave
0.000 setgray
fill
grestore
stroke
grestore
} bind def
815.923 37.5438 o
grestore
gsave
802.563493 33.746875 translate
0.000000 rotate
0.000000 0 m /zero glyphshow
grestore
gsave
/o {
gsave
newpath
translate
0.8 setlinewidth
1 setlinejoin
0 setlinecap
0 0 m
-3.5 0 l

gsave
0.000 setgray
fill
grestore
stroke
grestore
} bind def
815.923 75.1359 o
grestore
gsave
777.125993 71.339006 translate
0.000000 rotate
0.000000 0 m /five glyphshow
6.362305 0 m /zero glyphshow
12.724609 0 m /zero glyphshow
19.086914 0 m /zero glyphshow
25.449219 0 m /zero glyphshow
grestore
gsave
/o {
gsave
newpath
translate
0.8 setlinewidth
1 setlinejoin
0 setlinecap
0 0 m
-3.5 0 l

gsave
0.000 setgray
fill
grestore
stroke
grestore
} bind def
815.923 112.728 o
grestore
gsave
770.766618 108.931137 translate
0.000000 rotate
0.000000 0 m /one glyphshow
6.362305 0 m /zero glyphshow
12.724609 0 m /zero glyphshow
19.086914 0 m /zero glyphshow
25.449219 0 m /zero glyphshow
31.811523 0 m /zero glyphshow
grestore
gsave
/o {
gsave
newpath
translate
0.8 setlinewidth
1 setlinejoin
0 setlinecap
0 0 m
-3.5 0 l

gsave
0.000 setgray
fill
grestore
stroke
grestore
} bind def
815.923 150.32 o
grestore
gsave
770.766618 146.523269 translate
0.000000 rotate
0.000000 0 m /one glyphshow
6.362305 0 m /five glyphshow
12.724609 0 m /zero glyphshow
19.086914 0 m /zero glyphshow
25.449219 0 m /zero glyphshow
31.811523 0 m /zero glyphshow
grestore
gsave
/o {
gsave
newpath
translate
0.8 setlinewidth
1 setlinejoin
0 setlinecap
0 0 m
-3.5 0 l

gsave
0.000 setgray
fill
grestore
stroke
grestore
} bind def
815.923 187.912 o
grestore
gsave
770.766618 184.115400 translate
0.000000 rotate
0.000000 0 m /two glyphshow
6.362305 0 m /zero glyphshow
12.724609 0 m /zero glyphshow
19.086914 0 m /zero glyphshow
25.449219 0 m /zero glyphshow
31.811523 0 m /zero glyphshow
grestore
gsave
/o {
gsave
newpath
translate
0.8 setlinewidth
1 setlinejoin
0 setlinecap
0 0 m
-3.5 0 l

gsave
0.000 setgray
fill
grestore
stroke
grestore
} bind def
815.923 225.504 o
grestore
gsave
770.766618 221.707531 translate
0.000000 rotate
0.000000 0 m /two glyphshow
6.362305 0 m /five glyphshow
12.724609 0 m /zero glyphshow
19.086914 0 m /zero glyphshow
25.449219 0 m /zero glyphshow
31.811523 0 m /zero glyphshow
grestore
gsave
/o {
gsave
newpath
translate
0.8 setlinewidth
1 setlinejoin
0 setlinecap
0 0 m
-3.5 0 l

gsave
0.000 setgray
fill
grestore
stroke
grestore
} bind def
815.923 263.097 o
grestore
gsave
770.766618 259.299662 translate
0.000000 rotate
0.000000 0 m /three glyphshow
6.362305 0 m /zero glyphshow
12.724609 0 m /zero glyphshow
19.086914 0 m /zero glyphshow
25.449219 0 m /zero glyphshow
31.811523 0 m /zero glyphshow
grestore
gsave
/o {
gsave
newpath
translate
0.8 setlinewidth
1 setlinejoin
0 setlinecap
0 0 m
-3.5 0 l

gsave
0.000 setgray
fill
grestore
stroke
grestore
} bind def
815.923 300.689 o
grestore
gsave
770.766618 296.891793 translate
0.000000 rotate
0.000000 0 m /three glyphshow
6.362305 0 m /five glyphshow
12.724609 0 m /zero glyphshow
19.086914 0 m /zero glyphshow
25.449219 0 m /zero glyphshow
31.811523 0 m /zero glyphshow
grestore
gsave
764.688493 159.194063 translate
90.000000 rotate
0.000000 0 m /o glyphshow
6.118164 0 m /o glyphshow
12.236328 0 m /u glyphshow
18.574219 0 m /n glyphshow
24.912109 0 m /t glyphshow
grestore
0 setlinejoin
2 setlinecap
[] 0 setdash
gsave
815.922868 37.54375 m
815.922868 309.70375 l
stroke
grestore
gsave
1131.02875 37.54375 m
1131.02875 309.70375 l
stroke
grestore
gsave
815.922868 37.54375 m
1131.02875 37.54375 l
stroke
grestore
gsave
815.922868 309.70375 m
1131.02875 309.70375 l
stroke
grestore
/DejaVuSans findfont
12.000 scalefont
setfont
gsave
921.882059 315.703750 translate
0.000000 rotate
0.000000 0 m /m glyphshow
11.689453 0 m /space glyphshow
15.503906 0 m /equal glyphshow
25.558594 0 m /space glyphshow
29.373047 0 m /zero glyphshow
37.007812 0 m /period glyphshow
40.822266 0 m /six glyphshow
48.457031 0 m /comma glyphshow
52.271484 0 m /space glyphshow
56.085938 0 m /epsilon glyphshow
62.572266 0 m /space glyphshow
66.386719 0 m /equal glyphshow
76.441406 0 m /space glyphshow
80.255859 0 m /one glyphshow
87.890625 0 m /zero glyphshow
95.525391 0 m /zero glyphshow
grestore
gsave
504.139062 704.930750 translate
0.000000 rotate
0.000000 0 m /F glyphshow
6.027344 0 m /i glyphshow
9.361328 0 m /n glyphshow
16.966797 0 m /a glyphshow
24.320312 0 m /l glyphshow
27.654297 0 m /space glyphshow
31.468750 0 m /o glyphshow
38.810547 0 m /p glyphshow
46.427734 0 m /i glyphshow
49.761719 0 m /n glyphshow
57.367188 0 m /i glyphshow
60.701172 0 m /o glyphshow
68.042969 0 m /n glyphshow
75.648438 0 m /space glyphshow
79.462891 0 m /d glyphshow
87.080078 0 m /i glyphshow
90.414062 0 m /s glyphshow
96.666016 0 m /t glyphshow
101.371094 0 m /r glyphshow
106.304688 0 m /i glyphshow
109.638672 0 m /b glyphshow
117.255859 0 m /u glyphshow
124.861328 0 m /t glyphshow
129.566406 0 m /i glyphshow
132.900391 0 m /o glyphshow
140.242188 0 m /n glyphshow
grestore

end
showpage
