%!PS-Adobe-3.0 EPSF-3.0
%%Title: ./fig/b_histograms_report_official.eps
%%Creator: matplotlib version 3.2.1, http://matplotlib.org/
%%CreationDate: Fri Apr 24 11:43:22 2020
%%Orientation: landscape
%%BoundingBox: 61.141562500000035 68.86093749999995 550.8584374999999 723.1390625
%%EndComments
%%BeginProlog
/mpldict 8 dict def
mpldict begin
/m { moveto } bind def
/l { lineto } bind def
/r { rlineto } bind def
/c { curveto } bind def
/cl { closepath } bind def
/box {
m
1 index 0 r
0 exch r
neg 0 r
cl
} bind def
/clipbox {
box
clip
newpath
} bind def
%!PS-Adobe-3.0 Resource-Font
%%Title: DejaVu Sans
%%Copyright: Copyright (c) 2003 by Bitstream, Inc. All Rights Reserved. Copyright (c) 2006 by Tavmjong Bah. All Rights Reserved. DejaVu changes are in public domain 
%%Creator: Converted from TrueType to type 3 by PPR
25 dict begin
/_d{bind def}bind def
/_m{moveto}_d
/_l{lineto}_d
/_cl{closepath eofill}_d
/_c{curveto}_d
/_sc{7 -1 roll{setcachedevice}{pop pop pop pop pop pop}ifelse}_d
/_e{exec}_d
/FontName /DejaVuSans def
/PaintType 0 def
/FontMatrix[.001 0 0 .001 0 0]def
/FontBBox[-1021 -463 1793 1232]def
/FontType 3 def
/Encoding [ /space /comma /period /zero /one /two /three /four /five /six /eight /equal /m /epsilon ] def
/FontInfo 10 dict dup begin
/FamilyName (DejaVu Sans) def
/FullName (DejaVu Sans) def
/Notice (Copyright (c) 2003 by Bitstream, Inc. All Rights Reserved. Copyright (c) 2006 by Tavmjong Bah. All Rights Reserved. DejaVu changes are in public domain ) def
/Weight (Book) def
/Version (Version 2.35) def
/ItalicAngle 0.0 def
/isFixedPitch false def
/UnderlinePosition -130 def
/UnderlineThickness 90 def
end readonly def
/CharStrings 15 dict dup begin
/.notdef 0 def
/space{318 0 0 0 0 0 _sc
}_d
/comma{318 0 77 -115 220 124 _sc
117 124 _m
220 124 _l
220 40 _l
140 -115 _l
77 -115 _l
117 40 _l
117 124 _l
_cl}_d
/period{318 0 107 0 210 124 _sc
107 124 _m
210 124 _l
210 0 _l
107 0 _l
107 124 _l
_cl}_d
/zero{636 0 66 -13 570 742 _sc
318 664 _m
267 664 229 639 203 589 _c
177 539 165 464 165 364 _c
165 264 177 189 203 139 _c
229 89 267 64 318 64 _c
369 64 407 89 433 139 _c
458 189 471 264 471 364 _c
471 464 458 539 433 589 _c
407 639 369 664 318 664 _c
318 742 _m
399 742 461 709 505 645 _c
548 580 570 486 570 364 _c
570 241 548 147 505 83 _c
461 19 399 -13 318 -13 _c
236 -13 173 19 130 83 _c
87 147 66 241 66 364 _c
66 486 87 580 130 645 _c
173 709 236 742 318 742 _c
_cl}_d
/one{636 0 110 0 544 729 _sc
124 83 _m
285 83 _l
285 639 _l
110 604 _l
110 694 _l
284 729 _l
383 729 _l
383 83 _l
544 83 _l
544 0 _l
124 0 _l
124 83 _l
_cl}_d
/two{{636 0 73 0 536 742 _sc
192 83 _m
536 83 _l
536 0 _l
73 0 _l
73 83 _l
110 121 161 173 226 239 _c
290 304 331 346 348 365 _c
380 400 402 430 414 455 _c
426 479 433 504 433 528 _c
433 566 419 598 392 622 _c
365 646 330 659 286 659 _c
255 659 222 653 188 643 _c
154 632 117 616 78 594 _c
78 694 _l
118 710 155 722 189 730 _c
223 738 255 742 284 742 _c
}_e{359 742 419 723 464 685 _c
509 647 532 597 532 534 _c
532 504 526 475 515 449 _c
504 422 484 390 454 354 _c
446 344 420 317 376 272 _c
332 227 271 164 192 83 _c
_cl}_e}_d
/three{{636 0 76 -13 556 742 _sc
406 393 _m
453 383 490 362 516 330 _c
542 298 556 258 556 212 _c
556 140 531 84 482 45 _c
432 6 362 -13 271 -13 _c
240 -13 208 -10 176 -4 _c
144 1 110 10 76 22 _c
76 117 _l
103 101 133 89 166 81 _c
198 73 232 69 268 69 _c
330 69 377 81 409 105 _c
441 129 458 165 458 212 _c
458 254 443 288 413 312 _c
383 336 341 349 287 349 _c
}_e{202 349 _l
202 430 _l
291 430 _l
339 430 376 439 402 459 _c
428 478 441 506 441 543 _c
441 580 427 609 401 629 _c
374 649 336 659 287 659 _c
260 659 231 656 200 650 _c
169 644 135 635 98 623 _c
98 711 _l
135 721 170 729 203 734 _c
235 739 266 742 296 742 _c
370 742 429 725 473 691 _c
517 657 539 611 539 553 _c
539 513 527 479 504 451 _c
481 423 448 403 406 393 _c
_cl}_e}_d
/four{636 0 49 0 580 729 _sc
378 643 _m
129 254 _l
378 254 _l
378 643 _l
352 729 _m
476 729 _l
476 254 _l
580 254 _l
580 172 _l
476 172 _l
476 0 _l
378 0 _l
378 172 _l
49 172 _l
49 267 _l
352 729 _l
_cl}_d
/five{{636 0 77 -13 549 729 _sc
108 729 _m
495 729 _l
495 646 _l
198 646 _l
198 467 _l
212 472 227 476 241 478 _c
255 480 270 482 284 482 _c
365 482 429 459 477 415 _c
525 370 549 310 549 234 _c
549 155 524 94 475 51 _c
426 8 357 -13 269 -13 _c
238 -13 207 -10 175 -6 _c
143 -1 111 6 77 17 _c
77 116 _l
106 100 136 88 168 80 _c
199 72 232 69 267 69 _c
}_e{323 69 368 83 401 113 _c
433 143 450 183 450 234 _c
450 284 433 324 401 354 _c
368 384 323 399 267 399 _c
241 399 214 396 188 390 _c
162 384 135 375 108 363 _c
108 729 _l
_cl}_e}_d
/six{{636 0 70 -13 573 742 _sc
330 404 _m
286 404 251 388 225 358 _c
199 328 186 286 186 234 _c
186 181 199 139 225 109 _c
251 79 286 64 330 64 _c
374 64 409 79 435 109 _c
461 139 474 181 474 234 _c
474 286 461 328 435 358 _c
409 388 374 404 330 404 _c
526 713 _m
526 623 _l
501 635 476 644 451 650 _c
425 656 400 659 376 659 _c
310 659 260 637 226 593 _c
}_e{192 549 172 482 168 394 _c
187 422 211 444 240 459 _c
269 474 301 482 336 482 _c
409 482 467 459 509 415 _c
551 371 573 310 573 234 _c
573 159 550 99 506 54 _c
462 9 403 -13 330 -13 _c
246 -13 181 19 137 83 _c
92 147 70 241 70 364 _c
70 479 97 571 152 639 _c
206 707 280 742 372 742 _c
396 742 421 739 447 735 _c
472 730 498 723 526 713 _c
_cl}_e}_d
/eight{{636 0 68 -13 568 742 _sc
318 346 _m
271 346 234 333 207 308 _c
180 283 167 249 167 205 _c
167 161 180 126 207 101 _c
234 76 271 64 318 64 _c
364 64 401 76 428 102 _c
455 127 469 161 469 205 _c
469 249 455 283 429 308 _c
402 333 365 346 318 346 _c
219 388 _m
177 398 144 418 120 447 _c
96 476 85 511 85 553 _c
85 611 105 657 147 691 _c
188 725 245 742 318 742 _c
}_e{390 742 447 725 489 691 _c
530 657 551 611 551 553 _c
551 511 539 476 515 447 _c
491 418 459 398 417 388 _c
464 377 501 355 528 323 _c
554 291 568 251 568 205 _c
568 134 546 80 503 43 _c
459 5 398 -13 318 -13 _c
237 -13 175 5 132 43 _c
89 80 68 134 68 205 _c
68 251 81 291 108 323 _c
134 355 171 377 219 388 _c
183 544 _m
183 506 194 476 218 455 _c
}_e{242 434 275 424 318 424 _c
360 424 393 434 417 455 _c
441 476 453 506 453 544 _c
453 582 441 611 417 632 _c
393 653 360 664 318 664 _c
275 664 242 653 218 632 _c
194 611 183 582 183 544 _c
_cl}_e}_d
/equal{838 0 106 172 732 454 _sc
106 454 _m
732 454 _l
732 372 _l
106 372 _l
106 454 _l
106 255 _m
732 255 _l
732 172 _l
106 172 _l
106 255 _l
_cl}_d
/m{{974 0 91 0 889 560 _sc
520 442 _m
542 482 569 511 600 531 _c
631 550 668 560 711 560 _c
767 560 811 540 842 500 _c
873 460 889 403 889 330 _c
889 0 _l
799 0 _l
799 327 _l
799 379 789 418 771 444 _c
752 469 724 482 686 482 _c
639 482 602 466 575 435 _c
548 404 535 362 535 309 _c
535 0 _l
445 0 _l
445 327 _l
445 379 435 418 417 444 _c
398 469 369 482 331 482 _c
}_e{285 482 248 466 221 435 _c
194 404 181 362 181 309 _c
181 0 _l
91 0 _l
91 547 _l
181 547 _l
181 462 _l
201 495 226 520 255 536 _c
283 552 317 560 357 560 _c
397 560 430 550 458 530 _c
486 510 506 480 520 442 _c
_cl}_e}_d
/epsilon{{541 0 65 -13 473 561 _sc
193 295 _m
156 303 128 317 109 338 _c
89 359 80 385 80 415 _c
80 461 98 496 135 522 _c
171 548 222 561 286 561 _c
310 561 336 559 364 555 _c
392 551 422 545 454 537 _c
454 456 _l
422 465 394 472 368 476 _c
341 480 316 482 293 482 _c
254 482 224 474 202 460 _c
178 445 167 427 167 406 _c
167 383 178 364 201 350 _c
222 336 252 329 290 329 _c
}_e{366 329 _l
366 254 _l
293 254 _l
249 254 215 245 191 229 _c
165 211 153 187 153 159 _c
153 129 166 106 194 88 _c
222 70 260 61 310 61 _c
340 61 368 63 396 69 _c
424 75 449 85 473 97 _c
473 13 _l
443 4 415 -2 388 -6 _c
360 -10 333 -13 307 -13 _c
229 -13 170 1 128 30 _c
86 60 65 103 65 159 _c
65 194 76 223 98 247 _c
120 271 152 287 193 295 _c
_cl}_e}_d
end readonly def

/BuildGlyph
 {exch begin
 CharStrings exch
 2 copy known not{pop /.notdef}if
 true 3 1 roll get exec
 end}_d

/BuildChar {
 1 index /Encoding get exch get
 1 index /BuildGlyph get exec
}_d

FontName currentdict end definefont pop
end
%%EndProlog
mpldict begin
550.858 68.861 translate
90 rotate
654.278 489.717 0 0 clipbox
gsave
0 0 m
654.278125 0 l
654.278125 489.716875 l
0 489.716875 l
cl
1.000 setgray
fill
grestore
gsave
33.278125 265.791875 m
213.807537 265.791875 l
213.807537 467.391875 l
33.278125 467.391875 l
cl
1.000 setgray
fill
grestore
gsave
180.5 201.6 33.28 265.8 clipbox
41.484007 265.791875 m
46.612684 265.791875 l
46.612684 305.640932 l
41.484007 305.640932 l
cl
0.122 0.467 0.706 setrgbcolor
fill
grestore
gsave
180.5 201.6 33.28 265.8 clipbox
46.612684 265.791875 m
51.74136 265.791875 l
51.74136 420.357913 l
46.612684 420.357913 l
cl
0.122 0.467 0.706 setrgbcolor
fill
grestore
gsave
180.5 201.6 33.28 265.8 clipbox
51.74136 265.791875 m
56.870037 265.791875 l
56.870037 374.47112 l
51.74136 374.47112 l
cl
0.122 0.467 0.706 setrgbcolor
fill
grestore
gsave
180.5 201.6 33.28 265.8 clipbox
56.870037 265.791875 m
61.998713 265.791875 l
61.998713 309.263573 l
56.870037 309.263573 l
cl
0.122 0.467 0.706 setrgbcolor
fill
grestore
gsave
180.5 201.6 33.28 265.8 clipbox
61.998713 265.791875 m
67.12739 265.791875 l
67.12739 415.527724 l
61.998713 415.527724 l
cl
0.122 0.467 0.706 setrgbcolor
fill
grestore
gsave
180.5 201.6 33.28 265.8 clipbox
67.12739 265.791875 m
72.256066 265.791875 l
72.256066 346.697535 l
67.12739 346.697535 l
cl
0.122 0.467 0.706 setrgbcolor
fill
grestore
gsave
180.5 201.6 33.28 265.8 clipbox
72.256066 265.791875 m
77.384743 265.791875 l
77.384743 358.773007 l
72.256066 358.773007 l
cl
0.122 0.467 0.706 setrgbcolor
fill
grestore
gsave
180.5 201.6 33.28 265.8 clipbox
77.384743 265.791875 m
82.513419 265.791875 l
82.513419 330.999422 l
77.384743 330.999422 l
cl
0.122 0.467 0.706 setrgbcolor
fill
grestore
gsave
180.5 201.6 33.28 265.8 clipbox
82.513419 265.791875 m
87.642096 265.791875 l
87.642096 411.905083 l
82.513419 411.905083 l
cl
0.122 0.467 0.706 setrgbcolor
fill
grestore
gsave
180.5 201.6 33.28 265.8 clipbox
87.642096 265.791875 m
92.770772 265.791875 l
92.770772 349.11263 l
87.642096 349.11263 l
cl
0.122 0.467 0.706 setrgbcolor
fill
grestore
gsave
180.5 201.6 33.28 265.8 clipbox
92.770772 265.791875 m
97.899449 265.791875 l
97.899449 299.603196 l
92.770772 299.603196 l
cl
0.122 0.467 0.706 setrgbcolor
fill
grestore
gsave
180.5 201.6 33.28 265.8 clipbox
97.899449 265.791875 m
103.028125 265.791875 l
103.028125 426.395649 l
97.899449 426.395649 l
cl
0.122 0.467 0.706 setrgbcolor
fill
grestore
gsave
180.5 201.6 33.28 265.8 clipbox
103.028125 265.791875 m
108.156801 265.791875 l
108.156801 292.357913 l
103.028125 292.357913 l
cl
0.122 0.467 0.706 setrgbcolor
fill
grestore
gsave
180.5 201.6 33.28 265.8 clipbox
108.156801 265.791875 m
113.285478 265.791875 l
113.285478 396.206969 l
108.156801 396.206969 l
cl
0.122 0.467 0.706 setrgbcolor
fill
grestore
gsave
180.5 201.6 33.28 265.8 clipbox
113.285478 265.791875 m
118.414154 265.791875 l
118.414154 375.678667 l
113.285478 375.678667 l
cl
0.122 0.467 0.706 setrgbcolor
fill
grestore
gsave
180.5 201.6 33.28 265.8 clipbox
118.414154 265.791875 m
123.542831 265.791875 l
123.542831 359.980554 l
118.414154 359.980554 l
cl
0.122 0.467 0.706 setrgbcolor
fill
grestore
gsave
180.5 201.6 33.28 265.8 clipbox
123.542831 265.791875 m
128.671507 265.791875 l
128.671507 373.263573 l
123.542831 373.263573 l
cl
0.122 0.467 0.706 setrgbcolor
fill
grestore
gsave
180.5 201.6 33.28 265.8 clipbox
128.671507 265.791875 m
133.800184 265.791875 l
133.800184 315.301309 l
128.671507 315.301309 l
cl
0.122 0.467 0.706 setrgbcolor
fill
grestore
gsave
180.5 201.6 33.28 265.8 clipbox
133.800184 265.791875 m
138.92886 265.791875 l
138.92886 352.735271 l
133.800184 352.735271 l
cl
0.122 0.467 0.706 setrgbcolor
fill
grestore
gsave
180.5 201.6 33.28 265.8 clipbox
138.92886 265.791875 m
144.057537 265.791875 l
144.057537 457.791875 l
138.92886 457.791875 l
cl
0.122 0.467 0.706 setrgbcolor
fill
grestore
gsave
180.5 201.6 33.28 265.8 clipbox
144.057537 265.791875 m
149.186213 265.791875 l
149.186213 324.961686 l
144.057537 324.961686 l
cl
0.122 0.467 0.706 setrgbcolor
fill
grestore
gsave
180.5 201.6 33.28 265.8 clipbox
149.186213 265.791875 m
154.31489 265.791875 l
154.31489 386.546592 l
149.186213 386.546592 l
cl
0.122 0.467 0.706 setrgbcolor
fill
grestore
gsave
180.5 201.6 33.28 265.8 clipbox
154.31489 265.791875 m
159.443566 265.791875 l
159.443566 328.584328 l
154.31489 328.584328 l
cl
0.122 0.467 0.706 setrgbcolor
fill
grestore
gsave
180.5 201.6 33.28 265.8 clipbox
159.443566 265.791875 m
164.572243 265.791875 l
164.572243 324.961686 l
159.443566 324.961686 l
cl
0.122 0.467 0.706 setrgbcolor
fill
grestore
gsave
180.5 201.6 33.28 265.8 clipbox
164.572243 265.791875 m
169.700919 265.791875 l
169.700919 368.433384 l
164.572243 368.433384 l
cl
0.122 0.467 0.706 setrgbcolor
fill
grestore
gsave
180.5 201.6 33.28 265.8 clipbox
169.700919 265.791875 m
174.829596 265.791875 l
174.829596 372.056026 l
169.700919 372.056026 l
cl
0.122 0.467 0.706 setrgbcolor
fill
grestore
gsave
180.5 201.6 33.28 265.8 clipbox
174.829596 265.791875 m
179.958272 265.791875 l
179.958272 330.999422 l
174.829596 330.999422 l
cl
0.122 0.467 0.706 setrgbcolor
fill
grestore
gsave
180.5 201.6 33.28 265.8 clipbox
179.958272 265.791875 m
185.086949 265.791875 l
185.086949 384.131498 l
179.958272 384.131498 l
cl
0.122 0.467 0.706 setrgbcolor
fill
grestore
gsave
180.5 201.6 33.28 265.8 clipbox
185.086949 265.791875 m
190.215625 265.791875 l
190.215625 369.640932 l
185.086949 369.640932 l
cl
0.122 0.467 0.706 setrgbcolor
fill
grestore
gsave
180.5 201.6 33.28 265.8 clipbox
190.215625 265.791875 m
195.344301 265.791875 l
195.344301 349.11263 l
190.215625 349.11263 l
cl
0.122 0.467 0.706 setrgbcolor
fill
grestore
gsave
180.5 201.6 33.28 265.8 clipbox
195.344301 265.791875 m
200.472978 265.791875 l
200.472978 419.150366 l
195.344301 419.150366 l
cl
0.122 0.467 0.706 setrgbcolor
fill
grestore
gsave
180.5 201.6 33.28 265.8 clipbox
200.472978 265.791875 m
205.601654 265.791875 l
205.601654 293.56546 l
200.472978 293.56546 l
cl
0.122 0.467 0.706 setrgbcolor
fill
grestore
0.800 setlinewidth
1 setlinejoin
0 setlinecap
[] 0 setdash
0.000 setgray
gsave
/o {
gsave
newpath
translate
0.8 setlinewidth
1 setlinejoin
0 setlinecap
0 0 m
0 -3.5 l

gsave
0.000 setgray
fill
grestore
stroke
grestore
} bind def
41.484 265.792 o
grestore
/DejaVuSans findfont
10.000 scalefont
setfont
gsave
38.304320 251.198125 translate
0.000000 rotate
0.000000 0 m /zero glyphshow
grestore
gsave
/o {
gsave
newpath
translate
0.8 setlinewidth
1 setlinejoin
0 setlinecap
0 0 m
0 -3.5 l

gsave
0.000 setgray
fill
grestore
stroke
grestore
} bind def
73.5382 265.792 o
grestore
gsave
67.178860 251.198125 translate
0.000000 rotate
0.000000 0 m /five glyphshow
6.362305 0 m /zero glyphshow
grestore
gsave
/o {
gsave
newpath
translate
0.8 setlinewidth
1 setlinejoin
0 setlinecap
0 0 m
0 -3.5 l

gsave
0.000 setgray
fill
grestore
stroke
grestore
} bind def
105.592 265.792 o
grestore
gsave
96.053401 251.198125 translate
0.000000 rotate
0.000000 0 m /one glyphshow
6.362305 0 m /zero glyphshow
12.724609 0 m /zero glyphshow
grestore
gsave
/o {
gsave
newpath
translate
0.8 setlinewidth
1 setlinejoin
0 setlinecap
0 0 m
0 -3.5 l

gsave
0.000 setgray
fill
grestore
stroke
grestore
} bind def
137.647 265.792 o
grestore
gsave
128.107629 251.198125 translate
0.000000 rotate
0.000000 0 m /one glyphshow
6.362305 0 m /five glyphshow
12.724609 0 m /zero glyphshow
grestore
gsave
/o {
gsave
newpath
translate
0.8 setlinewidth
1 setlinejoin
0 setlinecap
0 0 m
0 -3.5 l

gsave
0.000 setgray
fill
grestore
stroke
grestore
} bind def
169.701 265.792 o
grestore
gsave
160.161857 251.198125 translate
0.000000 rotate
0.000000 0 m /two glyphshow
6.362305 0 m /zero glyphshow
12.724609 0 m /zero glyphshow
grestore
gsave
/o {
gsave
newpath
translate
0.8 setlinewidth
1 setlinejoin
0 setlinecap
0 0 m
0 -3.5 l

gsave
0.000 setgray
fill
grestore
stroke
grestore
} bind def
201.755 265.792 o
grestore
gsave
192.216085 251.198125 translate
0.000000 rotate
0.000000 0 m /two glyphshow
6.362305 0 m /five glyphshow
12.724609 0 m /zero glyphshow
grestore
gsave
/o {
gsave
newpath
translate
0.8 setlinewidth
1 setlinejoin
0 setlinecap
0 0 m
-3.5 0 l

gsave
0.000 setgray
fill
grestore
stroke
grestore
} bind def
33.2781 265.792 o
grestore
gsave
19.918750 261.995000 translate
0.000000 rotate
0.000000 0 m /zero glyphshow
grestore
gsave
/o {
gsave
newpath
translate
0.8 setlinewidth
1 setlinejoin
0 setlinecap
0 0 m
-3.5 0 l

gsave
0.000 setgray
fill
grestore
stroke
grestore
} bind def
33.2781 289.943 o
grestore
gsave
13.559375 286.145943 translate
0.000000 rotate
0.000000 0 m /two glyphshow
6.362305 0 m /zero glyphshow
grestore
gsave
/o {
gsave
newpath
translate
0.8 setlinewidth
1 setlinejoin
0 setlinecap
0 0 m
-3.5 0 l

gsave
0.000 setgray
fill
grestore
stroke
grestore
} bind def
33.2781 314.094 o
grestore
gsave
13.559375 310.296887 translate
0.000000 rotate
0.000000 0 m /four glyphshow
6.362305 0 m /zero glyphshow
grestore
gsave
/o {
gsave
newpath
translate
0.8 setlinewidth
1 setlinejoin
0 setlinecap
0 0 m
-3.5 0 l

gsave
0.000 setgray
fill
grestore
stroke
grestore
} bind def
33.2781 338.245 o
grestore
gsave
13.559375 334.447830 translate
0.000000 rotate
0.000000 0 m /six glyphshow
6.362305 0 m /zero glyphshow
grestore
gsave
/o {
gsave
newpath
translate
0.8 setlinewidth
1 setlinejoin
0 setlinecap
0 0 m
-3.5 0 l

gsave
0.000 setgray
fill
grestore
stroke
grestore
} bind def
33.2781 362.396 o
grestore
gsave
13.559375 358.598774 translate
0.000000 rotate
0.000000 0 m /eight glyphshow
6.362305 0 m /zero glyphshow
grestore
gsave
/o {
gsave
newpath
translate
0.8 setlinewidth
1 setlinejoin
0 setlinecap
0 0 m
-3.5 0 l

gsave
0.000 setgray
fill
grestore
stroke
grestore
} bind def
33.2781 386.547 o
grestore
gsave
7.200000 382.749717 translate
0.000000 rotate
0.000000 0 m /one glyphshow
6.362305 0 m /zero glyphshow
12.724609 0 m /zero glyphshow
grestore
gsave
/o {
gsave
newpath
translate
0.8 setlinewidth
1 setlinejoin
0 setlinecap
0 0 m
-3.5 0 l

gsave
0.000 setgray
fill
grestore
stroke
grestore
} bind def
33.2781 410.698 o
grestore
gsave
7.200000 406.900660 translate
0.000000 rotate
0.000000 0 m /one glyphshow
6.362305 0 m /two glyphshow
12.724609 0 m /zero glyphshow
grestore
gsave
/o {
gsave
newpath
translate
0.8 setlinewidth
1 setlinejoin
0 setlinecap
0 0 m
-3.5 0 l

gsave
0.000 setgray
fill
grestore
stroke
grestore
} bind def
33.2781 434.848 o
grestore
gsave
7.200000 431.051604 translate
0.000000 rotate
0.000000 0 m /one glyphshow
6.362305 0 m /four glyphshow
12.724609 0 m /zero glyphshow
grestore
gsave
/o {
gsave
newpath
translate
0.8 setlinewidth
1 setlinejoin
0 setlinecap
0 0 m
-3.5 0 l

gsave
0.000 setgray
fill
grestore
stroke
grestore
} bind def
33.2781 458.999 o
grestore
gsave
7.200000 455.202547 translate
0.000000 rotate
0.000000 0 m /one glyphshow
6.362305 0 m /six glyphshow
12.724609 0 m /zero glyphshow
grestore
0 setlinejoin
2 setlinecap
[] 0 setdash
gsave
33.278125 265.791875 m
33.278125 467.391875 l
stroke
grestore
gsave
213.807537 265.791875 m
213.807537 467.391875 l
stroke
grestore
gsave
33.278125 265.791875 m
213.807537 265.791875 l
stroke
grestore
gsave
33.278125 467.391875 m
213.807537 467.391875 l
stroke
grestore
/DejaVuSans findfont
12.000 scalefont
setfont
gsave
75.769393 473.391875 translate
0.000000 rotate
0.000000 0 m /m glyphshow
11.689453 0 m /space glyphshow
15.503906 0 m /equal glyphshow
25.558594 0 m /space glyphshow
29.373047 0 m /zero glyphshow
37.007812 0 m /period glyphshow
40.822266 0 m /three glyphshow
48.457031 0 m /comma glyphshow
52.271484 0 m /space glyphshow
56.085938 0 m /epsilon glyphshow
62.572266 0 m /space glyphshow
66.386719 0 m /equal glyphshow
76.441406 0 m /space glyphshow
80.255859 0 m /one glyphshow
87.890625 0 m /zero glyphshow
grestore
gsave
249.913419 265.791875 m
430.442831 265.791875 l
430.442831 467.391875 l
249.913419 467.391875 l
cl
1.000 setgray
fill
grestore
gsave
180.5 201.6 249.9 265.8 clipbox
258.119301 265.791875 m
263.247978 265.791875 l
263.247978 265.791875 l
258.119301 265.791875 l
cl
0.122 0.467 0.706 setrgbcolor
fill
grestore
gsave
180.5 201.6 249.9 265.8 clipbox
263.247978 265.791875 m
268.376654 265.791875 l
268.376654 265.791875 l
263.247978 265.791875 l
cl
0.122 0.467 0.706 setrgbcolor
fill
grestore
gsave
180.5 201.6 249.9 265.8 clipbox
268.376654 265.791875 m
273.505331 265.791875 l
273.505331 265.791875 l
268.376654 265.791875 l
cl
0.122 0.467 0.706 setrgbcolor
fill
grestore
gsave
180.5 201.6 249.9 265.8 clipbox
273.505331 265.791875 m
278.634007 265.791875 l
278.634007 265.791875 l
273.505331 265.791875 l
cl
0.122 0.467 0.706 setrgbcolor
fill
grestore
gsave
180.5 201.6 249.9 265.8 clipbox
278.634007 265.791875 m
283.762684 265.791875 l
283.762684 265.791875 l
278.634007 265.791875 l
cl
0.122 0.467 0.706 setrgbcolor
fill
grestore
gsave
180.5 201.6 249.9 265.8 clipbox
283.762684 265.791875 m
288.89136 265.791875 l
288.89136 265.791875 l
283.762684 265.791875 l
cl
0.122 0.467 0.706 setrgbcolor
fill
grestore
gsave
180.5 201.6 249.9 265.8 clipbox
288.89136 265.791875 m
294.020037 265.791875 l
294.020037 265.791875 l
288.89136 265.791875 l
cl
0.122 0.467 0.706 setrgbcolor
fill
grestore
gsave
180.5 201.6 249.9 265.8 clipbox
294.020037 265.791875 m
299.148713 265.791875 l
299.148713 265.791875 l
294.020037 265.791875 l
cl
0.122 0.467 0.706 setrgbcolor
fill
grestore
gsave
180.5 201.6 249.9 265.8 clipbox
299.148713 265.791875 m
304.27739 265.791875 l
304.27739 457.791875 l
299.148713 457.791875 l
cl
0.122 0.467 0.706 setrgbcolor
fill
grestore
gsave
180.5 201.6 249.9 265.8 clipbox
304.27739 265.791875 m
309.406066 265.791875 l
309.406066 265.791875 l
304.27739 265.791875 l
cl
0.122 0.467 0.706 setrgbcolor
fill
grestore
gsave
180.5 201.6 249.9 265.8 clipbox
309.406066 265.791875 m
314.534743 265.791875 l
314.534743 265.791875 l
309.406066 265.791875 l
cl
0.122 0.467 0.706 setrgbcolor
fill
grestore
gsave
180.5 201.6 249.9 265.8 clipbox
314.534743 265.791875 m
319.663419 265.791875 l
319.663419 265.791875 l
314.534743 265.791875 l
cl
0.122 0.467 0.706 setrgbcolor
fill
grestore
gsave
180.5 201.6 249.9 265.8 clipbox
319.663419 265.791875 m
324.792096 265.791875 l
324.792096 265.791875 l
319.663419 265.791875 l
cl
0.122 0.467 0.706 setrgbcolor
fill
grestore
gsave
180.5 201.6 249.9 265.8 clipbox
324.792096 265.791875 m
329.920772 265.791875 l
329.920772 265.791875 l
324.792096 265.791875 l
cl
0.122 0.467 0.706 setrgbcolor
fill
grestore
gsave
180.5 201.6 249.9 265.8 clipbox
329.920772 265.791875 m
335.049449 265.791875 l
335.049449 266.113753 l
329.920772 266.113753 l
cl
0.122 0.467 0.706 setrgbcolor
fill
grestore
gsave
180.5 201.6 249.9 265.8 clipbox
335.049449 265.791875 m
340.178125 265.791875 l
340.178125 266.43563 l
335.049449 266.43563 l
cl
0.122 0.467 0.706 setrgbcolor
fill
grestore
gsave
180.5 201.6 249.9 265.8 clipbox
340.178125 265.791875 m
345.306801 265.791875 l
345.306801 266.274691 l
340.178125 266.274691 l
cl
0.122 0.467 0.706 setrgbcolor
fill
grestore
gsave
180.5 201.6 249.9 265.8 clipbox
345.306801 265.791875 m
350.435478 265.791875 l
350.435478 265.791875 l
345.306801 265.791875 l
cl
0.122 0.467 0.706 setrgbcolor
fill
grestore
gsave
180.5 201.6 249.9 265.8 clipbox
350.435478 265.791875 m
355.564154 265.791875 l
355.564154 265.791875 l
350.435478 265.791875 l
cl
0.122 0.467 0.706 setrgbcolor
fill
grestore
gsave
180.5 201.6 249.9 265.8 clipbox
355.564154 265.791875 m
360.692831 265.791875 l
360.692831 265.791875 l
355.564154 265.791875 l
cl
0.122 0.467 0.706 setrgbcolor
fill
grestore
gsave
180.5 201.6 249.9 265.8 clipbox
360.692831 265.791875 m
365.821507 265.791875 l
365.821507 265.791875 l
360.692831 265.791875 l
cl
0.122 0.467 0.706 setrgbcolor
fill
grestore
gsave
180.5 201.6 249.9 265.8 clipbox
365.821507 265.791875 m
370.950184 265.791875 l
370.950184 265.791875 l
365.821507 265.791875 l
cl
0.122 0.467 0.706 setrgbcolor
fill
grestore
gsave
180.5 201.6 249.9 265.8 clipbox
370.950184 265.791875 m
376.07886 265.791875 l
376.07886 331.776787 l
370.950184 331.776787 l
cl
0.122 0.467 0.706 setrgbcolor
fill
grestore
gsave
180.5 201.6 249.9 265.8 clipbox
376.07886 265.791875 m
381.207537 265.791875 l
381.207537 408.705538 l
376.07886 408.705538 l
cl
0.122 0.467 0.706 setrgbcolor
fill
grestore
gsave
180.5 201.6 249.9 265.8 clipbox
381.207537 265.791875 m
386.336213 265.791875 l
386.336213 265.791875 l
381.207537 265.791875 l
cl
0.122 0.467 0.706 setrgbcolor
fill
grestore
gsave
180.5 201.6 249.9 265.8 clipbox
386.336213 265.791875 m
391.46489 265.791875 l
391.46489 265.791875 l
386.336213 265.791875 l
cl
0.122 0.467 0.706 setrgbcolor
fill
grestore
gsave
180.5 201.6 249.9 265.8 clipbox
391.46489 265.791875 m
396.593566 265.791875 l
396.593566 265.791875 l
391.46489 265.791875 l
cl
0.122 0.467 0.706 setrgbcolor
fill
grestore
gsave
180.5 201.6 249.9 265.8 clipbox
396.593566 265.791875 m
401.722243 265.791875 l
401.722243 265.791875 l
396.593566 265.791875 l
cl
0.122 0.467 0.706 setrgbcolor
fill
grestore
gsave
180.5 201.6 249.9 265.8 clipbox
401.722243 265.791875 m
406.850919 265.791875 l
406.850919 265.791875 l
401.722243 265.791875 l
cl
0.122 0.467 0.706 setrgbcolor
fill
grestore
gsave
180.5 201.6 249.9 265.8 clipbox
406.850919 265.791875 m
411.979596 265.791875 l
411.979596 265.791875 l
406.850919 265.791875 l
cl
0.122 0.467 0.706 setrgbcolor
fill
grestore
gsave
180.5 201.6 249.9 265.8 clipbox
411.979596 265.791875 m
417.108272 265.791875 l
417.108272 265.791875 l
411.979596 265.791875 l
cl
0.122 0.467 0.706 setrgbcolor
fill
grestore
gsave
180.5 201.6 249.9 265.8 clipbox
417.108272 265.791875 m
422.236949 265.791875 l
422.236949 265.791875 l
417.108272 265.791875 l
cl
0.122 0.467 0.706 setrgbcolor
fill
grestore
1 setlinejoin
0 setlinecap
[] 0 setdash
gsave
/o {
gsave
newpath
translate
0.8 setlinewidth
1 setlinejoin
0 setlinecap
0 0 m
0 -3.5 l

gsave
0.000 setgray
fill
grestore
stroke
grestore
} bind def
258.119 265.792 o
grestore
/DejaVuSans findfont
10.000 scalefont
setfont
gsave
254.939614 251.198125 translate
0.000000 rotate
0.000000 0 m /zero glyphshow
grestore
gsave
/o {
gsave
newpath
translate
0.8 setlinewidth
1 setlinejoin
0 setlinecap
0 0 m
0 -3.5 l

gsave
0.000 setgray
fill
grestore
stroke
grestore
} bind def
290.174 265.792 o
grestore
gsave
283.814154 251.198125 translate
0.000000 rotate
0.000000 0 m /five glyphshow
6.362305 0 m /zero glyphshow
grestore
gsave
/o {
gsave
newpath
translate
0.8 setlinewidth
1 setlinejoin
0 setlinecap
0 0 m
0 -3.5 l

gsave
0.000 setgray
fill
grestore
stroke
grestore
} bind def
322.228 265.792 o
grestore
gsave
312.688695 251.198125 translate
0.000000 rotate
0.000000 0 m /one glyphshow
6.362305 0 m /zero glyphshow
12.724609 0 m /zero glyphshow
grestore
gsave
/o {
gsave
newpath
translate
0.8 setlinewidth
1 setlinejoin
0 setlinecap
0 0 m
0 -3.5 l

gsave
0.000 setgray
fill
grestore
stroke
grestore
} bind def
354.282 265.792 o
grestore
gsave
344.742923 251.198125 translate
0.000000 rotate
0.000000 0 m /one glyphshow
6.362305 0 m /five glyphshow
12.724609 0 m /zero glyphshow
grestore
gsave
/o {
gsave
newpath
translate
0.8 setlinewidth
1 setlinejoin
0 setlinecap
0 0 m
0 -3.5 l

gsave
0.000 setgray
fill
grestore
stroke
grestore
} bind def
386.336 265.792 o
grestore
gsave
376.797151 251.198125 translate
0.000000 rotate
0.000000 0 m /two glyphshow
6.362305 0 m /zero glyphshow
12.724609 0 m /zero glyphshow
grestore
gsave
/o {
gsave
newpath
translate
0.8 setlinewidth
1 setlinejoin
0 setlinecap
0 0 m
0 -3.5 l

gsave
0.000 setgray
fill
grestore
stroke
grestore
} bind def
418.39 265.792 o
grestore
gsave
408.851379 251.198125 translate
0.000000 rotate
0.000000 0 m /two glyphshow
6.362305 0 m /five glyphshow
12.724609 0 m /zero glyphshow
grestore
gsave
/o {
gsave
newpath
translate
0.8 setlinewidth
1 setlinejoin
0 setlinecap
0 0 m
-3.5 0 l

gsave
0.000 setgray
fill
grestore
stroke
grestore
} bind def
249.913 265.792 o
grestore
gsave
236.554044 261.995000 translate
0.000000 rotate
0.000000 0 m /zero glyphshow
grestore
gsave
/o {
gsave
newpath
translate
0.8 setlinewidth
1 setlinejoin
0 setlinecap
0 0 m
-3.5 0 l

gsave
0.000 setgray
fill
grestore
stroke
grestore
} bind def
249.913 297.98 o
grestore
gsave
223.835294 294.182762 translate
0.000000 rotate
0.000000 0 m /two glyphshow
6.362305 0 m /zero glyphshow
12.724609 0 m /zero glyphshow
grestore
gsave
/o {
gsave
newpath
translate
0.8 setlinewidth
1 setlinejoin
0 setlinecap
0 0 m
-3.5 0 l

gsave
0.000 setgray
fill
grestore
stroke
grestore
} bind def
249.913 330.167 o
grestore
gsave
223.835294 326.370524 translate
0.000000 rotate
0.000000 0 m /four glyphshow
6.362305 0 m /zero glyphshow
12.724609 0 m /zero glyphshow
grestore
gsave
/o {
gsave
newpath
translate
0.8 setlinewidth
1 setlinejoin
0 setlinecap
0 0 m
-3.5 0 l

gsave
0.000 setgray
fill
grestore
stroke
grestore
} bind def
249.913 362.355 o
grestore
gsave
223.835294 358.558286 translate
0.000000 rotate
0.000000 0 m /six glyphshow
6.362305 0 m /zero glyphshow
12.724609 0 m /zero glyphshow
grestore
gsave
/o {
gsave
newpath
translate
0.8 setlinewidth
1 setlinejoin
0 setlinecap
0 0 m
-3.5 0 l

gsave
0.000 setgray
fill
grestore
stroke
grestore
} bind def
249.913 394.543 o
grestore
gsave
223.835294 390.746048 translate
0.000000 rotate
0.000000 0 m /eight glyphshow
6.362305 0 m /zero glyphshow
12.724609 0 m /zero glyphshow
grestore
gsave
/o {
gsave
newpath
translate
0.8 setlinewidth
1 setlinejoin
0 setlinecap
0 0 m
-3.5 0 l

gsave
0.000 setgray
fill
grestore
stroke
grestore
} bind def
249.913 426.731 o
grestore
gsave
217.475919 422.933810 translate
0.000000 rotate
0.000000 0 m /one glyphshow
6.362305 0 m /zero glyphshow
12.724609 0 m /zero glyphshow
19.086914 0 m /zero glyphshow
grestore
gsave
/o {
gsave
newpath
translate
0.8 setlinewidth
1 setlinejoin
0 setlinecap
0 0 m
-3.5 0 l

gsave
0.000 setgray
fill
grestore
stroke
grestore
} bind def
249.913 458.918 o
grestore
gsave
217.475919 455.121572 translate
0.000000 rotate
0.000000 0 m /one glyphshow
6.362305 0 m /two glyphshow
12.724609 0 m /zero glyphshow
19.086914 0 m /zero glyphshow
grestore
0 setlinejoin
2 setlinecap
[] 0 setdash
gsave
249.913419 265.791875 m
249.913419 467.391875 l
stroke
grestore
gsave
430.442831 265.791875 m
430.442831 467.391875 l
stroke
grestore
gsave
249.913419 265.791875 m
430.442831 265.791875 l
stroke
grestore
gsave
249.913419 467.391875 m
430.442831 467.391875 l
stroke
grestore
/DejaVuSans findfont
12.000 scalefont
setfont
gsave
292.404688 473.391875 translate
0.000000 rotate
0.000000 0 m /m glyphshow
11.689453 0 m /space glyphshow
15.503906 0 m /equal glyphshow
25.558594 0 m /space glyphshow
29.373047 0 m /zero glyphshow
37.007812 0 m /period glyphshow
40.822266 0 m /three glyphshow
48.457031 0 m /comma glyphshow
52.271484 0 m /space glyphshow
56.085938 0 m /epsilon glyphshow
62.572266 0 m /space glyphshow
66.386719 0 m /equal glyphshow
76.441406 0 m /space glyphshow
80.255859 0 m /five glyphshow
87.890625 0 m /zero glyphshow
grestore
gsave
466.548713 265.791875 m
647.078125 265.791875 l
647.078125 467.391875 l
466.548713 467.391875 l
cl
1.000 setgray
fill
grestore
gsave
180.5 201.6 466.5 265.8 clipbox
474.754596 265.791875 m
479.883272 265.791875 l
479.883272 265.791875 l
474.754596 265.791875 l
cl
0.122 0.467 0.706 setrgbcolor
fill
grestore
gsave
180.5 201.6 466.5 265.8 clipbox
479.883272 265.791875 m
485.011949 265.791875 l
485.011949 265.791875 l
479.883272 265.791875 l
cl
0.122 0.467 0.706 setrgbcolor
fill
grestore
gsave
180.5 201.6 466.5 265.8 clipbox
485.011949 265.791875 m
490.140625 265.791875 l
490.140625 265.791875 l
485.011949 265.791875 l
cl
0.122 0.467 0.706 setrgbcolor
fill
grestore
gsave
180.5 201.6 466.5 265.8 clipbox
490.140625 265.791875 m
495.269301 265.791875 l
495.269301 265.791875 l
490.140625 265.791875 l
cl
0.122 0.467 0.706 setrgbcolor
fill
grestore
gsave
180.5 201.6 466.5 265.8 clipbox
495.269301 265.791875 m
500.397978 265.791875 l
500.397978 265.791875 l
495.269301 265.791875 l
cl
0.122 0.467 0.706 setrgbcolor
fill
grestore
gsave
180.5 201.6 466.5 265.8 clipbox
500.397978 265.791875 m
505.526654 265.791875 l
505.526654 265.791875 l
500.397978 265.791875 l
cl
0.122 0.467 0.706 setrgbcolor
fill
grestore
gsave
180.5 201.6 466.5 265.8 clipbox
505.526654 265.791875 m
510.655331 265.791875 l
510.655331 265.791875 l
505.526654 265.791875 l
cl
0.122 0.467 0.706 setrgbcolor
fill
grestore
gsave
180.5 201.6 466.5 265.8 clipbox
510.655331 265.791875 m
515.784007 265.791875 l
515.784007 265.791875 l
510.655331 265.791875 l
cl
0.122 0.467 0.706 setrgbcolor
fill
grestore
gsave
180.5 201.6 466.5 265.8 clipbox
515.784007 265.791875 m
520.912684 265.791875 l
520.912684 265.791875 l
515.784007 265.791875 l
cl
0.122 0.467 0.706 setrgbcolor
fill
grestore
gsave
180.5 201.6 466.5 265.8 clipbox
520.912684 265.791875 m
526.04136 265.791875 l
526.04136 265.791875 l
520.912684 265.791875 l
cl
0.122 0.467 0.706 setrgbcolor
fill
grestore
gsave
180.5 201.6 466.5 265.8 clipbox
526.04136 265.791875 m
531.170037 265.791875 l
531.170037 265.791875 l
526.04136 265.791875 l
cl
0.122 0.467 0.706 setrgbcolor
fill
grestore
gsave
180.5 201.6 466.5 265.8 clipbox
531.170037 265.791875 m
536.298713 265.791875 l
536.298713 265.791875 l
531.170037 265.791875 l
cl
0.122 0.467 0.706 setrgbcolor
fill
grestore
gsave
180.5 201.6 466.5 265.8 clipbox
536.298713 265.791875 m
541.42739 265.791875 l
541.42739 265.791875 l
536.298713 265.791875 l
cl
0.122 0.467 0.706 setrgbcolor
fill
grestore
gsave
180.5 201.6 466.5 265.8 clipbox
541.42739 265.791875 m
546.556066 265.791875 l
546.556066 265.791875 l
541.42739 265.791875 l
cl
0.122 0.467 0.706 setrgbcolor
fill
grestore
gsave
180.5 201.6 466.5 265.8 clipbox
546.556066 265.791875 m
551.684743 265.791875 l
551.684743 265.791875 l
546.556066 265.791875 l
cl
0.122 0.467 0.706 setrgbcolor
fill
grestore
gsave
180.5 201.6 466.5 265.8 clipbox
551.684743 265.791875 m
556.813419 265.791875 l
556.813419 457.791875 l
551.684743 457.791875 l
cl
0.122 0.467 0.706 setrgbcolor
fill
grestore
gsave
180.5 201.6 466.5 265.8 clipbox
556.813419 265.791875 m
561.942096 265.791875 l
561.942096 265.791875 l
556.813419 265.791875 l
cl
0.122 0.467 0.706 setrgbcolor
fill
grestore
gsave
180.5 201.6 466.5 265.8 clipbox
561.942096 265.791875 m
567.070772 265.791875 l
567.070772 265.791875 l
561.942096 265.791875 l
cl
0.122 0.467 0.706 setrgbcolor
fill
grestore
gsave
180.5 201.6 466.5 265.8 clipbox
567.070772 265.791875 m
572.199449 265.791875 l
572.199449 265.791875 l
567.070772 265.791875 l
cl
0.122 0.467 0.706 setrgbcolor
fill
grestore
gsave
180.5 201.6 466.5 265.8 clipbox
572.199449 265.791875 m
577.328125 265.791875 l
577.328125 265.791875 l
572.199449 265.791875 l
cl
0.122 0.467 0.706 setrgbcolor
fill
grestore
gsave
180.5 201.6 466.5 265.8 clipbox
577.328125 265.791875 m
582.456801 265.791875 l
582.456801 265.791875 l
577.328125 265.791875 l
cl
0.122 0.467 0.706 setrgbcolor
fill
grestore
gsave
180.5 201.6 466.5 265.8 clipbox
582.456801 265.791875 m
587.585478 265.791875 l
587.585478 265.791875 l
582.456801 265.791875 l
cl
0.122 0.467 0.706 setrgbcolor
fill
grestore
gsave
180.5 201.6 466.5 265.8 clipbox
587.585478 265.791875 m
592.714154 265.791875 l
592.714154 265.791875 l
587.585478 265.791875 l
cl
0.122 0.467 0.706 setrgbcolor
fill
grestore
gsave
180.5 201.6 466.5 265.8 clipbox
592.714154 265.791875 m
597.842831 265.791875 l
597.842831 265.791875 l
592.714154 265.791875 l
cl
0.122 0.467 0.706 setrgbcolor
fill
grestore
gsave
180.5 201.6 466.5 265.8 clipbox
597.842831 265.791875 m
602.971507 265.791875 l
602.971507 265.791875 l
597.842831 265.791875 l
cl
0.122 0.467 0.706 setrgbcolor
fill
grestore
gsave
180.5 201.6 466.5 265.8 clipbox
602.971507 265.791875 m
608.100184 265.791875 l
608.100184 265.791875 l
602.971507 265.791875 l
cl
0.122 0.467 0.706 setrgbcolor
fill
grestore
gsave
180.5 201.6 466.5 265.8 clipbox
608.100184 265.791875 m
613.22886 265.791875 l
613.22886 265.791875 l
608.100184 265.791875 l
cl
0.122 0.467 0.706 setrgbcolor
fill
grestore
gsave
180.5 201.6 466.5 265.8 clipbox
613.22886 265.791875 m
618.357537 265.791875 l
618.357537 265.791875 l
613.22886 265.791875 l
cl
0.122 0.467 0.706 setrgbcolor
fill
grestore
gsave
180.5 201.6 466.5 265.8 clipbox
618.357537 265.791875 m
623.486213 265.791875 l
623.486213 265.791875 l
618.357537 265.791875 l
cl
0.122 0.467 0.706 setrgbcolor
fill
grestore
gsave
180.5 201.6 466.5 265.8 clipbox
623.486213 265.791875 m
628.61489 265.791875 l
628.61489 265.791875 l
623.486213 265.791875 l
cl
0.122 0.467 0.706 setrgbcolor
fill
grestore
gsave
180.5 201.6 466.5 265.8 clipbox
628.61489 265.791875 m
633.743566 265.791875 l
633.743566 265.791875 l
628.61489 265.791875 l
cl
0.122 0.467 0.706 setrgbcolor
fill
grestore
gsave
180.5 201.6 466.5 265.8 clipbox
633.743566 265.791875 m
638.872243 265.791875 l
638.872243 265.791875 l
633.743566 265.791875 l
cl
0.122 0.467 0.706 setrgbcolor
fill
grestore
1 setlinejoin
0 setlinecap
[] 0 setdash
gsave
/o {
gsave
newpath
translate
0.8 setlinewidth
1 setlinejoin
0 setlinecap
0 0 m
0 -3.5 l

gsave
0.000 setgray
fill
grestore
stroke
grestore
} bind def
474.755 265.792 o
grestore
/DejaVuSans findfont
10.000 scalefont
setfont
gsave
471.574908 251.198125 translate
0.000000 rotate
0.000000 0 m /zero glyphshow
grestore
gsave
/o {
gsave
newpath
translate
0.8 setlinewidth
1 setlinejoin
0 setlinecap
0 0 m
0 -3.5 l

gsave
0.000 setgray
fill
grestore
stroke
grestore
} bind def
506.809 265.792 o
grestore
gsave
500.449449 251.198125 translate
0.000000 rotate
0.000000 0 m /five glyphshow
6.362305 0 m /zero glyphshow
grestore
gsave
/o {
gsave
newpath
translate
0.8 setlinewidth
1 setlinejoin
0 setlinecap
0 0 m
0 -3.5 l

gsave
0.000 setgray
fill
grestore
stroke
grestore
} bind def
538.863 265.792 o
grestore
gsave
529.323989 251.198125 translate
0.000000 rotate
0.000000 0 m /one glyphshow
6.362305 0 m /zero glyphshow
12.724609 0 m /zero glyphshow
grestore
gsave
/o {
gsave
newpath
translate
0.8 setlinewidth
1 setlinejoin
0 setlinecap
0 0 m
0 -3.5 l

gsave
0.000 setgray
fill
grestore
stroke
grestore
} bind def
570.917 265.792 o
grestore
gsave
561.378217 251.198125 translate
0.000000 rotate
0.000000 0 m /one glyphshow
6.362305 0 m /five glyphshow
12.724609 0 m /zero glyphshow
grestore
gsave
/o {
gsave
newpath
translate
0.8 setlinewidth
1 setlinejoin
0 setlinecap
0 0 m
0 -3.5 l

gsave
0.000 setgray
fill
grestore
stroke
grestore
} bind def
602.972 265.792 o
grestore
gsave
593.432445 251.198125 translate
0.000000 rotate
0.000000 0 m /two glyphshow
6.362305 0 m /zero glyphshow
12.724609 0 m /zero glyphshow
grestore
gsave
/o {
gsave
newpath
translate
0.8 setlinewidth
1 setlinejoin
0 setlinecap
0 0 m
0 -3.5 l

gsave
0.000 setgray
fill
grestore
stroke
grestore
} bind def
635.026 265.792 o
grestore
gsave
625.486673 251.198125 translate
0.000000 rotate
0.000000 0 m /two glyphshow
6.362305 0 m /five glyphshow
12.724609 0 m /zero glyphshow
grestore
gsave
/o {
gsave
newpath
translate
0.8 setlinewidth
1 setlinejoin
0 setlinecap
0 0 m
-3.5 0 l

gsave
0.000 setgray
fill
grestore
stroke
grestore
} bind def
466.549 265.792 o
grestore
gsave
453.189338 261.995000 translate
0.000000 rotate
0.000000 0 m /zero glyphshow
grestore
gsave
/o {
gsave
newpath
translate
0.8 setlinewidth
1 setlinejoin
0 setlinecap
0 0 m
-3.5 0 l

gsave
0.000 setgray
fill
grestore
stroke
grestore
} bind def
466.549 304.192 o
grestore
gsave
440.470588 300.395000 translate
0.000000 rotate
0.000000 0 m /five glyphshow
6.362305 0 m /zero glyphshow
12.724609 0 m /zero glyphshow
grestore
gsave
/o {
gsave
newpath
translate
0.8 setlinewidth
1 setlinejoin
0 setlinecap
0 0 m
-3.5 0 l

gsave
0.000 setgray
fill
grestore
stroke
grestore
} bind def
466.549 342.592 o
grestore
gsave
434.111213 338.795000 translate
0.000000 rotate
0.000000 0 m /one glyphshow
6.362305 0 m /zero glyphshow
12.724609 0 m /zero glyphshow
19.086914 0 m /zero glyphshow
grestore
gsave
/o {
gsave
newpath
translate
0.8 setlinewidth
1 setlinejoin
0 setlinecap
0 0 m
-3.5 0 l

gsave
0.000 setgray
fill
grestore
stroke
grestore
} bind def
466.549 380.992 o
grestore
gsave
434.111213 377.195000 translate
0.000000 rotate
0.000000 0 m /one glyphshow
6.362305 0 m /five glyphshow
12.724609 0 m /zero glyphshow
19.086914 0 m /zero glyphshow
grestore
gsave
/o {
gsave
newpath
translate
0.8 setlinewidth
1 setlinejoin
0 setlinecap
0 0 m
-3.5 0 l

gsave
0.000 setgray
fill
grestore
stroke
grestore
} bind def
466.549 419.392 o
grestore
gsave
434.111213 415.595000 translate
0.000000 rotate
0.000000 0 m /two glyphshow
6.362305 0 m /zero glyphshow
12.724609 0 m /zero glyphshow
19.086914 0 m /zero glyphshow
grestore
gsave
/o {
gsave
newpath
translate
0.8 setlinewidth
1 setlinejoin
0 setlinecap
0 0 m
-3.5 0 l

gsave
0.000 setgray
fill
grestore
stroke
grestore
} bind def
466.549 457.792 o
grestore
gsave
434.111213 453.995000 translate
0.000000 rotate
0.000000 0 m /two glyphshow
6.362305 0 m /five glyphshow
12.724609 0 m /zero glyphshow
19.086914 0 m /zero glyphshow
grestore
0 setlinejoin
2 setlinecap
[] 0 setdash
gsave
466.548713 265.791875 m
466.548713 467.391875 l
stroke
grestore
gsave
647.078125 265.791875 m
647.078125 467.391875 l
stroke
grestore
gsave
466.548713 265.791875 m
647.078125 265.791875 l
stroke
grestore
gsave
466.548713 467.391875 m
647.078125 467.391875 l
stroke
grestore
/DejaVuSans findfont
12.000 scalefont
setfont
gsave
505.219669 473.391875 translate
0.000000 rotate
0.000000 0 m /m glyphshow
11.689453 0 m /space glyphshow
15.503906 0 m /equal glyphshow
25.558594 0 m /space glyphshow
29.373047 0 m /zero glyphshow
37.007812 0 m /period glyphshow
40.822266 0 m /three glyphshow
48.457031 0 m /comma glyphshow
52.271484 0 m /space glyphshow
56.085938 0 m /epsilon glyphshow
62.572266 0 m /space glyphshow
66.386719 0 m /equal glyphshow
76.441406 0 m /space glyphshow
80.255859 0 m /one glyphshow
87.890625 0 m /zero glyphshow
95.525391 0 m /zero glyphshow
grestore
gsave
33.278125 23.871875 m
213.807537 23.871875 l
213.807537 225.471875 l
33.278125 225.471875 l
cl
1.000 setgray
fill
grestore
gsave
180.5 201.6 33.28 23.87 clipbox
41.484007 23.871875 m
46.612684 23.871875 l
46.612684 23.871875 l
41.484007 23.871875 l
cl
0.122 0.467 0.706 setrgbcolor
fill
grestore
gsave
180.5 201.6 33.28 23.87 clipbox
46.612684 23.871875 m
51.74136 23.871875 l
51.74136 215.871875 l
46.612684 215.871875 l
cl
0.122 0.467 0.706 setrgbcolor
fill
grestore
gsave
180.5 201.6 33.28 23.87 clipbox
51.74136 23.871875 m
56.870037 23.871875 l
56.870037 31.676753 l
51.74136 31.676753 l
cl
0.122 0.467 0.706 setrgbcolor
fill
grestore
gsave
180.5 201.6 33.28 23.87 clipbox
56.870037 23.871875 m
61.998713 23.871875 l
61.998713 75.38407 l
56.870037 75.38407 l
cl
0.122 0.467 0.706 setrgbcolor
fill
grestore
gsave
180.5 201.6 33.28 23.87 clipbox
61.998713 23.871875 m
67.12739 23.871875 l
67.12739 32.457241 l
61.998713 32.457241 l
cl
0.122 0.467 0.706 setrgbcolor
fill
grestore
gsave
180.5 201.6 33.28 23.87 clipbox
67.12739 23.871875 m
72.256066 23.871875 l
72.256066 201.823095 l
67.12739 201.823095 l
cl
0.122 0.467 0.706 setrgbcolor
fill
grestore
gsave
180.5 201.6 33.28 23.87 clipbox
72.256066 23.871875 m
77.384743 23.871875 l
77.384743 27.774314 l
72.256066 27.774314 l
cl
0.122 0.467 0.706 setrgbcolor
fill
grestore
gsave
180.5 201.6 33.28 23.87 clipbox
77.384743 23.871875 m
82.513419 23.871875 l
82.513419 30.896265 l
77.384743 30.896265 l
cl
0.122 0.467 0.706 setrgbcolor
fill
grestore
gsave
180.5 201.6 33.28 23.87 clipbox
82.513419 23.871875 m
87.642096 23.871875 l
87.642096 48.847485 l
82.513419 48.847485 l
cl
0.122 0.467 0.706 setrgbcolor
fill
grestore
gsave
180.5 201.6 33.28 23.87 clipbox
87.642096 23.871875 m
92.770772 23.871875 l
92.770772 201.042607 l
87.642096 201.042607 l
cl
0.122 0.467 0.706 setrgbcolor
fill
grestore
gsave
180.5 201.6 33.28 23.87 clipbox
92.770772 23.871875 m
97.899449 23.871875 l
97.899449 44.164558 l
92.770772 44.164558 l
cl
0.122 0.467 0.706 setrgbcolor
fill
grestore
gsave
180.5 201.6 33.28 23.87 clipbox
97.899449 23.871875 m
103.028125 23.871875 l
103.028125 26.213338 l
97.899449 26.213338 l
cl
0.122 0.467 0.706 setrgbcolor
fill
grestore
gsave
180.5 201.6 33.28 23.87 clipbox
103.028125 23.871875 m
108.156801 23.871875 l
108.156801 177.627973 l
103.028125 177.627973 l
cl
0.122 0.467 0.706 setrgbcolor
fill
grestore
gsave
180.5 201.6 33.28 23.87 clipbox
108.156801 23.871875 m
113.285478 23.871875 l
113.285478 24.652363 l
108.156801 24.652363 l
cl
0.122 0.467 0.706 setrgbcolor
fill
grestore
gsave
180.5 201.6 33.28 23.87 clipbox
113.285478 23.871875 m
118.414154 23.871875 l
118.414154 98.798704 l
113.285478 98.798704 l
cl
0.122 0.467 0.706 setrgbcolor
fill
grestore
gsave
180.5 201.6 33.28 23.87 clipbox
118.414154 23.871875 m
123.542831 23.871875 l
123.542831 105.823095 l
118.414154 105.823095 l
cl
0.122 0.467 0.706 setrgbcolor
fill
grestore
gsave
180.5 201.6 33.28 23.87 clipbox
123.542831 23.871875 m
128.671507 23.871875 l
128.671507 37.140168 l
123.542831 37.140168 l
cl
0.122 0.467 0.706 setrgbcolor
fill
grestore
gsave
180.5 201.6 33.28 23.87 clipbox
128.671507 23.871875 m
133.800184 23.871875 l
133.800184 143.286509 l
128.671507 143.286509 l
cl
0.122 0.467 0.706 setrgbcolor
fill
grestore
gsave
180.5 201.6 33.28 23.87 clipbox
133.800184 23.871875 m
138.92886 23.871875 l
138.92886 83.969436 l
133.800184 83.969436 l
cl
0.122 0.467 0.706 setrgbcolor
fill
grestore
gsave
180.5 201.6 33.28 23.87 clipbox
138.92886 23.871875 m
144.057537 23.871875 l
144.057537 84.749924 l
138.92886 84.749924 l
cl
0.122 0.467 0.706 setrgbcolor
fill
grestore
gsave
180.5 201.6 33.28 23.87 clipbox
144.057537 23.871875 m
149.186213 23.871875 l
149.186213 61.33529 l
144.057537 61.33529 l
cl
0.122 0.467 0.706 setrgbcolor
fill
grestore
gsave
180.5 201.6 33.28 23.87 clipbox
149.186213 23.871875 m
154.31489 23.871875 l
154.31489 32.457241 l
149.186213 32.457241 l
cl
0.122 0.467 0.706 setrgbcolor
fill
grestore
gsave
180.5 201.6 33.28 23.87 clipbox
154.31489 23.871875 m
159.443566 23.871875 l
159.443566 211.969436 l
154.31489 211.969436 l
cl
0.122 0.467 0.706 setrgbcolor
fill
grestore
gsave
180.5 201.6 33.28 23.87 clipbox
159.443566 23.871875 m
164.572243 23.871875 l
164.572243 26.993826 l
159.443566 26.993826 l
cl
0.122 0.467 0.706 setrgbcolor
fill
grestore
gsave
180.5 201.6 33.28 23.87 clipbox
164.572243 23.871875 m
169.700919 23.871875 l
169.700919 23.871875 l
164.572243 23.871875 l
cl
0.122 0.467 0.706 setrgbcolor
fill
grestore
gsave
180.5 201.6 33.28 23.87 clipbox
169.700919 23.871875 m
174.829596 23.871875 l
174.829596 191.676753 l
169.700919 191.676753 l
cl
0.122 0.467 0.706 setrgbcolor
fill
grestore
gsave
180.5 201.6 33.28 23.87 clipbox
174.829596 23.871875 m
179.958272 23.871875 l
179.958272 25.432851 l
174.829596 25.432851 l
cl
0.122 0.467 0.706 setrgbcolor
fill
grestore
gsave
180.5 201.6 33.28 23.87 clipbox
179.958272 23.871875 m
185.086949 23.871875 l
185.086949 97.237729 l
179.958272 97.237729 l
cl
0.122 0.467 0.706 setrgbcolor
fill
grestore
gsave
180.5 201.6 33.28 23.87 clipbox
185.086949 23.871875 m
190.215625 23.871875 l
190.215625 90.213338 l
185.086949 90.213338 l
cl
0.122 0.467 0.706 setrgbcolor
fill
grestore
gsave
180.5 201.6 33.28 23.87 clipbox
190.215625 23.871875 m
195.344301 23.871875 l
195.344301 23.871875 l
190.215625 23.871875 l
cl
0.122 0.467 0.706 setrgbcolor
fill
grestore
gsave
180.5 201.6 33.28 23.87 clipbox
195.344301 23.871875 m
200.472978 23.871875 l
200.472978 190.115777 l
195.344301 190.115777 l
cl
0.122 0.467 0.706 setrgbcolor
fill
grestore
gsave
180.5 201.6 33.28 23.87 clipbox
200.472978 23.871875 m
205.601654 23.871875 l
205.601654 23.871875 l
200.472978 23.871875 l
cl
0.122 0.467 0.706 setrgbcolor
fill
grestore
1 setlinejoin
0 setlinecap
[] 0 setdash
gsave
/o {
gsave
newpath
translate
0.8 setlinewidth
1 setlinejoin
0 setlinecap
0 0 m
0 -3.5 l

gsave
0.000 setgray
fill
grestore
stroke
grestore
} bind def
41.484 23.8719 o
grestore
/DejaVuSans findfont
10.000 scalefont
setfont
gsave
38.304320 9.278125 translate
0.000000 rotate
0.000000 0 m /zero glyphshow
grestore
gsave
/o {
gsave
newpath
translate
0.8 setlinewidth
1 setlinejoin
0 setlinecap
0 0 m
0 -3.5 l

gsave
0.000 setgray
fill
grestore
stroke
grestore
} bind def
73.5382 23.8719 o
grestore
gsave
67.178860 9.278125 translate
0.000000 rotate
0.000000 0 m /five glyphshow
6.362305 0 m /zero glyphshow
grestore
gsave
/o {
gsave
newpath
translate
0.8 setlinewidth
1 setlinejoin
0 setlinecap
0 0 m
0 -3.5 l

gsave
0.000 setgray
fill
grestore
stroke
grestore
} bind def
105.592 23.8719 o
grestore
gsave
96.053401 9.278125 translate
0.000000 rotate
0.000000 0 m /one glyphshow
6.362305 0 m /zero glyphshow
12.724609 0 m /zero glyphshow
grestore
gsave
/o {
gsave
newpath
translate
0.8 setlinewidth
1 setlinejoin
0 setlinecap
0 0 m
0 -3.5 l

gsave
0.000 setgray
fill
grestore
stroke
grestore
} bind def
137.647 23.8719 o
grestore
gsave
128.107629 9.278125 translate
0.000000 rotate
0.000000 0 m /one glyphshow
6.362305 0 m /five glyphshow
12.724609 0 m /zero glyphshow
grestore
gsave
/o {
gsave
newpath
translate
0.8 setlinewidth
1 setlinejoin
0 setlinecap
0 0 m
0 -3.5 l

gsave
0.000 setgray
fill
grestore
stroke
grestore
} bind def
169.701 23.8719 o
grestore
gsave
160.161857 9.278125 translate
0.000000 rotate
0.000000 0 m /two glyphshow
6.362305 0 m /zero glyphshow
12.724609 0 m /zero glyphshow
grestore
gsave
/o {
gsave
newpath
translate
0.8 setlinewidth
1 setlinejoin
0 setlinecap
0 0 m
0 -3.5 l

gsave
0.000 setgray
fill
grestore
stroke
grestore
} bind def
201.755 23.8719 o
grestore
gsave
192.216085 9.278125 translate
0.000000 rotate
0.000000 0 m /two glyphshow
6.362305 0 m /five glyphshow
12.724609 0 m /zero glyphshow
grestore
gsave
/o {
gsave
newpath
translate
0.8 setlinewidth
1 setlinejoin
0 setlinecap
0 0 m
-3.5 0 l

gsave
0.000 setgray
fill
grestore
stroke
grestore
} bind def
33.2781 23.8719 o
grestore
gsave
19.918750 20.075000 translate
0.000000 rotate
0.000000 0 m /zero glyphshow
grestore
gsave
/o {
gsave
newpath
translate
0.8 setlinewidth
1 setlinejoin
0 setlinecap
0 0 m
-3.5 0 l

gsave
0.000 setgray
fill
grestore
stroke
grestore
} bind def
33.2781 62.8963 o
grestore
gsave
13.559375 59.099390 translate
0.000000 rotate
0.000000 0 m /five glyphshow
6.362305 0 m /zero glyphshow
grestore
gsave
/o {
gsave
newpath
translate
0.8 setlinewidth
1 setlinejoin
0 setlinecap
0 0 m
-3.5 0 l

gsave
0.000 setgray
fill
grestore
stroke
grestore
} bind def
33.2781 101.921 o
grestore
gsave
7.200000 98.123780 translate
0.000000 rotate
0.000000 0 m /one glyphshow
6.362305 0 m /zero glyphshow
12.724609 0 m /zero glyphshow
grestore
gsave
/o {
gsave
newpath
translate
0.8 setlinewidth
1 setlinejoin
0 setlinecap
0 0 m
-3.5 0 l

gsave
0.000 setgray
fill
grestore
stroke
grestore
} bind def
33.2781 140.945 o
grestore
gsave
7.200000 137.148171 translate
0.000000 rotate
0.000000 0 m /one glyphshow
6.362305 0 m /five glyphshow
12.724609 0 m /zero glyphshow
grestore
gsave
/o {
gsave
newpath
translate
0.8 setlinewidth
1 setlinejoin
0 setlinecap
0 0 m
-3.5 0 l

gsave
0.000 setgray
fill
grestore
stroke
grestore
} bind def
33.2781 179.969 o
grestore
gsave
7.200000 176.172561 translate
0.000000 rotate
0.000000 0 m /two glyphshow
6.362305 0 m /zero glyphshow
12.724609 0 m /zero glyphshow
grestore
gsave
/o {
gsave
newpath
translate
0.8 setlinewidth
1 setlinejoin
0 setlinecap
0 0 m
-3.5 0 l

gsave
0.000 setgray
fill
grestore
stroke
grestore
} bind def
33.2781 218.994 o
grestore
gsave
7.200000 215.196951 translate
0.000000 rotate
0.000000 0 m /two glyphshow
6.362305 0 m /five glyphshow
12.724609 0 m /zero glyphshow
grestore
0 setlinejoin
2 setlinecap
[] 0 setdash
gsave
33.278125 23.871875 m
33.278125 225.471875 l
stroke
grestore
gsave
213.807537 23.871875 m
213.807537 225.471875 l
stroke
grestore
gsave
33.278125 23.871875 m
213.807537 23.871875 l
stroke
grestore
gsave
33.278125 225.471875 m
213.807537 225.471875 l
stroke
grestore
/DejaVuSans findfont
12.000 scalefont
setfont
gsave
75.769393 231.471875 translate
0.000000 rotate
0.000000 0 m /m glyphshow
11.689453 0 m /space glyphshow
15.503906 0 m /equal glyphshow
25.558594 0 m /space glyphshow
29.373047 0 m /zero glyphshow
37.007812 0 m /period glyphshow
40.822266 0 m /six glyphshow
48.457031 0 m /comma glyphshow
52.271484 0 m /space glyphshow
56.085938 0 m /epsilon glyphshow
62.572266 0 m /space glyphshow
66.386719 0 m /equal glyphshow
76.441406 0 m /space glyphshow
80.255859 0 m /one glyphshow
87.890625 0 m /zero glyphshow
grestore
gsave
249.913419 23.871875 m
430.442831 23.871875 l
430.442831 225.471875 l
249.913419 225.471875 l
cl
1.000 setgray
fill
grestore
gsave
180.5 201.6 249.9 23.87 clipbox
258.119301 23.871875 m
263.247978 23.871875 l
263.247978 23.871875 l
258.119301 23.871875 l
cl
0.122 0.467 0.706 setrgbcolor
fill
grestore
gsave
180.5 201.6 249.9 23.87 clipbox
263.247978 23.871875 m
268.376654 23.871875 l
268.376654 23.871875 l
263.247978 23.871875 l
cl
0.122 0.467 0.706 setrgbcolor
fill
grestore
gsave
180.5 201.6 249.9 23.87 clipbox
268.376654 23.871875 m
273.505331 23.871875 l
273.505331 23.871875 l
268.376654 23.871875 l
cl
0.122 0.467 0.706 setrgbcolor
fill
grestore
gsave
180.5 201.6 249.9 23.87 clipbox
273.505331 23.871875 m
278.634007 23.871875 l
278.634007 23.871875 l
273.505331 23.871875 l
cl
0.122 0.467 0.706 setrgbcolor
fill
grestore
gsave
180.5 201.6 249.9 23.87 clipbox
278.634007 23.871875 m
283.762684 23.871875 l
283.762684 23.871875 l
278.634007 23.871875 l
cl
0.122 0.467 0.706 setrgbcolor
fill
grestore
gsave
180.5 201.6 249.9 23.87 clipbox
283.762684 23.871875 m
288.89136 23.871875 l
288.89136 23.871875 l
283.762684 23.871875 l
cl
0.122 0.467 0.706 setrgbcolor
fill
grestore
gsave
180.5 201.6 249.9 23.87 clipbox
288.89136 23.871875 m
294.020037 23.871875 l
294.020037 23.871875 l
288.89136 23.871875 l
cl
0.122 0.467 0.706 setrgbcolor
fill
grestore
gsave
180.5 201.6 249.9 23.87 clipbox
294.020037 23.871875 m
299.148713 23.871875 l
299.148713 23.871875 l
294.020037 23.871875 l
cl
0.122 0.467 0.706 setrgbcolor
fill
grestore
gsave
180.5 201.6 249.9 23.87 clipbox
299.148713 23.871875 m
304.27739 23.871875 l
304.27739 205.940841 l
299.148713 205.940841 l
cl
0.122 0.467 0.706 setrgbcolor
fill
grestore
gsave
180.5 201.6 249.9 23.87 clipbox
304.27739 23.871875 m
309.406066 23.871875 l
309.406066 23.871875 l
304.27739 23.871875 l
cl
0.122 0.467 0.706 setrgbcolor
fill
grestore
gsave
180.5 201.6 249.9 23.87 clipbox
309.406066 23.871875 m
314.534743 23.871875 l
314.534743 23.871875 l
309.406066 23.871875 l
cl
0.122 0.467 0.706 setrgbcolor
fill
grestore
gsave
180.5 201.6 249.9 23.87 clipbox
314.534743 23.871875 m
319.663419 23.871875 l
319.663419 23.871875 l
314.534743 23.871875 l
cl
0.122 0.467 0.706 setrgbcolor
fill
grestore
gsave
180.5 201.6 249.9 23.87 clipbox
319.663419 23.871875 m
324.792096 23.871875 l
324.792096 23.871875 l
319.663419 23.871875 l
cl
0.122 0.467 0.706 setrgbcolor
fill
grestore
gsave
180.5 201.6 249.9 23.87 clipbox
324.792096 23.871875 m
329.920772 23.871875 l
329.920772 23.871875 l
324.792096 23.871875 l
cl
0.122 0.467 0.706 setrgbcolor
fill
grestore
gsave
180.5 201.6 249.9 23.87 clipbox
329.920772 23.871875 m
335.049449 23.871875 l
335.049449 23.871875 l
329.920772 23.871875 l
cl
0.122 0.467 0.706 setrgbcolor
fill
grestore
gsave
180.5 201.6 249.9 23.87 clipbox
335.049449 23.871875 m
340.178125 23.871875 l
340.178125 25.075637 l
335.049449 25.075637 l
cl
0.122 0.467 0.706 setrgbcolor
fill
grestore
gsave
180.5 201.6 249.9 23.87 clipbox
340.178125 23.871875 m
345.306801 23.871875 l
345.306801 24.774696 l
340.178125 24.774696 l
cl
0.122 0.467 0.706 setrgbcolor
fill
grestore
gsave
180.5 201.6 249.9 23.87 clipbox
345.306801 23.871875 m
350.435478 23.871875 l
350.435478 23.871875 l
345.306801 23.871875 l
cl
0.122 0.467 0.706 setrgbcolor
fill
grestore
gsave
180.5 201.6 249.9 23.87 clipbox
350.435478 23.871875 m
355.564154 23.871875 l
355.564154 23.871875 l
350.435478 23.871875 l
cl
0.122 0.467 0.706 setrgbcolor
fill
grestore
gsave
180.5 201.6 249.9 23.87 clipbox
355.564154 23.871875 m
360.692831 23.871875 l
360.692831 23.871875 l
355.564154 23.871875 l
cl
0.122 0.467 0.706 setrgbcolor
fill
grestore
gsave
180.5 201.6 249.9 23.87 clipbox
360.692831 23.871875 m
365.821507 23.871875 l
365.821507 23.871875 l
360.692831 23.871875 l
cl
0.122 0.467 0.706 setrgbcolor
fill
grestore
gsave
180.5 201.6 249.9 23.87 clipbox
365.821507 23.871875 m
370.950184 23.871875 l
370.950184 23.871875 l
365.821507 23.871875 l
cl
0.122 0.467 0.706 setrgbcolor
fill
grestore
gsave
180.5 201.6 249.9 23.87 clipbox
370.950184 23.871875 m
376.07886 23.871875 l
376.07886 23.871875 l
370.950184 23.871875 l
cl
0.122 0.467 0.706 setrgbcolor
fill
grestore
gsave
180.5 201.6 249.9 23.87 clipbox
376.07886 23.871875 m
381.207537 23.871875 l
381.207537 215.871875 l
376.07886 215.871875 l
cl
0.122 0.467 0.706 setrgbcolor
fill
grestore
gsave
180.5 201.6 249.9 23.87 clipbox
381.207537 23.871875 m
386.336213 23.871875 l
386.336213 23.871875 l
381.207537 23.871875 l
cl
0.122 0.467 0.706 setrgbcolor
fill
grestore
gsave
180.5 201.6 249.9 23.87 clipbox
386.336213 23.871875 m
391.46489 23.871875 l
391.46489 23.871875 l
386.336213 23.871875 l
cl
0.122 0.467 0.706 setrgbcolor
fill
grestore
gsave
180.5 201.6 249.9 23.87 clipbox
391.46489 23.871875 m
396.593566 23.871875 l
396.593566 23.871875 l
391.46489 23.871875 l
cl
0.122 0.467 0.706 setrgbcolor
fill
grestore
gsave
180.5 201.6 249.9 23.87 clipbox
396.593566 23.871875 m
401.722243 23.871875 l
401.722243 23.871875 l
396.593566 23.871875 l
cl
0.122 0.467 0.706 setrgbcolor
fill
grestore
gsave
180.5 201.6 249.9 23.87 clipbox
401.722243 23.871875 m
406.850919 23.871875 l
406.850919 23.871875 l
401.722243 23.871875 l
cl
0.122 0.467 0.706 setrgbcolor
fill
grestore
gsave
180.5 201.6 249.9 23.87 clipbox
406.850919 23.871875 m
411.979596 23.871875 l
411.979596 23.871875 l
406.850919 23.871875 l
cl
0.122 0.467 0.706 setrgbcolor
fill
grestore
gsave
180.5 201.6 249.9 23.87 clipbox
411.979596 23.871875 m
417.108272 23.871875 l
417.108272 23.871875 l
411.979596 23.871875 l
cl
0.122 0.467 0.706 setrgbcolor
fill
grestore
gsave
180.5 201.6 249.9 23.87 clipbox
417.108272 23.871875 m
422.236949 23.871875 l
422.236949 23.871875 l
417.108272 23.871875 l
cl
0.122 0.467 0.706 setrgbcolor
fill
grestore
1 setlinejoin
0 setlinecap
[] 0 setdash
gsave
/o {
gsave
newpath
translate
0.8 setlinewidth
1 setlinejoin
0 setlinecap
0 0 m
0 -3.5 l

gsave
0.000 setgray
fill
grestore
stroke
grestore
} bind def
258.119 23.8719 o
grestore
/DejaVuSans findfont
10.000 scalefont
setfont
gsave
254.939614 9.278125 translate
0.000000 rotate
0.000000 0 m /zero glyphshow
grestore
gsave
/o {
gsave
newpath
translate
0.8 setlinewidth
1 setlinejoin
0 setlinecap
0 0 m
0 -3.5 l

gsave
0.000 setgray
fill
grestore
stroke
grestore
} bind def
290.174 23.8719 o
grestore
gsave
283.814154 9.278125 translate
0.000000 rotate
0.000000 0 m /five glyphshow
6.362305 0 m /zero glyphshow
grestore
gsave
/o {
gsave
newpath
translate
0.8 setlinewidth
1 setlinejoin
0 setlinecap
0 0 m
0 -3.5 l

gsave
0.000 setgray
fill
grestore
stroke
grestore
} bind def
322.228 23.8719 o
grestore
gsave
312.688695 9.278125 translate
0.000000 rotate
0.000000 0 m /one glyphshow
6.362305 0 m /zero glyphshow
12.724609 0 m /zero glyphshow
grestore
gsave
/o {
gsave
newpath
translate
0.8 setlinewidth
1 setlinejoin
0 setlinecap
0 0 m
0 -3.5 l

gsave
0.000 setgray
fill
grestore
stroke
grestore
} bind def
354.282 23.8719 o
grestore
gsave
344.742923 9.278125 translate
0.000000 rotate
0.000000 0 m /one glyphshow
6.362305 0 m /five glyphshow
12.724609 0 m /zero glyphshow
grestore
gsave
/o {
gsave
newpath
translate
0.8 setlinewidth
1 setlinejoin
0 setlinecap
0 0 m
0 -3.5 l

gsave
0.000 setgray
fill
grestore
stroke
grestore
} bind def
386.336 23.8719 o
grestore
gsave
376.797151 9.278125 translate
0.000000 rotate
0.000000 0 m /two glyphshow
6.362305 0 m /zero glyphshow
12.724609 0 m /zero glyphshow
grestore
gsave
/o {
gsave
newpath
translate
0.8 setlinewidth
1 setlinejoin
0 setlinecap
0 0 m
0 -3.5 l

gsave
0.000 setgray
fill
grestore
stroke
grestore
} bind def
418.39 23.8719 o
grestore
gsave
408.851379 9.278125 translate
0.000000 rotate
0.000000 0 m /two glyphshow
6.362305 0 m /five glyphshow
12.724609 0 m /zero glyphshow
grestore
gsave
/o {
gsave
newpath
translate
0.8 setlinewidth
1 setlinejoin
0 setlinecap
0 0 m
-3.5 0 l

gsave
0.000 setgray
fill
grestore
stroke
grestore
} bind def
249.913 23.8719 o
grestore
gsave
236.554044 20.075000 translate
0.000000 rotate
0.000000 0 m /zero glyphshow
grestore
gsave
/o {
gsave
newpath
translate
0.8 setlinewidth
1 setlinejoin
0 setlinecap
0 0 m
-3.5 0 l

gsave
0.000 setgray
fill
grestore
stroke
grestore
} bind def
249.913 53.9659 o
grestore
gsave
223.835294 50.169044 translate
0.000000 rotate
0.000000 0 m /two glyphshow
6.362305 0 m /zero glyphshow
12.724609 0 m /zero glyphshow
grestore
gsave
/o {
gsave
newpath
translate
0.8 setlinewidth
1 setlinejoin
0 setlinecap
0 0 m
-3.5 0 l

gsave
0.000 setgray
fill
grestore
stroke
grestore
} bind def
249.913 84.06 o
grestore
gsave
223.835294 80.263088 translate
0.000000 rotate
0.000000 0 m /four glyphshow
6.362305 0 m /zero glyphshow
12.724609 0 m /zero glyphshow
grestore
gsave
/o {
gsave
newpath
translate
0.8 setlinewidth
1 setlinejoin
0 setlinecap
0 0 m
-3.5 0 l

gsave
0.000 setgray
fill
grestore
stroke
grestore
} bind def
249.913 114.154 o
grestore
gsave
223.835294 110.357132 translate
0.000000 rotate
0.000000 0 m /six glyphshow
6.362305 0 m /zero glyphshow
12.724609 0 m /zero glyphshow
grestore
gsave
/o {
gsave
newpath
translate
0.8 setlinewidth
1 setlinejoin
0 setlinecap
0 0 m
-3.5 0 l

gsave
0.000 setgray
fill
grestore
stroke
grestore
} bind def
249.913 144.248 o
grestore
gsave
223.835294 140.451176 translate
0.000000 rotate
0.000000 0 m /eight glyphshow
6.362305 0 m /zero glyphshow
12.724609 0 m /zero glyphshow
grestore
gsave
/o {
gsave
newpath
translate
0.8 setlinewidth
1 setlinejoin
0 setlinecap
0 0 m
-3.5 0 l

gsave
0.000 setgray
fill
grestore
stroke
grestore
} bind def
249.913 174.342 o
grestore
gsave
217.475919 170.545219 translate
0.000000 rotate
0.000000 0 m /one glyphshow
6.362305 0 m /zero glyphshow
12.724609 0 m /zero glyphshow
19.086914 0 m /zero glyphshow
grestore
gsave
/o {
gsave
newpath
translate
0.8 setlinewidth
1 setlinejoin
0 setlinecap
0 0 m
-3.5 0 l

gsave
0.000 setgray
fill
grestore
stroke
grestore
} bind def
249.913 204.436 o
grestore
gsave
217.475919 200.639263 translate
0.000000 rotate
0.000000 0 m /one glyphshow
6.362305 0 m /two glyphshow
12.724609 0 m /zero glyphshow
19.086914 0 m /zero glyphshow
grestore
0 setlinejoin
2 setlinecap
[] 0 setdash
gsave
249.913419 23.871875 m
249.913419 225.471875 l
stroke
grestore
gsave
430.442831 23.871875 m
430.442831 225.471875 l
stroke
grestore
gsave
249.913419 23.871875 m
430.442831 23.871875 l
stroke
grestore
gsave
249.913419 225.471875 m
430.442831 225.471875 l
stroke
grestore
/DejaVuSans findfont
12.000 scalefont
setfont
gsave
292.404688 231.471875 translate
0.000000 rotate
0.000000 0 m /m glyphshow
11.689453 0 m /space glyphshow
15.503906 0 m /equal glyphshow
25.558594 0 m /space glyphshow
29.373047 0 m /zero glyphshow
37.007812 0 m /period glyphshow
40.822266 0 m /six glyphshow
48.457031 0 m /comma glyphshow
52.271484 0 m /space glyphshow
56.085938 0 m /epsilon glyphshow
62.572266 0 m /space glyphshow
66.386719 0 m /equal glyphshow
76.441406 0 m /space glyphshow
80.255859 0 m /five glyphshow
87.890625 0 m /zero glyphshow
grestore
gsave
466.548713 23.871875 m
647.078125 23.871875 l
647.078125 225.471875 l
466.548713 225.471875 l
cl
1.000 setgray
fill
grestore
gsave
180.5 201.6 466.5 23.87 clipbox
474.754596 23.871875 m
479.883272 23.871875 l
479.883272 23.949014 l
474.754596 23.949014 l
cl
0.122 0.467 0.706 setrgbcolor
fill
grestore
gsave
180.5 201.6 466.5 23.87 clipbox
479.883272 23.871875 m
485.011949 23.871875 l
485.011949 23.871875 l
479.883272 23.871875 l
cl
0.122 0.467 0.706 setrgbcolor
fill
grestore
gsave
180.5 201.6 466.5 23.87 clipbox
485.011949 23.871875 m
490.140625 23.871875 l
490.140625 23.871875 l
485.011949 23.871875 l
cl
0.122 0.467 0.706 setrgbcolor
fill
grestore
gsave
180.5 201.6 466.5 23.87 clipbox
490.140625 23.871875 m
495.269301 23.871875 l
495.269301 23.871875 l
490.140625 23.871875 l
cl
0.122 0.467 0.706 setrgbcolor
fill
grestore
gsave
180.5 201.6 466.5 23.87 clipbox
495.269301 23.871875 m
500.397978 23.871875 l
500.397978 23.871875 l
495.269301 23.871875 l
cl
0.122 0.467 0.706 setrgbcolor
fill
grestore
gsave
180.5 201.6 466.5 23.87 clipbox
500.397978 23.871875 m
505.526654 23.871875 l
505.526654 23.871875 l
500.397978 23.871875 l
cl
0.122 0.467 0.706 setrgbcolor
fill
grestore
gsave
180.5 201.6 466.5 23.87 clipbox
505.526654 23.871875 m
510.655331 23.871875 l
510.655331 23.871875 l
505.526654 23.871875 l
cl
0.122 0.467 0.706 setrgbcolor
fill
grestore
gsave
180.5 201.6 466.5 23.87 clipbox
510.655331 23.871875 m
515.784007 23.871875 l
515.784007 23.871875 l
510.655331 23.871875 l
cl
0.122 0.467 0.706 setrgbcolor
fill
grestore
gsave
180.5 201.6 466.5 23.87 clipbox
515.784007 23.871875 m
520.912684 23.871875 l
520.912684 23.871875 l
515.784007 23.871875 l
cl
0.122 0.467 0.706 setrgbcolor
fill
grestore
gsave
180.5 201.6 466.5 23.87 clipbox
520.912684 23.871875 m
526.04136 23.871875 l
526.04136 23.871875 l
520.912684 23.871875 l
cl
0.122 0.467 0.706 setrgbcolor
fill
grestore
gsave
180.5 201.6 466.5 23.87 clipbox
526.04136 23.871875 m
531.170037 23.871875 l
531.170037 23.871875 l
526.04136 23.871875 l
cl
0.122 0.467 0.706 setrgbcolor
fill
grestore
gsave
180.5 201.6 466.5 23.87 clipbox
531.170037 23.871875 m
536.298713 23.871875 l
536.298713 23.871875 l
531.170037 23.871875 l
cl
0.122 0.467 0.706 setrgbcolor
fill
grestore
gsave
180.5 201.6 466.5 23.87 clipbox
536.298713 23.871875 m
541.42739 23.871875 l
541.42739 23.871875 l
536.298713 23.871875 l
cl
0.122 0.467 0.706 setrgbcolor
fill
grestore
gsave
180.5 201.6 466.5 23.87 clipbox
541.42739 23.871875 m
546.556066 23.871875 l
546.556066 23.871875 l
541.42739 23.871875 l
cl
0.122 0.467 0.706 setrgbcolor
fill
grestore
gsave
180.5 201.6 466.5 23.87 clipbox
546.556066 23.871875 m
551.684743 23.871875 l
551.684743 23.871875 l
546.556066 23.871875 l
cl
0.122 0.467 0.706 setrgbcolor
fill
grestore
gsave
180.5 201.6 466.5 23.87 clipbox
551.684743 23.871875 m
556.813419 23.871875 l
556.813419 215.871875 l
551.684743 215.871875 l
cl
0.122 0.467 0.706 setrgbcolor
fill
grestore
gsave
180.5 201.6 466.5 23.87 clipbox
556.813419 23.871875 m
561.942096 23.871875 l
561.942096 23.871875 l
556.813419 23.871875 l
cl
0.122 0.467 0.706 setrgbcolor
fill
grestore
gsave
180.5 201.6 466.5 23.87 clipbox
561.942096 23.871875 m
567.070772 23.871875 l
567.070772 23.871875 l
561.942096 23.871875 l
cl
0.122 0.467 0.706 setrgbcolor
fill
grestore
gsave
180.5 201.6 466.5 23.87 clipbox
567.070772 23.871875 m
572.199449 23.871875 l
572.199449 23.871875 l
567.070772 23.871875 l
cl
0.122 0.467 0.706 setrgbcolor
fill
grestore
gsave
180.5 201.6 466.5 23.87 clipbox
572.199449 23.871875 m
577.328125 23.871875 l
577.328125 23.871875 l
572.199449 23.871875 l
cl
0.122 0.467 0.706 setrgbcolor
fill
grestore
gsave
180.5 201.6 466.5 23.87 clipbox
577.328125 23.871875 m
582.456801 23.871875 l
582.456801 23.871875 l
577.328125 23.871875 l
cl
0.122 0.467 0.706 setrgbcolor
fill
grestore
gsave
180.5 201.6 466.5 23.87 clipbox
582.456801 23.871875 m
587.585478 23.871875 l
587.585478 23.871875 l
582.456801 23.871875 l
cl
0.122 0.467 0.706 setrgbcolor
fill
grestore
gsave
180.5 201.6 466.5 23.87 clipbox
587.585478 23.871875 m
592.714154 23.871875 l
592.714154 23.871875 l
587.585478 23.871875 l
cl
0.122 0.467 0.706 setrgbcolor
fill
grestore
gsave
180.5 201.6 466.5 23.87 clipbox
592.714154 23.871875 m
597.842831 23.871875 l
597.842831 23.871875 l
592.714154 23.871875 l
cl
0.122 0.467 0.706 setrgbcolor
fill
grestore
gsave
180.5 201.6 466.5 23.87 clipbox
597.842831 23.871875 m
602.971507 23.871875 l
602.971507 23.871875 l
597.842831 23.871875 l
cl
0.122 0.467 0.706 setrgbcolor
fill
grestore
gsave
180.5 201.6 466.5 23.87 clipbox
602.971507 23.871875 m
608.100184 23.871875 l
608.100184 23.871875 l
602.971507 23.871875 l
cl
0.122 0.467 0.706 setrgbcolor
fill
grestore
gsave
180.5 201.6 466.5 23.87 clipbox
608.100184 23.871875 m
613.22886 23.871875 l
613.22886 23.871875 l
608.100184 23.871875 l
cl
0.122 0.467 0.706 setrgbcolor
fill
grestore
gsave
180.5 201.6 466.5 23.87 clipbox
613.22886 23.871875 m
618.357537 23.871875 l
618.357537 23.871875 l
613.22886 23.871875 l
cl
0.122 0.467 0.706 setrgbcolor
fill
grestore
gsave
180.5 201.6 466.5 23.87 clipbox
618.357537 23.871875 m
623.486213 23.871875 l
623.486213 23.871875 l
618.357537 23.871875 l
cl
0.122 0.467 0.706 setrgbcolor
fill
grestore
gsave
180.5 201.6 466.5 23.87 clipbox
623.486213 23.871875 m
628.61489 23.871875 l
628.61489 24.103293 l
623.486213 24.103293 l
cl
0.122 0.467 0.706 setrgbcolor
fill
grestore
gsave
180.5 201.6 466.5 23.87 clipbox
628.61489 23.871875 m
633.743566 23.871875 l
633.743566 24.411851 l
628.61489 24.411851 l
cl
0.122 0.467 0.706 setrgbcolor
fill
grestore
gsave
180.5 201.6 466.5 23.87 clipbox
633.743566 23.871875 m
638.872243 23.871875 l
638.872243 23.871875 l
633.743566 23.871875 l
cl
0.122 0.467 0.706 setrgbcolor
fill
grestore
1 setlinejoin
0 setlinecap
[] 0 setdash
gsave
/o {
gsave
newpath
translate
0.8 setlinewidth
1 setlinejoin
0 setlinecap
0 0 m
0 -3.5 l

gsave
0.000 setgray
fill
grestore
stroke
grestore
} bind def
474.755 23.8719 o
grestore
/DejaVuSans findfont
10.000 scalefont
setfont
gsave
471.574908 9.278125 translate
0.000000 rotate
0.000000 0 m /zero glyphshow
grestore
gsave
/o {
gsave
newpath
translate
0.8 setlinewidth
1 setlinejoin
0 setlinecap
0 0 m
0 -3.5 l

gsave
0.000 setgray
fill
grestore
stroke
grestore
} bind def
506.809 23.8719 o
grestore
gsave
500.449449 9.278125 translate
0.000000 rotate
0.000000 0 m /five glyphshow
6.362305 0 m /zero glyphshow
grestore
gsave
/o {
gsave
newpath
translate
0.8 setlinewidth
1 setlinejoin
0 setlinecap
0 0 m
0 -3.5 l

gsave
0.000 setgray
fill
grestore
stroke
grestore
} bind def
538.863 23.8719 o
grestore
gsave
529.323989 9.278125 translate
0.000000 rotate
0.000000 0 m /one glyphshow
6.362305 0 m /zero glyphshow
12.724609 0 m /zero glyphshow
grestore
gsave
/o {
gsave
newpath
translate
0.8 setlinewidth
1 setlinejoin
0 setlinecap
0 0 m
0 -3.5 l

gsave
0.000 setgray
fill
grestore
stroke
grestore
} bind def
570.917 23.8719 o
grestore
gsave
561.378217 9.278125 translate
0.000000 rotate
0.000000 0 m /one glyphshow
6.362305 0 m /five glyphshow
12.724609 0 m /zero glyphshow
grestore
gsave
/o {
gsave
newpath
translate
0.8 setlinewidth
1 setlinejoin
0 setlinecap
0 0 m
0 -3.5 l

gsave
0.000 setgray
fill
grestore
stroke
grestore
} bind def
602.972 23.8719 o
grestore
gsave
593.432445 9.278125 translate
0.000000 rotate
0.000000 0 m /two glyphshow
6.362305 0 m /zero glyphshow
12.724609 0 m /zero glyphshow
grestore
gsave
/o {
gsave
newpath
translate
0.8 setlinewidth
1 setlinejoin
0 setlinecap
0 0 m
0 -3.5 l

gsave
0.000 setgray
fill
grestore
stroke
grestore
} bind def
635.026 23.8719 o
grestore
gsave
625.486673 9.278125 translate
0.000000 rotate
0.000000 0 m /two glyphshow
6.362305 0 m /five glyphshow
12.724609 0 m /zero glyphshow
grestore
gsave
/o {
gsave
newpath
translate
0.8 setlinewidth
1 setlinejoin
0 setlinecap
0 0 m
-3.5 0 l

gsave
0.000 setgray
fill
grestore
stroke
grestore
} bind def
466.549 23.8719 o
grestore
gsave
453.189338 20.075000 translate
0.000000 rotate
0.000000 0 m /zero glyphshow
grestore
gsave
/o {
gsave
newpath
translate
0.8 setlinewidth
1 setlinejoin
0 setlinecap
0 0 m
-3.5 0 l

gsave
0.000 setgray
fill
grestore
stroke
grestore
} bind def
466.549 62.4416 o
grestore
gsave
440.470588 58.644707 translate
0.000000 rotate
0.000000 0 m /five glyphshow
6.362305 0 m /zero glyphshow
12.724609 0 m /zero glyphshow
grestore
gsave
/o {
gsave
newpath
translate
0.8 setlinewidth
1 setlinejoin
0 setlinecap
0 0 m
-3.5 0 l

gsave
0.000 setgray
fill
grestore
stroke
grestore
} bind def
466.549 101.011 o
grestore
gsave
434.111213 97.214413 translate
0.000000 rotate
0.000000 0 m /one glyphshow
6.362305 0 m /zero glyphshow
12.724609 0 m /zero glyphshow
19.086914 0 m /zero glyphshow
grestore
gsave
/o {
gsave
newpath
translate
0.8 setlinewidth
1 setlinejoin
0 setlinecap
0 0 m
-3.5 0 l

gsave
0.000 setgray
fill
grestore
stroke
grestore
} bind def
466.549 139.581 o
grestore
gsave
434.111213 135.784120 translate
0.000000 rotate
0.000000 0 m /one glyphshow
6.362305 0 m /five glyphshow
12.724609 0 m /zero glyphshow
19.086914 0 m /zero glyphshow
grestore
gsave
/o {
gsave
newpath
translate
0.8 setlinewidth
1 setlinejoin
0 setlinecap
0 0 m
-3.5 0 l

gsave
0.000 setgray
fill
grestore
stroke
grestore
} bind def
466.549 178.151 o
grestore
gsave
434.111213 174.353827 translate
0.000000 rotate
0.000000 0 m /two glyphshow
6.362305 0 m /zero glyphshow
12.724609 0 m /zero glyphshow
19.086914 0 m /zero glyphshow
grestore
gsave
/o {
gsave
newpath
translate
0.8 setlinewidth
1 setlinejoin
0 setlinecap
0 0 m
-3.5 0 l

gsave
0.000 setgray
fill
grestore
stroke
grestore
} bind def
466.549 216.72 o
grestore
gsave
434.111213 212.923534 translate
0.000000 rotate
0.000000 0 m /two glyphshow
6.362305 0 m /five glyphshow
12.724609 0 m /zero glyphshow
19.086914 0 m /zero glyphshow
grestore
0 setlinejoin
2 setlinecap
[] 0 setdash
gsave
466.548713 23.871875 m
466.548713 225.471875 l
stroke
grestore
gsave
647.078125 23.871875 m
647.078125 225.471875 l
stroke
grestore
gsave
466.548713 23.871875 m
647.078125 23.871875 l
stroke
grestore
gsave
466.548713 225.471875 m
647.078125 225.471875 l
stroke
grestore
/DejaVuSans findfont
12.000 scalefont
setfont
gsave
505.219669 231.471875 translate
0.000000 rotate
0.000000 0 m /m glyphshow
11.689453 0 m /space glyphshow
15.503906 0 m /equal glyphshow
25.558594 0 m /space glyphshow
29.373047 0 m /zero glyphshow
37.007812 0 m /period glyphshow
40.822266 0 m /six glyphshow
48.457031 0 m /comma glyphshow
52.271484 0 m /space glyphshow
56.085938 0 m /epsilon glyphshow
62.572266 0 m /space glyphshow
66.386719 0 m /equal glyphshow
76.441406 0 m /space glyphshow
80.255859 0 m /one glyphshow
87.890625 0 m /zero glyphshow
95.525391 0 m /zero glyphshow
grestore

end
showpage
