%!PS-Adobe-3.0 EPSF-3.0
%%Title: ./fig/b_histograms_official.eps
%%Creator: matplotlib version 3.2.1, http://matplotlib.org/
%%CreationDate: Fri Apr 17 00:33:13 2020
%%Orientation: landscape
%%BoundingBox: -54.627874999999975 -166.75500000000008 666.6278749999999 958.7550000000001
%%EndComments
%%BeginProlog
/mpldict 8 dict def
mpldict begin
/m { moveto } bind def
/l { lineto } bind def
/r { rlineto } bind def
/c { curveto } bind def
/cl { closepath } bind def
/box {
m
1 index 0 r
0 exch r
neg 0 r
cl
} bind def
/clipbox {
box
clip
newpath
} bind def
%!PS-Adobe-3.0 Resource-Font
%%Title: DejaVu Sans
%%Copyright: Copyright (c) 2003 by Bitstream, Inc. All Rights Reserved. Copyright (c) 2006 by Tavmjong Bah. All Rights Reserved. DejaVu changes are in public domain 
%%Creator: Converted from TrueType to type 3 by PPR
25 dict begin
/_d{bind def}bind def
/_m{moveto}_d
/_l{lineto}_d
/_cl{closepath eofill}_d
/_c{curveto}_d
/_sc{7 -1 roll{setcachedevice}{pop pop pop pop pop pop}ifelse}_d
/_e{exec}_d
/FontName /DejaVuSans def
/PaintType 0 def
/FontMatrix[.001 0 0 .001 0 0]def
/FontBBox[-1021 -463 1793 1232]def
/FontType 3 def
/Encoding [ /space /comma /period /zero /one /two /three /four /five /six /seven /eight /equal /F /a /b /d /i /l /m /n /o /p /r /s /t /u /epsilon ] def
/FontInfo 10 dict dup begin
/FamilyName (DejaVu Sans) def
/FullName (DejaVu Sans) def
/Notice (Copyright (c) 2003 by Bitstream, Inc. All Rights Reserved. Copyright (c) 2006 by Tavmjong Bah. All Rights Reserved. DejaVu changes are in public domain ) def
/Weight (Book) def
/Version (Version 2.35) def
/ItalicAngle 0.0 def
/isFixedPitch false def
/UnderlinePosition -130 def
/UnderlineThickness 90 def
end readonly def
/CharStrings 29 dict dup begin
/.notdef 0 def
/space{318 0 0 0 0 0 _sc
}_d
/comma{318 0 77 -115 220 124 _sc
117 124 _m
220 124 _l
220 40 _l
140 -115 _l
77 -115 _l
117 40 _l
117 124 _l
_cl}_d
/period{318 0 107 0 210 124 _sc
107 124 _m
210 124 _l
210 0 _l
107 0 _l
107 124 _l
_cl}_d
/zero{636 0 66 -13 570 742 _sc
318 664 _m
267 664 229 639 203 589 _c
177 539 165 464 165 364 _c
165 264 177 189 203 139 _c
229 89 267 64 318 64 _c
369 64 407 89 433 139 _c
458 189 471 264 471 364 _c
471 464 458 539 433 589 _c
407 639 369 664 318 664 _c
318 742 _m
399 742 461 709 505 645 _c
548 580 570 486 570 364 _c
570 241 548 147 505 83 _c
461 19 399 -13 318 -13 _c
236 -13 173 19 130 83 _c
87 147 66 241 66 364 _c
66 486 87 580 130 645 _c
173 709 236 742 318 742 _c
_cl}_d
/one{636 0 110 0 544 729 _sc
124 83 _m
285 83 _l
285 639 _l
110 604 _l
110 694 _l
284 729 _l
383 729 _l
383 83 _l
544 83 _l
544 0 _l
124 0 _l
124 83 _l
_cl}_d
/two{{636 0 73 0 536 742 _sc
192 83 _m
536 83 _l
536 0 _l
73 0 _l
73 83 _l
110 121 161 173 226 239 _c
290 304 331 346 348 365 _c
380 400 402 430 414 455 _c
426 479 433 504 433 528 _c
433 566 419 598 392 622 _c
365 646 330 659 286 659 _c
255 659 222 653 188 643 _c
154 632 117 616 78 594 _c
78 694 _l
118 710 155 722 189 730 _c
223 738 255 742 284 742 _c
}_e{359 742 419 723 464 685 _c
509 647 532 597 532 534 _c
532 504 526 475 515 449 _c
504 422 484 390 454 354 _c
446 344 420 317 376 272 _c
332 227 271 164 192 83 _c
_cl}_e}_d
/three{{636 0 76 -13 556 742 _sc
406 393 _m
453 383 490 362 516 330 _c
542 298 556 258 556 212 _c
556 140 531 84 482 45 _c
432 6 362 -13 271 -13 _c
240 -13 208 -10 176 -4 _c
144 1 110 10 76 22 _c
76 117 _l
103 101 133 89 166 81 _c
198 73 232 69 268 69 _c
330 69 377 81 409 105 _c
441 129 458 165 458 212 _c
458 254 443 288 413 312 _c
383 336 341 349 287 349 _c
}_e{202 349 _l
202 430 _l
291 430 _l
339 430 376 439 402 459 _c
428 478 441 506 441 543 _c
441 580 427 609 401 629 _c
374 649 336 659 287 659 _c
260 659 231 656 200 650 _c
169 644 135 635 98 623 _c
98 711 _l
135 721 170 729 203 734 _c
235 739 266 742 296 742 _c
370 742 429 725 473 691 _c
517 657 539 611 539 553 _c
539 513 527 479 504 451 _c
481 423 448 403 406 393 _c
_cl}_e}_d
/four{636 0 49 0 580 729 _sc
378 643 _m
129 254 _l
378 254 _l
378 643 _l
352 729 _m
476 729 _l
476 254 _l
580 254 _l
580 172 _l
476 172 _l
476 0 _l
378 0 _l
378 172 _l
49 172 _l
49 267 _l
352 729 _l
_cl}_d
/five{{636 0 77 -13 549 729 _sc
108 729 _m
495 729 _l
495 646 _l
198 646 _l
198 467 _l
212 472 227 476 241 478 _c
255 480 270 482 284 482 _c
365 482 429 459 477 415 _c
525 370 549 310 549 234 _c
549 155 524 94 475 51 _c
426 8 357 -13 269 -13 _c
238 -13 207 -10 175 -6 _c
143 -1 111 6 77 17 _c
77 116 _l
106 100 136 88 168 80 _c
199 72 232 69 267 69 _c
}_e{323 69 368 83 401 113 _c
433 143 450 183 450 234 _c
450 284 433 324 401 354 _c
368 384 323 399 267 399 _c
241 399 214 396 188 390 _c
162 384 135 375 108 363 _c
108 729 _l
_cl}_e}_d
/six{{636 0 70 -13 573 742 _sc
330 404 _m
286 404 251 388 225 358 _c
199 328 186 286 186 234 _c
186 181 199 139 225 109 _c
251 79 286 64 330 64 _c
374 64 409 79 435 109 _c
461 139 474 181 474 234 _c
474 286 461 328 435 358 _c
409 388 374 404 330 404 _c
526 713 _m
526 623 _l
501 635 476 644 451 650 _c
425 656 400 659 376 659 _c
310 659 260 637 226 593 _c
}_e{192 549 172 482 168 394 _c
187 422 211 444 240 459 _c
269 474 301 482 336 482 _c
409 482 467 459 509 415 _c
551 371 573 310 573 234 _c
573 159 550 99 506 54 _c
462 9 403 -13 330 -13 _c
246 -13 181 19 137 83 _c
92 147 70 241 70 364 _c
70 479 97 571 152 639 _c
206 707 280 742 372 742 _c
396 742 421 739 447 735 _c
472 730 498 723 526 713 _c
_cl}_e}_d
/seven{636 0 82 0 551 729 _sc
82 729 _m
551 729 _l
551 687 _l
286 0 _l
183 0 _l
432 646 _l
82 646 _l
82 729 _l
_cl}_d
/eight{{636 0 68 -13 568 742 _sc
318 346 _m
271 346 234 333 207 308 _c
180 283 167 249 167 205 _c
167 161 180 126 207 101 _c
234 76 271 64 318 64 _c
364 64 401 76 428 102 _c
455 127 469 161 469 205 _c
469 249 455 283 429 308 _c
402 333 365 346 318 346 _c
219 388 _m
177 398 144 418 120 447 _c
96 476 85 511 85 553 _c
85 611 105 657 147 691 _c
188 725 245 742 318 742 _c
}_e{390 742 447 725 489 691 _c
530 657 551 611 551 553 _c
551 511 539 476 515 447 _c
491 418 459 398 417 388 _c
464 377 501 355 528 323 _c
554 291 568 251 568 205 _c
568 134 546 80 503 43 _c
459 5 398 -13 318 -13 _c
237 -13 175 5 132 43 _c
89 80 68 134 68 205 _c
68 251 81 291 108 323 _c
134 355 171 377 219 388 _c
183 544 _m
183 506 194 476 218 455 _c
}_e{242 434 275 424 318 424 _c
360 424 393 434 417 455 _c
441 476 453 506 453 544 _c
453 582 441 611 417 632 _c
393 653 360 664 318 664 _c
275 664 242 653 218 632 _c
194 611 183 582 183 544 _c
_cl}_e}_d
/equal{838 0 106 172 732 454 _sc
106 454 _m
732 454 _l
732 372 _l
106 372 _l
106 454 _l
106 255 _m
732 255 _l
732 172 _l
106 172 _l
106 255 _l
_cl}_d
/F{575 0 98 0 517 729 _sc
98 729 _m
517 729 _l
517 646 _l
197 646 _l
197 431 _l
486 431 _l
486 348 _l
197 348 _l
197 0 _l
98 0 _l
98 729 _l
_cl}_d
/a{{613 0 60 -13 522 560 _sc
343 275 _m
270 275 220 266 192 250 _c
164 233 150 205 150 165 _c
150 133 160 107 181 89 _c
202 70 231 61 267 61 _c
317 61 357 78 387 114 _c
417 149 432 196 432 255 _c
432 275 _l
343 275 _l
522 312 _m
522 0 _l
432 0 _l
432 83 _l
411 49 385 25 355 10 _c
325 -5 287 -13 243 -13 _c
187 -13 142 2 109 33 _c
76 64 60 106 60 159 _c
}_e{60 220 80 266 122 298 _c
163 329 224 345 306 345 _c
432 345 _l
432 354 _l
432 395 418 427 391 450 _c
364 472 326 484 277 484 _c
245 484 215 480 185 472 _c
155 464 127 453 100 439 _c
100 522 _l
132 534 164 544 195 550 _c
226 556 256 560 286 560 _c
365 560 424 539 463 498 _c
502 457 522 395 522 312 _c
_cl}_e}_d
/b{{635 0 91 -13 580 760 _sc
487 273 _m
487 339 473 390 446 428 _c
418 466 381 485 334 485 _c
286 485 249 466 222 428 _c
194 390 181 339 181 273 _c
181 207 194 155 222 117 _c
249 79 286 61 334 61 _c
381 61 418 79 446 117 _c
473 155 487 207 487 273 _c
181 464 _m
199 496 223 520 252 536 _c
281 552 316 560 356 560 _c
422 560 476 533 518 481 _c
559 428 580 359 580 273 _c
}_e{580 187 559 117 518 65 _c
476 13 422 -13 356 -13 _c
316 -13 281 -5 252 10 _c
223 25 199 49 181 82 _c
181 0 _l
91 0 _l
91 760 _l
181 760 _l
181 464 _l
_cl}_e}_d
/d{{635 0 55 -13 544 760 _sc
454 464 _m
454 760 _l
544 760 _l
544 0 _l
454 0 _l
454 82 _l
435 49 411 25 382 10 _c
353 -5 319 -13 279 -13 _c
213 -13 159 13 117 65 _c
75 117 55 187 55 273 _c
55 359 75 428 117 481 _c
159 533 213 560 279 560 _c
319 560 353 552 382 536 _c
411 520 435 496 454 464 _c
148 273 _m
148 207 161 155 188 117 _c
215 79 253 61 301 61 _c
}_e{348 61 385 79 413 117 _c
440 155 454 207 454 273 _c
454 339 440 390 413 428 _c
385 466 348 485 301 485 _c
253 485 215 466 188 428 _c
161 390 148 339 148 273 _c
_cl}_e}_d
/i{278 0 94 0 184 760 _sc
94 547 _m
184 547 _l
184 0 _l
94 0 _l
94 547 _l
94 760 _m
184 760 _l
184 646 _l
94 646 _l
94 760 _l
_cl}_d
/l{278 0 94 0 184 760 _sc
94 760 _m
184 760 _l
184 0 _l
94 0 _l
94 760 _l
_cl}_d
/m{{974 0 91 0 889 560 _sc
520 442 _m
542 482 569 511 600 531 _c
631 550 668 560 711 560 _c
767 560 811 540 842 500 _c
873 460 889 403 889 330 _c
889 0 _l
799 0 _l
799 327 _l
799 379 789 418 771 444 _c
752 469 724 482 686 482 _c
639 482 602 466 575 435 _c
548 404 535 362 535 309 _c
535 0 _l
445 0 _l
445 327 _l
445 379 435 418 417 444 _c
398 469 369 482 331 482 _c
}_e{285 482 248 466 221 435 _c
194 404 181 362 181 309 _c
181 0 _l
91 0 _l
91 547 _l
181 547 _l
181 462 _l
201 495 226 520 255 536 _c
283 552 317 560 357 560 _c
397 560 430 550 458 530 _c
486 510 506 480 520 442 _c
_cl}_e}_d
/n{634 0 91 0 549 560 _sc
549 330 _m
549 0 _l
459 0 _l
459 327 _l
459 379 448 417 428 443 _c
408 469 378 482 338 482 _c
289 482 251 466 223 435 _c
195 404 181 362 181 309 _c
181 0 _l
91 0 _l
91 547 _l
181 547 _l
181 462 _l
202 494 227 519 257 535 _c
286 551 320 560 358 560 _c
420 560 468 540 500 501 _c
532 462 549 405 549 330 _c
_cl}_d
/o{612 0 55 -13 557 560 _sc
306 484 _m
258 484 220 465 192 427 _c
164 389 150 338 150 273 _c
150 207 163 156 191 118 _c
219 80 257 62 306 62 _c
354 62 392 80 420 118 _c
448 156 462 207 462 273 _c
462 337 448 389 420 427 _c
392 465 354 484 306 484 _c
306 560 _m
384 560 445 534 490 484 _c
534 433 557 363 557 273 _c
557 183 534 113 490 63 _c
445 12 384 -13 306 -13 _c
227 -13 165 12 121 63 _c
77 113 55 183 55 273 _c
55 363 77 433 121 484 _c
165 534 227 560 306 560 _c
_cl}_d
/p{{635 0 91 -207 580 560 _sc
181 82 _m
181 -207 _l
91 -207 _l
91 547 _l
181 547 _l
181 464 _l
199 496 223 520 252 536 _c
281 552 316 560 356 560 _c
422 560 476 533 518 481 _c
559 428 580 359 580 273 _c
580 187 559 117 518 65 _c
476 13 422 -13 356 -13 _c
316 -13 281 -5 252 10 _c
223 25 199 49 181 82 _c
487 273 _m
487 339 473 390 446 428 _c
418 466 381 485 334 485 _c
}_e{286 485 249 466 222 428 _c
194 390 181 339 181 273 _c
181 207 194 155 222 117 _c
249 79 286 61 334 61 _c
381 61 418 79 446 117 _c
473 155 487 207 487 273 _c
_cl}_e}_d
/r{411 0 91 0 411 560 _sc
411 463 _m
401 469 390 473 378 476 _c
366 478 353 480 339 480 _c
288 480 249 463 222 430 _c
194 397 181 350 181 288 _c
181 0 _l
91 0 _l
91 547 _l
181 547 _l
181 462 _l
199 495 224 520 254 536 _c
284 552 321 560 365 560 _c
371 560 378 559 386 559 _c
393 558 401 557 411 555 _c
411 463 _l
_cl}_d
/s{{521 0 54 -13 472 560 _sc
443 531 _m
443 446 _l
417 458 391 468 364 475 _c
336 481 308 485 279 485 _c
234 485 200 478 178 464 _c
156 450 145 430 145 403 _c
145 382 153 366 169 354 _c
185 342 217 330 265 320 _c
296 313 _l
360 299 405 279 432 255 _c
458 230 472 195 472 151 _c
472 100 452 60 412 31 _c
372 1 316 -13 246 -13 _c
216 -13 186 -10 154 -5 _c
}_e{122 0 89 8 54 20 _c
54 113 _l
87 95 120 82 152 74 _c
184 65 216 61 248 61 _c
290 61 323 68 346 82 _c
368 96 380 117 380 144 _c
380 168 371 187 355 200 _c
339 213 303 226 247 238 _c
216 245 _l
160 257 119 275 95 299 _c
70 323 58 356 58 399 _c
58 450 76 490 112 518 _c
148 546 200 560 268 560 _c
301 560 332 557 362 552 _c
391 547 418 540 443 531 _c
}_e{_cl}_e}_d
/t{392 0 27 0 368 702 _sc
183 702 _m
183 547 _l
368 547 _l
368 477 _l
183 477 _l
183 180 _l
183 135 189 106 201 94 _c
213 81 238 75 276 75 _c
368 75 _l
368 0 _l
276 0 _l
206 0 158 13 132 39 _c
106 65 93 112 93 180 _c
93 477 _l
27 477 _l
27 547 _l
93 547 _l
93 702 _l
183 702 _l
_cl}_d
/u{634 0 85 -13 543 560 _sc
85 216 _m
85 547 _l
175 547 _l
175 219 _l
175 167 185 129 205 103 _c
225 77 255 64 296 64 _c
344 64 383 79 411 110 _c
439 141 453 183 453 237 _c
453 547 _l
543 547 _l
543 0 _l
453 0 _l
453 84 _l
431 50 405 26 377 10 _c
348 -5 315 -13 277 -13 _c
214 -13 166 6 134 45 _c
101 83 85 140 85 216 _c
311 560 _m
311 560 _l
_cl}_d
/epsilon{{541 0 65 -13 473 561 _sc
193 295 _m
156 303 128 317 109 338 _c
89 359 80 385 80 415 _c
80 461 98 496 135 522 _c
171 548 222 561 286 561 _c
310 561 336 559 364 555 _c
392 551 422 545 454 537 _c
454 456 _l
422 465 394 472 368 476 _c
341 480 316 482 293 482 _c
254 482 224 474 202 460 _c
178 445 167 427 167 406 _c
167 383 178 364 201 350 _c
222 336 252 329 290 329 _c
}_e{366 329 _l
366 254 _l
293 254 _l
249 254 215 245 191 229 _c
165 211 153 187 153 159 _c
153 129 166 106 194 88 _c
222 70 260 61 310 61 _c
340 61 368 63 396 69 _c
424 75 449 85 473 97 _c
473 13 _l
443 4 415 -2 388 -6 _c
360 -10 333 -13 307 -13 _c
229 -13 170 1 128 30 _c
86 60 65 103 65 159 _c
65 194 76 223 98 247 _c
120 271 152 287 193 295 _c
_cl}_e}_d
end readonly def

/BuildGlyph
 {exch begin
 CharStrings exch
 2 copy known not{pop /.notdef}if
 true 3 1 roll get exec
 end}_d

/BuildChar {
 1 index /Encoding get exch get
 1 index /BuildGlyph get exec
}_d

FontName currentdict end definefont pop
end
%%EndProlog
mpldict begin
666.628 -166.755 translate
90 rotate
1125.51 721.256 0 0 clipbox
gsave
0 0 m
1125.51 0 l
1125.51 721.25575 l
0 721.25575 l
cl
1.000 setgray
fill
grestore
gsave
46.95 364.13575 m
362.055882 364.13575 l
362.055882 636.29575 l
46.95 636.29575 l
cl
1.000 setgray
fill
grestore
gsave
315.1 272.2 46.95 364.1 clipbox
61.272995 364.13575 m
70.224866 364.13575 l
70.224866 409.709376 l
61.272995 409.709376 l
cl
0.122 0.467 0.706 setrgbcolor
fill
grestore
gsave
315.1 272.2 46.95 364.1 clipbox
70.224866 364.13575 m
79.176738 364.13575 l
79.176738 623.33575 l
70.224866 623.33575 l
cl
0.122 0.467 0.706 setrgbcolor
fill
grestore
gsave
315.1 272.2 46.95 364.1 clipbox
79.176738 364.13575 m
88.12861 364.13575 l
88.12861 412.557728 l
79.176738 412.557728 l
cl
0.122 0.467 0.706 setrgbcolor
fill
grestore
gsave
315.1 272.2 46.95 364.1 clipbox
88.12861 364.13575 m
97.080481 364.13575 l
97.080481 513.674212 l
88.12861 513.674212 l
cl
0.122 0.467 0.706 setrgbcolor
fill
grestore
gsave
315.1 272.2 46.95 364.1 clipbox
97.080481 364.13575 m
106.032353 364.13575 l
106.032353 523.643442 l
97.080481 523.643442 l
cl
0.122 0.467 0.706 setrgbcolor
fill
grestore
gsave
315.1 272.2 46.95 364.1 clipbox
106.032353 364.13575 m
114.984225 364.13575 l
114.984225 411.133552 l
106.032353 411.133552 l
cl
0.122 0.467 0.706 setrgbcolor
fill
grestore
gsave
315.1 272.2 46.95 364.1 clipbox
114.984225 364.13575 m
123.936096 364.13575 l
123.936096 480.918168 l
114.984225 480.918168 l
cl
0.122 0.467 0.706 setrgbcolor
fill
grestore
gsave
315.1 272.2 46.95 364.1 clipbox
123.936096 364.13575 m
132.887968 364.13575 l
132.887968 523.643442 l
123.936096 523.643442 l
cl
0.122 0.467 0.706 setrgbcolor
fill
grestore
gsave
315.1 272.2 46.95 364.1 clipbox
132.887968 364.13575 m
141.83984 364.13575 l
141.83984 468.100585 l
132.887968 468.100585 l
cl
0.122 0.467 0.706 setrgbcolor
fill
grestore
gsave
315.1 272.2 46.95 364.1 clipbox
141.83984 364.13575 m
150.791711 364.13575 l
150.791711 438.192893 l
141.83984 438.192893 l
cl
0.122 0.467 0.706 setrgbcolor
fill
grestore
gsave
315.1 272.2 46.95 364.1 clipbox
150.791711 364.13575 m
159.743583 364.13575 l
159.743583 529.340146 l
150.791711 529.340146 l
cl
0.122 0.467 0.706 setrgbcolor
fill
grestore
gsave
315.1 272.2 46.95 364.1 clipbox
159.743583 364.13575 m
168.695455 364.13575 l
168.695455 482.342343 l
159.743583 482.342343 l
cl
0.122 0.467 0.706 setrgbcolor
fill
grestore
gsave
315.1 272.2 46.95 364.1 clipbox
168.695455 364.13575 m
177.647326 364.13575 l
177.647326 456.707179 l
168.695455 456.707179 l
cl
0.122 0.467 0.706 setrgbcolor
fill
grestore
gsave
315.1 272.2 46.95 364.1 clipbox
177.647326 364.13575 m
186.599198 364.13575 l
186.599198 473.797288 l
177.647326 473.797288 l
cl
0.122 0.467 0.706 setrgbcolor
fill
grestore
gsave
315.1 272.2 46.95 364.1 clipbox
186.599198 364.13575 m
195.55107 364.13575 l
195.55107 445.313772 l
186.599198 445.313772 l
cl
0.122 0.467 0.706 setrgbcolor
fill
grestore
gsave
315.1 272.2 46.95 364.1 clipbox
195.55107 364.13575 m
204.502941 364.13575 l
204.502941 502.280805 l
195.55107 502.280805 l
cl
0.122 0.467 0.706 setrgbcolor
fill
grestore
gsave
315.1 272.2 46.95 364.1 clipbox
204.502941 364.13575 m
213.454813 364.13575 l
213.454813 469.524761 l
204.502941 469.524761 l
cl
0.122 0.467 0.706 setrgbcolor
fill
grestore
gsave
315.1 272.2 46.95 364.1 clipbox
213.454813 364.13575 m
222.406684 364.13575 l
222.406684 443.889596 l
213.454813 443.889596 l
cl
0.122 0.467 0.706 setrgbcolor
fill
grestore
gsave
315.1 272.2 46.95 364.1 clipbox
222.406684 364.13575 m
231.358556 364.13575 l
231.358556 455.283003 l
222.406684 455.283003 l
cl
0.122 0.467 0.706 setrgbcolor
fill
grestore
gsave
315.1 272.2 46.95 364.1 clipbox
231.358556 364.13575 m
240.310428 364.13575 l
240.310428 475.221464 l
231.358556 475.221464 l
cl
0.122 0.467 0.706 setrgbcolor
fill
grestore
gsave
315.1 272.2 46.95 364.1 clipbox
240.310428 364.13575 m
249.262299 364.13575 l
249.262299 483.766519 l
240.310428 483.766519 l
cl
0.122 0.467 0.706 setrgbcolor
fill
grestore
gsave
315.1 272.2 46.95 364.1 clipbox
249.262299 364.13575 m
258.214171 364.13575 l
258.214171 455.283003 l
249.262299 455.283003 l
cl
0.122 0.467 0.706 setrgbcolor
fill
grestore
gsave
315.1 272.2 46.95 364.1 clipbox
258.214171 364.13575 m
267.166043 364.13575 l
267.166043 439.617069 l
258.214171 439.617069 l
cl
0.122 0.467 0.706 setrgbcolor
fill
grestore
gsave
315.1 272.2 46.95 364.1 clipbox
267.166043 364.13575 m
276.117914 364.13575 l
276.117914 567.792893 l
267.166043 567.792893 l
cl
0.122 0.467 0.706 setrgbcolor
fill
grestore
gsave
315.1 272.2 46.95 364.1 clipbox
276.117914 364.13575 m
285.069786 364.13575 l
285.069786 443.889596 l
276.117914 443.889596 l
cl
0.122 0.467 0.706 setrgbcolor
fill
grestore
gsave
315.1 272.2 46.95 364.1 clipbox
285.069786 364.13575 m
294.021658 364.13575 l
294.021658 413.981904 l
285.069786 413.981904 l
cl
0.122 0.467 0.706 setrgbcolor
fill
grestore
gsave
315.1 272.2 46.95 364.1 clipbox
294.021658 364.13575 m
302.973529 364.13575 l
302.973529 553.551135 l
294.021658 553.551135 l
cl
0.122 0.467 0.706 setrgbcolor
fill
grestore
gsave
315.1 272.2 46.95 364.1 clipbox
302.973529 364.13575 m
311.925401 364.13575 l
311.925401 445.313772 l
302.973529 445.313772 l
cl
0.122 0.467 0.706 setrgbcolor
fill
grestore
gsave
315.1 272.2 46.95 364.1 clipbox
311.925401 364.13575 m
320.877273 364.13575 l
320.877273 412.557728 l
311.925401 412.557728 l
cl
0.122 0.467 0.706 setrgbcolor
fill
grestore
gsave
315.1 272.2 46.95 364.1 clipbox
320.877273 364.13575 m
329.829144 364.13575 l
329.829144 503.704981 l
320.877273 503.704981 l
cl
0.122 0.467 0.706 setrgbcolor
fill
grestore
gsave
315.1 272.2 46.95 364.1 clipbox
329.829144 364.13575 m
338.781016 364.13575 l
338.781016 552.126959 l
329.829144 552.126959 l
cl
0.122 0.467 0.706 setrgbcolor
fill
grestore
gsave
315.1 272.2 46.95 364.1 clipbox
338.781016 364.13575 m
347.732888 364.13575 l
347.732888 402.588497 l
338.781016 402.588497 l
cl
0.122 0.467 0.706 setrgbcolor
fill
grestore
0.800 setlinewidth
1 setlinejoin
0 setlinecap
[] 0 setdash
0.000 setgray
gsave
/o {
gsave
newpath
translate
0.8 setlinewidth
1 setlinejoin
0 setlinecap
0 0 m
0 -3.5 l

gsave
0.000 setgray
fill
grestore
stroke
grestore
} bind def
61.273 364.136 o
grestore
/DejaVuSans findfont
10.000 scalefont
setfont
gsave
58.093307 349.542000 translate
0.000000 rotate
0.000000 0 m /zero glyphshow
grestore
gsave
/o {
gsave
newpath
translate
0.8 setlinewidth
1 setlinejoin
0 setlinecap
0 0 m
0 -3.5 l

gsave
0.000 setgray
fill
grestore
stroke
grestore
} bind def
117.222 364.136 o
grestore
gsave
110.862818 349.542000 translate
0.000000 rotate
0.000000 0 m /five glyphshow
6.362305 0 m /zero glyphshow
grestore
gsave
/o {
gsave
newpath
translate
0.8 setlinewidth
1 setlinejoin
0 setlinecap
0 0 m
0 -3.5 l

gsave
0.000 setgray
fill
grestore
stroke
grestore
} bind def
173.171 364.136 o
grestore
gsave
163.632328 349.542000 translate
0.000000 rotate
0.000000 0 m /one glyphshow
6.362305 0 m /zero glyphshow
12.724609 0 m /zero glyphshow
grestore
gsave
/o {
gsave
newpath
translate
0.8 setlinewidth
1 setlinejoin
0 setlinecap
0 0 m
0 -3.5 l

gsave
0.000 setgray
fill
grestore
stroke
grestore
} bind def
229.121 364.136 o
grestore
gsave
219.581526 349.542000 translate
0.000000 rotate
0.000000 0 m /one glyphshow
6.362305 0 m /five glyphshow
12.724609 0 m /zero glyphshow
grestore
gsave
/o {
gsave
newpath
translate
0.8 setlinewidth
1 setlinejoin
0 setlinecap
0 0 m
0 -3.5 l

gsave
0.000 setgray
fill
grestore
stroke
grestore
} bind def
285.07 364.136 o
grestore
gsave
275.530724 349.542000 translate
0.000000 rotate
0.000000 0 m /two glyphshow
6.362305 0 m /zero glyphshow
12.724609 0 m /zero glyphshow
grestore
gsave
/o {
gsave
newpath
translate
0.8 setlinewidth
1 setlinejoin
0 setlinecap
0 0 m
0 -3.5 l

gsave
0.000 setgray
fill
grestore
stroke
grestore
} bind def
341.019 364.136 o
grestore
gsave
331.479921 349.542000 translate
0.000000 rotate
0.000000 0 m /two glyphshow
6.362305 0 m /five glyphshow
12.724609 0 m /zero glyphshow
grestore
gsave
186.081066 335.870125 translate
0.000000 rotate
0.000000 0 m /o glyphshow
6.118164 0 m /p glyphshow
12.465820 0 m /i glyphshow
15.244141 0 m /n glyphshow
21.582031 0 m /i glyphshow
24.360352 0 m /o glyphshow
30.478516 0 m /n glyphshow
grestore
gsave
/o {
gsave
newpath
translate
0.8 setlinewidth
1 setlinejoin
0 setlinecap
0 0 m
-3.5 0 l

gsave
0.000 setgray
fill
grestore
stroke
grestore
} bind def
46.95 364.136 o
grestore
gsave
33.590625 360.338875 translate
0.000000 rotate
0.000000 0 m /zero glyphshow
grestore
gsave
/o {
gsave
newpath
translate
0.8 setlinewidth
1 setlinejoin
0 setlinecap
0 0 m
-3.5 0 l

gsave
0.000 setgray
fill
grestore
stroke
grestore
} bind def
46.95 399.74 o
grestore
gsave
27.231250 395.943271 translate
0.000000 rotate
0.000000 0 m /two glyphshow
6.362305 0 m /five glyphshow
grestore
gsave
/o {
gsave
newpath
translate
0.8 setlinewidth
1 setlinejoin
0 setlinecap
0 0 m
-3.5 0 l

gsave
0.000 setgray
fill
grestore
stroke
grestore
} bind def
46.95 435.345 o
grestore
gsave
27.231250 431.547666 translate
0.000000 rotate
0.000000 0 m /five glyphshow
6.362305 0 m /zero glyphshow
grestore
gsave
/o {
gsave
newpath
translate
0.8 setlinewidth
1 setlinejoin
0 setlinecap
0 0 m
-3.5 0 l

gsave
0.000 setgray
fill
grestore
stroke
grestore
} bind def
46.95 470.949 o
grestore
gsave
27.231250 467.152062 translate
0.000000 rotate
0.000000 0 m /seven glyphshow
6.362305 0 m /five glyphshow
grestore
gsave
/o {
gsave
newpath
translate
0.8 setlinewidth
1 setlinejoin
0 setlinecap
0 0 m
-3.5 0 l

gsave
0.000 setgray
fill
grestore
stroke
grestore
} bind def
46.95 506.553 o
grestore
gsave
20.871875 502.756457 translate
0.000000 rotate
0.000000 0 m /one glyphshow
6.362305 0 m /zero glyphshow
12.724609 0 m /zero glyphshow
grestore
gsave
/o {
gsave
newpath
translate
0.8 setlinewidth
1 setlinejoin
0 setlinecap
0 0 m
-3.5 0 l

gsave
0.000 setgray
fill
grestore
stroke
grestore
} bind def
46.95 542.158 o
grestore
gsave
20.871875 538.360853 translate
0.000000 rotate
0.000000 0 m /one glyphshow
6.362305 0 m /two glyphshow
12.724609 0 m /five glyphshow
grestore
gsave
/o {
gsave
newpath
translate
0.8 setlinewidth
1 setlinejoin
0 setlinecap
0 0 m
-3.5 0 l

gsave
0.000 setgray
fill
grestore
stroke
grestore
} bind def
46.95 577.762 o
grestore
gsave
20.871875 573.965249 translate
0.000000 rotate
0.000000 0 m /one glyphshow
6.362305 0 m /five glyphshow
12.724609 0 m /zero glyphshow
grestore
gsave
/o {
gsave
newpath
translate
0.8 setlinewidth
1 setlinejoin
0 setlinecap
0 0 m
-3.5 0 l

gsave
0.000 setgray
fill
grestore
stroke
grestore
} bind def
46.95 613.367 o
grestore
gsave
20.871875 609.569644 translate
0.000000 rotate
0.000000 0 m /one glyphshow
6.362305 0 m /seven glyphshow
12.724609 0 m /five glyphshow
grestore
gsave
14.793750 485.786063 translate
90.000000 rotate
0.000000 0 m /o glyphshow
6.118164 0 m /o glyphshow
12.236328 0 m /u glyphshow
18.574219 0 m /n glyphshow
24.912109 0 m /t glyphshow
grestore
0 setlinejoin
2 setlinecap
[] 0 setdash
gsave
46.95 364.13575 m
46.95 636.29575 l
stroke
grestore
gsave
362.055882 364.13575 m
362.055882 636.29575 l
stroke
grestore
gsave
46.95 364.13575 m
362.055882 364.13575 l
stroke
grestore
gsave
46.95 636.29575 m
362.055882 636.29575 l
stroke
grestore
/DejaVuSans findfont
12.000 scalefont
setfont
gsave
156.729504 642.295750 translate
0.000000 rotate
0.000000 0 m /m glyphshow
11.689453 0 m /space glyphshow
15.503906 0 m /equal glyphshow
25.558594 0 m /space glyphshow
29.373047 0 m /zero glyphshow
37.007812 0 m /period glyphshow
40.822266 0 m /three glyphshow
48.457031 0 m /comma glyphshow
52.271484 0 m /space glyphshow
56.085938 0 m /epsilon glyphshow
62.572266 0 m /space glyphshow
66.386719 0 m /equal glyphshow
76.441406 0 m /space glyphshow
80.255859 0 m /one glyphshow
87.890625 0 m /zero glyphshow
grestore
gsave
425.077059 364.13575 m
740.182941 364.13575 l
740.182941 636.29575 l
425.077059 636.29575 l
cl
1.000 setgray
fill
grestore
gsave
315.1 272.2 425.1 364.1 clipbox
439.400053 364.13575 m
448.351925 364.13575 l
448.351925 364.13575 l
439.400053 364.13575 l
cl
0.122 0.467 0.706 setrgbcolor
fill
grestore
gsave
315.1 272.2 425.1 364.1 clipbox
448.351925 364.13575 m
457.303797 364.13575 l
457.303797 364.13575 l
448.351925 364.13575 l
cl
0.122 0.467 0.706 setrgbcolor
fill
grestore
gsave
315.1 272.2 425.1 364.1 clipbox
457.303797 364.13575 m
466.255668 364.13575 l
466.255668 364.13575 l
457.303797 364.13575 l
cl
0.122 0.467 0.706 setrgbcolor
fill
grestore
gsave
315.1 272.2 425.1 364.1 clipbox
466.255668 364.13575 m
475.20754 364.13575 l
475.20754 364.13575 l
466.255668 364.13575 l
cl
0.122 0.467 0.706 setrgbcolor
fill
grestore
gsave
315.1 272.2 425.1 364.1 clipbox
475.20754 364.13575 m
484.159412 364.13575 l
484.159412 364.13575 l
475.20754 364.13575 l
cl
0.122 0.467 0.706 setrgbcolor
fill
grestore
gsave
315.1 272.2 425.1 364.1 clipbox
484.159412 364.13575 m
493.111283 364.13575 l
493.111283 364.13575 l
484.159412 364.13575 l
cl
0.122 0.467 0.706 setrgbcolor
fill
grestore
gsave
315.1 272.2 425.1 364.1 clipbox
493.111283 364.13575 m
502.063155 364.13575 l
502.063155 364.13575 l
493.111283 364.13575 l
cl
0.122 0.467 0.706 setrgbcolor
fill
grestore
gsave
315.1 272.2 425.1 364.1 clipbox
502.063155 364.13575 m
511.015027 364.13575 l
511.015027 583.631115 l
502.063155 583.631115 l
cl
0.122 0.467 0.706 setrgbcolor
fill
grestore
gsave
315.1 272.2 425.1 364.1 clipbox
511.015027 364.13575 m
519.966898 364.13575 l
519.966898 364.13575 l
511.015027 364.13575 l
cl
0.122 0.467 0.706 setrgbcolor
fill
grestore
gsave
315.1 272.2 425.1 364.1 clipbox
519.966898 364.13575 m
528.91877 364.13575 l
528.91877 364.13575 l
519.966898 364.13575 l
cl
0.122 0.467 0.706 setrgbcolor
fill
grestore
gsave
315.1 272.2 425.1 364.1 clipbox
528.91877 364.13575 m
537.870642 364.13575 l
537.870642 364.13575 l
528.91877 364.13575 l
cl
0.122 0.467 0.706 setrgbcolor
fill
grestore
gsave
315.1 272.2 425.1 364.1 clipbox
537.870642 364.13575 m
546.822513 364.13575 l
546.822513 364.13575 l
537.870642 364.13575 l
cl
0.122 0.467 0.706 setrgbcolor
fill
grestore
gsave
315.1 272.2 425.1 364.1 clipbox
546.822513 364.13575 m
555.774385 364.13575 l
555.774385 364.13575 l
546.822513 364.13575 l
cl
0.122 0.467 0.706 setrgbcolor
fill
grestore
gsave
315.1 272.2 425.1 364.1 clipbox
555.774385 364.13575 m
564.726257 364.13575 l
564.726257 364.13575 l
555.774385 364.13575 l
cl
0.122 0.467 0.706 setrgbcolor
fill
grestore
gsave
315.1 272.2 425.1 364.1 clipbox
564.726257 364.13575 m
573.678128 364.13575 l
573.678128 364.746591 l
564.726257 364.746591 l
cl
0.122 0.467 0.706 setrgbcolor
fill
grestore
gsave
315.1 272.2 425.1 364.1 clipbox
573.678128 364.13575 m
582.63 364.13575 l
582.63 364.339364 l
573.678128 364.339364 l
cl
0.122 0.467 0.706 setrgbcolor
fill
grestore
gsave
315.1 272.2 425.1 364.1 clipbox
582.63 364.13575 m
591.581872 364.13575 l
591.581872 364.13575 l
582.63 364.13575 l
cl
0.122 0.467 0.706 setrgbcolor
fill
grestore
gsave
315.1 272.2 425.1 364.1 clipbox
591.581872 364.13575 m
600.533743 364.13575 l
600.533743 364.13575 l
591.581872 364.13575 l
cl
0.122 0.467 0.706 setrgbcolor
fill
grestore
gsave
315.1 272.2 425.1 364.1 clipbox
600.533743 364.13575 m
609.485615 364.13575 l
609.485615 364.13575 l
600.533743 364.13575 l
cl
0.122 0.467 0.706 setrgbcolor
fill
grestore
gsave
315.1 272.2 425.1 364.1 clipbox
609.485615 364.13575 m
618.437487 364.13575 l
618.437487 364.13575 l
609.485615 364.13575 l
cl
0.122 0.467 0.706 setrgbcolor
fill
grestore
gsave
315.1 272.2 425.1 364.1 clipbox
618.437487 364.13575 m
627.389358 364.13575 l
627.389358 364.13575 l
618.437487 364.13575 l
cl
0.122 0.467 0.706 setrgbcolor
fill
grestore
gsave
315.1 272.2 425.1 364.1 clipbox
627.389358 364.13575 m
636.34123 364.13575 l
636.34123 393.659709 l
627.389358 393.659709 l
cl
0.122 0.467 0.706 setrgbcolor
fill
grestore
gsave
315.1 272.2 425.1 364.1 clipbox
636.34123 364.13575 m
645.293102 364.13575 l
645.293102 623.33575 l
636.34123 623.33575 l
cl
0.122 0.467 0.706 setrgbcolor
fill
grestore
gsave
315.1 272.2 425.1 364.1 clipbox
645.293102 364.13575 m
654.244973 364.13575 l
654.244973 364.13575 l
645.293102 364.13575 l
cl
0.122 0.467 0.706 setrgbcolor
fill
grestore
gsave
315.1 272.2 425.1 364.1 clipbox
654.244973 364.13575 m
663.196845 364.13575 l
663.196845 364.13575 l
654.244973 364.13575 l
cl
0.122 0.467 0.706 setrgbcolor
fill
grestore
gsave
315.1 272.2 425.1 364.1 clipbox
663.196845 364.13575 m
672.148717 364.13575 l
672.148717 364.13575 l
663.196845 364.13575 l
cl
0.122 0.467 0.706 setrgbcolor
fill
grestore
gsave
315.1 272.2 425.1 364.1 clipbox
672.148717 364.13575 m
681.100588 364.13575 l
681.100588 364.13575 l
672.148717 364.13575 l
cl
0.122 0.467 0.706 setrgbcolor
fill
grestore
gsave
315.1 272.2 425.1 364.1 clipbox
681.100588 364.13575 m
690.05246 364.13575 l
690.05246 364.13575 l
681.100588 364.13575 l
cl
0.122 0.467 0.706 setrgbcolor
fill
grestore
gsave
315.1 272.2 425.1 364.1 clipbox
690.05246 364.13575 m
699.004332 364.13575 l
699.004332 364.13575 l
690.05246 364.13575 l
cl
0.122 0.467 0.706 setrgbcolor
fill
grestore
gsave
315.1 272.2 425.1 364.1 clipbox
699.004332 364.13575 m
707.956203 364.13575 l
707.956203 364.13575 l
699.004332 364.13575 l
cl
0.122 0.467 0.706 setrgbcolor
fill
grestore
gsave
315.1 272.2 425.1 364.1 clipbox
707.956203 364.13575 m
716.908075 364.13575 l
716.908075 364.13575 l
707.956203 364.13575 l
cl
0.122 0.467 0.706 setrgbcolor
fill
grestore
gsave
315.1 272.2 425.1 364.1 clipbox
716.908075 364.13575 m
725.859947 364.13575 l
725.859947 364.13575 l
716.908075 364.13575 l
cl
0.122 0.467 0.706 setrgbcolor
fill
grestore
1 setlinejoin
0 setlinecap
[] 0 setdash
gsave
/o {
gsave
newpath
translate
0.8 setlinewidth
1 setlinejoin
0 setlinecap
0 0 m
0 -3.5 l

gsave
0.000 setgray
fill
grestore
stroke
grestore
} bind def
439.4 364.136 o
grestore
/DejaVuSans findfont
10.000 scalefont
setfont
gsave
436.220366 349.542000 translate
0.000000 rotate
0.000000 0 m /zero glyphshow
grestore
gsave
/o {
gsave
newpath
translate
0.8 setlinewidth
1 setlinejoin
0 setlinecap
0 0 m
0 -3.5 l

gsave
0.000 setgray
fill
grestore
stroke
grestore
} bind def
495.349 364.136 o
grestore
gsave
488.989876 349.542000 translate
0.000000 rotate
0.000000 0 m /five glyphshow
6.362305 0 m /zero glyphshow
grestore
gsave
/o {
gsave
newpath
translate
0.8 setlinewidth
1 setlinejoin
0 setlinecap
0 0 m
0 -3.5 l

gsave
0.000 setgray
fill
grestore
stroke
grestore
} bind def
551.298 364.136 o
grestore
gsave
541.759387 349.542000 translate
0.000000 rotate
0.000000 0 m /one glyphshow
6.362305 0 m /zero glyphshow
12.724609 0 m /zero glyphshow
grestore
gsave
/o {
gsave
newpath
translate
0.8 setlinewidth
1 setlinejoin
0 setlinecap
0 0 m
0 -3.5 l

gsave
0.000 setgray
fill
grestore
stroke
grestore
} bind def
607.248 364.136 o
grestore
gsave
597.708585 349.542000 translate
0.000000 rotate
0.000000 0 m /one glyphshow
6.362305 0 m /five glyphshow
12.724609 0 m /zero glyphshow
grestore
gsave
/o {
gsave
newpath
translate
0.8 setlinewidth
1 setlinejoin
0 setlinecap
0 0 m
0 -3.5 l

gsave
0.000 setgray
fill
grestore
stroke
grestore
} bind def
663.197 364.136 o
grestore
gsave
653.657782 349.542000 translate
0.000000 rotate
0.000000 0 m /two glyphshow
6.362305 0 m /zero glyphshow
12.724609 0 m /zero glyphshow
grestore
gsave
/o {
gsave
newpath
translate
0.8 setlinewidth
1 setlinejoin
0 setlinecap
0 0 m
0 -3.5 l

gsave
0.000 setgray
fill
grestore
stroke
grestore
} bind def
719.146 364.136 o
grestore
gsave
709.606980 349.542000 translate
0.000000 rotate
0.000000 0 m /two glyphshow
6.362305 0 m /five glyphshow
12.724609 0 m /zero glyphshow
grestore
gsave
564.208125 335.870125 translate
0.000000 rotate
0.000000 0 m /o glyphshow
6.118164 0 m /p glyphshow
12.465820 0 m /i glyphshow
15.244141 0 m /n glyphshow
21.582031 0 m /i glyphshow
24.360352 0 m /o glyphshow
30.478516 0 m /n glyphshow
grestore
gsave
/o {
gsave
newpath
translate
0.8 setlinewidth
1 setlinejoin
0 setlinecap
0 0 m
-3.5 0 l

gsave
0.000 setgray
fill
grestore
stroke
grestore
} bind def
425.077 364.136 o
grestore
gsave
411.717684 360.338875 translate
0.000000 rotate
0.000000 0 m /zero glyphshow
grestore
gsave
/o {
gsave
newpath
translate
0.8 setlinewidth
1 setlinejoin
0 setlinecap
0 0 m
-3.5 0 l

gsave
0.000 setgray
fill
grestore
stroke
grestore
} bind def
425.077 404.858 o
grestore
gsave
398.998934 401.061577 translate
0.000000 rotate
0.000000 0 m /two glyphshow
6.362305 0 m /zero glyphshow
12.724609 0 m /zero glyphshow
grestore
gsave
/o {
gsave
newpath
translate
0.8 setlinewidth
1 setlinejoin
0 setlinecap
0 0 m
-3.5 0 l

gsave
0.000 setgray
fill
grestore
stroke
grestore
} bind def
425.077 445.581 o
grestore
gsave
398.998934 441.784280 translate
0.000000 rotate
0.000000 0 m /four glyphshow
6.362305 0 m /zero glyphshow
12.724609 0 m /zero glyphshow
grestore
gsave
/o {
gsave
newpath
translate
0.8 setlinewidth
1 setlinejoin
0 setlinecap
0 0 m
-3.5 0 l

gsave
0.000 setgray
fill
grestore
stroke
grestore
} bind def
425.077 486.304 o
grestore
gsave
398.998934 482.506982 translate
0.000000 rotate
0.000000 0 m /six glyphshow
6.362305 0 m /zero glyphshow
12.724609 0 m /zero glyphshow
grestore
gsave
/o {
gsave
newpath
translate
0.8 setlinewidth
1 setlinejoin
0 setlinecap
0 0 m
-3.5 0 l

gsave
0.000 setgray
fill
grestore
stroke
grestore
} bind def
425.077 527.027 o
grestore
gsave
398.998934 523.229684 translate
0.000000 rotate
0.000000 0 m /eight glyphshow
6.362305 0 m /zero glyphshow
12.724609 0 m /zero glyphshow
grestore
gsave
/o {
gsave
newpath
translate
0.8 setlinewidth
1 setlinejoin
0 setlinecap
0 0 m
-3.5 0 l

gsave
0.000 setgray
fill
grestore
stroke
grestore
} bind def
425.077 567.749 o
grestore
gsave
392.639559 563.952386 translate
0.000000 rotate
0.000000 0 m /one glyphshow
6.362305 0 m /zero glyphshow
12.724609 0 m /zero glyphshow
19.086914 0 m /zero glyphshow
grestore
gsave
/o {
gsave
newpath
translate
0.8 setlinewidth
1 setlinejoin
0 setlinecap
0 0 m
-3.5 0 l

gsave
0.000 setgray
fill
grestore
stroke
grestore
} bind def
425.077 608.472 o
grestore
gsave
392.639559 604.675089 translate
0.000000 rotate
0.000000 0 m /one glyphshow
6.362305 0 m /two glyphshow
12.724609 0 m /zero glyphshow
19.086914 0 m /zero glyphshow
grestore
gsave
386.561434 485.786063 translate
90.000000 rotate
0.000000 0 m /o glyphshow
6.118164 0 m /o glyphshow
12.236328 0 m /u glyphshow
18.574219 0 m /n glyphshow
24.912109 0 m /t glyphshow
grestore
0 setlinejoin
2 setlinecap
[] 0 setdash
gsave
425.077059 364.13575 m
425.077059 636.29575 l
stroke
grestore
gsave
740.182941 364.13575 m
740.182941 636.29575 l
stroke
grestore
gsave
425.077059 364.13575 m
740.182941 364.13575 l
stroke
grestore
gsave
425.077059 636.29575 m
740.182941 636.29575 l
stroke
grestore
/DejaVuSans findfont
12.000 scalefont
setfont
gsave
534.856562 642.295750 translate
0.000000 rotate
0.000000 0 m /m glyphshow
11.689453 0 m /space glyphshow
15.503906 0 m /equal glyphshow
25.558594 0 m /space glyphshow
29.373047 0 m /zero glyphshow
37.007812 0 m /period glyphshow
40.822266 0 m /three glyphshow
48.457031 0 m /comma glyphshow
52.271484 0 m /space glyphshow
56.085938 0 m /epsilon glyphshow
62.572266 0 m /space glyphshow
66.386719 0 m /equal glyphshow
76.441406 0 m /space glyphshow
80.255859 0 m /five glyphshow
87.890625 0 m /zero glyphshow
grestore
gsave
803.204118 364.13575 m
1118.31 364.13575 l
1118.31 636.29575 l
803.204118 636.29575 l
cl
1.000 setgray
fill
grestore
gsave
315.1 272.2 803.2 364.1 clipbox
817.527112 364.13575 m
826.478984 364.13575 l
826.478984 364.13575 l
817.527112 364.13575 l
cl
0.122 0.467 0.706 setrgbcolor
fill
grestore
gsave
315.1 272.2 803.2 364.1 clipbox
826.478984 364.13575 m
835.430856 364.13575 l
835.430856 364.13575 l
826.478984 364.13575 l
cl
0.122 0.467 0.706 setrgbcolor
fill
grestore
gsave
315.1 272.2 803.2 364.1 clipbox
835.430856 364.13575 m
844.382727 364.13575 l
844.382727 364.13575 l
835.430856 364.13575 l
cl
0.122 0.467 0.706 setrgbcolor
fill
grestore
gsave
315.1 272.2 803.2 364.1 clipbox
844.382727 364.13575 m
853.334599 364.13575 l
853.334599 364.13575 l
844.382727 364.13575 l
cl
0.122 0.467 0.706 setrgbcolor
fill
grestore
gsave
315.1 272.2 803.2 364.1 clipbox
853.334599 364.13575 m
862.286471 364.13575 l
862.286471 364.13575 l
853.334599 364.13575 l
cl
0.122 0.467 0.706 setrgbcolor
fill
grestore
gsave
315.1 272.2 803.2 364.1 clipbox
862.286471 364.13575 m
871.238342 364.13575 l
871.238342 364.13575 l
862.286471 364.13575 l
cl
0.122 0.467 0.706 setrgbcolor
fill
grestore
gsave
315.1 272.2 803.2 364.1 clipbox
871.238342 364.13575 m
880.190214 364.13575 l
880.190214 364.13575 l
871.238342 364.13575 l
cl
0.122 0.467 0.706 setrgbcolor
fill
grestore
gsave
315.1 272.2 803.2 364.1 clipbox
880.190214 364.13575 m
889.142086 364.13575 l
889.142086 364.13575 l
880.190214 364.13575 l
cl
0.122 0.467 0.706 setrgbcolor
fill
grestore
gsave
315.1 272.2 803.2 364.1 clipbox
889.142086 364.13575 m
898.093957 364.13575 l
898.093957 364.13575 l
889.142086 364.13575 l
cl
0.122 0.467 0.706 setrgbcolor
fill
grestore
gsave
315.1 272.2 803.2 364.1 clipbox
898.093957 364.13575 m
907.045829 364.13575 l
907.045829 364.13575 l
898.093957 364.13575 l
cl
0.122 0.467 0.706 setrgbcolor
fill
grestore
gsave
315.1 272.2 803.2 364.1 clipbox
907.045829 364.13575 m
915.997701 364.13575 l
915.997701 364.13575 l
907.045829 364.13575 l
cl
0.122 0.467 0.706 setrgbcolor
fill
grestore
gsave
315.1 272.2 803.2 364.1 clipbox
915.997701 364.13575 m
924.949572 364.13575 l
924.949572 364.13575 l
915.997701 364.13575 l
cl
0.122 0.467 0.706 setrgbcolor
fill
grestore
gsave
315.1 272.2 803.2 364.1 clipbox
924.949572 364.13575 m
933.901444 364.13575 l
933.901444 364.13575 l
924.949572 364.13575 l
cl
0.122 0.467 0.706 setrgbcolor
fill
grestore
gsave
315.1 272.2 803.2 364.1 clipbox
933.901444 364.13575 m
942.853316 364.13575 l
942.853316 364.13575 l
933.901444 364.13575 l
cl
0.122 0.467 0.706 setrgbcolor
fill
grestore
gsave
315.1 272.2 803.2 364.1 clipbox
942.853316 364.13575 m
951.805187 364.13575 l
951.805187 364.13575 l
942.853316 364.13575 l
cl
0.122 0.467 0.706 setrgbcolor
fill
grestore
gsave
315.1 272.2 803.2 364.1 clipbox
951.805187 364.13575 m
960.757059 364.13575 l
960.757059 623.33575 l
951.805187 623.33575 l
cl
0.122 0.467 0.706 setrgbcolor
fill
grestore
gsave
315.1 272.2 803.2 364.1 clipbox
960.757059 364.13575 m
969.70893 364.13575 l
969.70893 537.801481 l
960.757059 537.801481 l
cl
0.122 0.467 0.706 setrgbcolor
fill
grestore
gsave
315.1 272.2 803.2 364.1 clipbox
969.70893 364.13575 m
978.660802 364.13575 l
978.660802 364.13575 l
969.70893 364.13575 l
cl
0.122 0.467 0.706 setrgbcolor
fill
grestore
gsave
315.1 272.2 803.2 364.1 clipbox
978.660802 364.13575 m
987.612674 364.13575 l
987.612674 364.13575 l
978.660802 364.13575 l
cl
0.122 0.467 0.706 setrgbcolor
fill
grestore
gsave
315.1 272.2 803.2 364.1 clipbox
987.612674 364.13575 m
996.564545 364.13575 l
996.564545 364.13575 l
987.612674 364.13575 l
cl
0.122 0.467 0.706 setrgbcolor
fill
grestore
gsave
315.1 272.2 803.2 364.1 clipbox
996.564545 364.13575 m
1005.516417 364.13575 l
1005.516417 364.13575 l
996.564545 364.13575 l
cl
0.122 0.467 0.706 setrgbcolor
fill
grestore
gsave
315.1 272.2 803.2 364.1 clipbox
1005.516417 364.13575 m
1014.468289 364.13575 l
1014.468289 364.13575 l
1005.516417 364.13575 l
cl
0.122 0.467 0.706 setrgbcolor
fill
grestore
gsave
315.1 272.2 803.2 364.1 clipbox
1014.468289 364.13575 m
1023.42016 364.13575 l
1023.42016 364.13575 l
1014.468289 364.13575 l
cl
0.122 0.467 0.706 setrgbcolor
fill
grestore
gsave
315.1 272.2 803.2 364.1 clipbox
1023.42016 364.13575 m
1032.372032 364.13575 l
1032.372032 364.13575 l
1023.42016 364.13575 l
cl
0.122 0.467 0.706 setrgbcolor
fill
grestore
gsave
315.1 272.2 803.2 364.1 clipbox
1032.372032 364.13575 m
1041.323904 364.13575 l
1041.323904 364.13575 l
1032.372032 364.13575 l
cl
0.122 0.467 0.706 setrgbcolor
fill
grestore
gsave
315.1 272.2 803.2 364.1 clipbox
1041.323904 364.13575 m
1050.275775 364.13575 l
1050.275775 364.13575 l
1041.323904 364.13575 l
cl
0.122 0.467 0.706 setrgbcolor
fill
grestore
gsave
315.1 272.2 803.2 364.1 clipbox
1050.275775 364.13575 m
1059.227647 364.13575 l
1059.227647 364.13575 l
1050.275775 364.13575 l
cl
0.122 0.467 0.706 setrgbcolor
fill
grestore
gsave
315.1 272.2 803.2 364.1 clipbox
1059.227647 364.13575 m
1068.179519 364.13575 l
1068.179519 364.13575 l
1059.227647 364.13575 l
cl
0.122 0.467 0.706 setrgbcolor
fill
grestore
gsave
315.1 272.2 803.2 364.1 clipbox
1068.179519 364.13575 m
1077.13139 364.13575 l
1077.13139 364.13575 l
1068.179519 364.13575 l
cl
0.122 0.467 0.706 setrgbcolor
fill
grestore
gsave
315.1 272.2 803.2 364.1 clipbox
1077.13139 364.13575 m
1086.083262 364.13575 l
1086.083262 364.13575 l
1077.13139 364.13575 l
cl
0.122 0.467 0.706 setrgbcolor
fill
grestore
gsave
315.1 272.2 803.2 364.1 clipbox
1086.083262 364.13575 m
1095.035134 364.13575 l
1095.035134 364.13575 l
1086.083262 364.13575 l
cl
0.122 0.467 0.706 setrgbcolor
fill
grestore
gsave
315.1 272.2 803.2 364.1 clipbox
1095.035134 364.13575 m
1103.987005 364.13575 l
1103.987005 364.13575 l
1095.035134 364.13575 l
cl
0.122 0.467 0.706 setrgbcolor
fill
grestore
1 setlinejoin
0 setlinecap
[] 0 setdash
gsave
/o {
gsave
newpath
translate
0.8 setlinewidth
1 setlinejoin
0 setlinecap
0 0 m
0 -3.5 l

gsave
0.000 setgray
fill
grestore
stroke
grestore
} bind def
817.527 364.136 o
grestore
/DejaVuSans findfont
10.000 scalefont
setfont
gsave
814.347425 349.542000 translate
0.000000 rotate
0.000000 0 m /zero glyphshow
grestore
gsave
/o {
gsave
newpath
translate
0.8 setlinewidth
1 setlinejoin
0 setlinecap
0 0 m
0 -3.5 l

gsave
0.000 setgray
fill
grestore
stroke
grestore
} bind def
873.476 364.136 o
grestore
gsave
867.116935 349.542000 translate
0.000000 rotate
0.000000 0 m /five glyphshow
6.362305 0 m /zero glyphshow
grestore
gsave
/o {
gsave
newpath
translate
0.8 setlinewidth
1 setlinejoin
0 setlinecap
0 0 m
0 -3.5 l

gsave
0.000 setgray
fill
grestore
stroke
grestore
} bind def
929.426 364.136 o
grestore
gsave
919.886446 349.542000 translate
0.000000 rotate
0.000000 0 m /one glyphshow
6.362305 0 m /zero glyphshow
12.724609 0 m /zero glyphshow
grestore
gsave
/o {
gsave
newpath
translate
0.8 setlinewidth
1 setlinejoin
0 setlinecap
0 0 m
0 -3.5 l

gsave
0.000 setgray
fill
grestore
stroke
grestore
} bind def
985.375 364.136 o
grestore
gsave
975.835643 349.542000 translate
0.000000 rotate
0.000000 0 m /one glyphshow
6.362305 0 m /five glyphshow
12.724609 0 m /zero glyphshow
grestore
gsave
/o {
gsave
newpath
translate
0.8 setlinewidth
1 setlinejoin
0 setlinecap
0 0 m
0 -3.5 l

gsave
0.000 setgray
fill
grestore
stroke
grestore
} bind def
1041.32 364.136 o
grestore
gsave
1031.784841 349.542000 translate
0.000000 rotate
0.000000 0 m /two glyphshow
6.362305 0 m /zero glyphshow
12.724609 0 m /zero glyphshow
grestore
gsave
/o {
gsave
newpath
translate
0.8 setlinewidth
1 setlinejoin
0 setlinecap
0 0 m
0 -3.5 l

gsave
0.000 setgray
fill
grestore
stroke
grestore
} bind def
1097.27 364.136 o
grestore
gsave
1087.734039 349.542000 translate
0.000000 rotate
0.000000 0 m /two glyphshow
6.362305 0 m /five glyphshow
12.724609 0 m /zero glyphshow
grestore
gsave
942.335184 335.870125 translate
0.000000 rotate
0.000000 0 m /o glyphshow
6.118164 0 m /p glyphshow
12.465820 0 m /i glyphshow
15.244141 0 m /n glyphshow
21.582031 0 m /i glyphshow
24.360352 0 m /o glyphshow
30.478516 0 m /n glyphshow
grestore
gsave
/o {
gsave
newpath
translate
0.8 setlinewidth
1 setlinejoin
0 setlinecap
0 0 m
-3.5 0 l

gsave
0.000 setgray
fill
grestore
stroke
grestore
} bind def
803.204 364.136 o
grestore
gsave
789.844743 360.338875 translate
0.000000 rotate
0.000000 0 m /zero glyphshow
grestore
gsave
/o {
gsave
newpath
translate
0.8 setlinewidth
1 setlinejoin
0 setlinecap
0 0 m
-3.5 0 l

gsave
0.000 setgray
fill
grestore
stroke
grestore
} bind def
803.204 398.765 o
grestore
gsave
777.125993 394.968134 translate
0.000000 rotate
0.000000 0 m /two glyphshow
6.362305 0 m /zero glyphshow
12.724609 0 m /zero glyphshow
grestore
gsave
/o {
gsave
newpath
translate
0.8 setlinewidth
1 setlinejoin
0 setlinecap
0 0 m
-3.5 0 l

gsave
0.000 setgray
fill
grestore
stroke
grestore
} bind def
803.204 433.394 o
grestore
gsave
777.125993 429.597392 translate
0.000000 rotate
0.000000 0 m /four glyphshow
6.362305 0 m /zero glyphshow
12.724609 0 m /zero glyphshow
grestore
gsave
/o {
gsave
newpath
translate
0.8 setlinewidth
1 setlinejoin
0 setlinecap
0 0 m
-3.5 0 l

gsave
0.000 setgray
fill
grestore
stroke
grestore
} bind def
803.204 468.024 o
grestore
gsave
777.125993 464.226651 translate
0.000000 rotate
0.000000 0 m /six glyphshow
6.362305 0 m /zero glyphshow
12.724609 0 m /zero glyphshow
grestore
gsave
/o {
gsave
newpath
translate
0.8 setlinewidth
1 setlinejoin
0 setlinecap
0 0 m
-3.5 0 l

gsave
0.000 setgray
fill
grestore
stroke
grestore
} bind def
803.204 502.653 o
grestore
gsave
777.125993 498.855909 translate
0.000000 rotate
0.000000 0 m /eight glyphshow
6.362305 0 m /zero glyphshow
12.724609 0 m /zero glyphshow
grestore
gsave
/o {
gsave
newpath
translate
0.8 setlinewidth
1 setlinejoin
0 setlinecap
0 0 m
-3.5 0 l

gsave
0.000 setgray
fill
grestore
stroke
grestore
} bind def
803.204 537.282 o
grestore
gsave
770.766618 533.485168 translate
0.000000 rotate
0.000000 0 m /one glyphshow
6.362305 0 m /zero glyphshow
12.724609 0 m /zero glyphshow
19.086914 0 m /zero glyphshow
grestore
gsave
/o {
gsave
newpath
translate
0.8 setlinewidth
1 setlinejoin
0 setlinecap
0 0 m
-3.5 0 l

gsave
0.000 setgray
fill
grestore
stroke
grestore
} bind def
803.204 571.911 o
grestore
gsave
770.766618 568.114426 translate
0.000000 rotate
0.000000 0 m /one glyphshow
6.362305 0 m /two glyphshow
12.724609 0 m /zero glyphshow
19.086914 0 m /zero glyphshow
grestore
gsave
/o {
gsave
newpath
translate
0.8 setlinewidth
1 setlinejoin
0 setlinecap
0 0 m
-3.5 0 l

gsave
0.000 setgray
fill
grestore
stroke
grestore
} bind def
803.204 606.541 o
grestore
gsave
770.766618 602.743685 translate
0.000000 rotate
0.000000 0 m /one glyphshow
6.362305 0 m /four glyphshow
12.724609 0 m /zero glyphshow
19.086914 0 m /zero glyphshow
grestore
gsave
764.688493 485.786063 translate
90.000000 rotate
0.000000 0 m /o glyphshow
6.118164 0 m /o glyphshow
12.236328 0 m /u glyphshow
18.574219 0 m /n glyphshow
24.912109 0 m /t glyphshow
grestore
0 setlinejoin
2 setlinecap
[] 0 setdash
gsave
803.204118 364.13575 m
803.204118 636.29575 l
stroke
grestore
gsave
1118.31 364.13575 m
1118.31 636.29575 l
stroke
grestore
gsave
803.204118 364.13575 m
1118.31 364.13575 l
stroke
grestore
gsave
803.204118 636.29575 m
1118.31 636.29575 l
stroke
grestore
/DejaVuSans findfont
12.000 scalefont
setfont
gsave
909.163309 642.295750 translate
0.000000 rotate
0.000000 0 m /m glyphshow
11.689453 0 m /space glyphshow
15.503906 0 m /equal glyphshow
25.558594 0 m /space glyphshow
29.373047 0 m /zero glyphshow
37.007812 0 m /period glyphshow
40.822266 0 m /three glyphshow
48.457031 0 m /comma glyphshow
52.271484 0 m /space glyphshow
56.085938 0 m /epsilon glyphshow
62.572266 0 m /space glyphshow
66.386719 0 m /equal glyphshow
76.441406 0 m /space glyphshow
80.255859 0 m /one glyphshow
87.890625 0 m /zero glyphshow
95.525391 0 m /zero glyphshow
grestore
gsave
46.95 37.54375 m
362.055882 37.54375 l
362.055882 309.70375 l
46.95 309.70375 l
cl
1.000 setgray
fill
grestore
gsave
315.1 272.2 46.95 37.54 clipbox
61.272995 37.54375 m
70.224866 37.54375 l
70.224866 162.99655 l
61.272995 162.99655 l
cl
0.122 0.467 0.706 setrgbcolor
fill
grestore
gsave
315.1 272.2 46.95 37.54 clipbox
70.224866 37.54375 m
79.176738 37.54375 l
79.176738 46.87495 l
70.224866 46.87495 l
cl
0.122 0.467 0.706 setrgbcolor
fill
grestore
gsave
315.1 272.2 46.95 37.54 clipbox
79.176738 37.54375 m
88.12861 37.54375 l
88.12861 91.45735 l
79.176738 91.45735 l
cl
0.122 0.467 0.706 setrgbcolor
fill
grestore
gsave
315.1 272.2 46.95 37.54 clipbox
88.12861 37.54375 m
97.080481 37.54375 l
97.080481 206.54215 l
88.12861 206.54215 l
cl
0.122 0.467 0.706 setrgbcolor
fill
grestore
gsave
315.1 272.2 46.95 37.54 clipbox
97.080481 37.54375 m
106.032353 37.54375 l
106.032353 89.38375 l
97.080481 89.38375 l
cl
0.122 0.467 0.706 setrgbcolor
fill
grestore
gsave
315.1 272.2 46.95 37.54 clipbox
106.032353 37.54375 m
114.984225 37.54375 l
114.984225 92.49415 l
106.032353 92.49415 l
cl
0.122 0.467 0.706 setrgbcolor
fill
grestore
gsave
315.1 272.2 46.95 37.54 clipbox
114.984225 37.54375 m
123.936096 37.54375 l
123.936096 242.83015 l
114.984225 242.83015 l
cl
0.122 0.467 0.706 setrgbcolor
fill
grestore
gsave
315.1 272.2 46.95 37.54 clipbox
123.936096 37.54375 m
132.887968 37.54375 l
132.887968 65.53735 l
123.936096 65.53735 l
cl
0.122 0.467 0.706 setrgbcolor
fill
grestore
gsave
315.1 272.2 46.95 37.54 clipbox
132.887968 37.54375 m
141.83984 37.54375 l
141.83984 47.91175 l
132.887968 47.91175 l
cl
0.122 0.467 0.706 setrgbcolor
fill
grestore
gsave
315.1 272.2 46.95 37.54 clipbox
141.83984 37.54375 m
150.791711 37.54375 l
150.791711 177.51175 l
141.83984 177.51175 l
cl
0.122 0.467 0.706 setrgbcolor
fill
grestore
gsave
315.1 272.2 46.95 37.54 clipbox
150.791711 37.54375 m
159.743583 37.54375 l
159.743583 80.05255 l
150.791711 80.05255 l
cl
0.122 0.467 0.706 setrgbcolor
fill
grestore
gsave
315.1 272.2 46.95 37.54 clipbox
159.743583 37.54375 m
168.695455 37.54375 l
168.695455 68.64775 l
159.743583 68.64775 l
cl
0.122 0.467 0.706 setrgbcolor
fill
grestore
gsave
315.1 272.2 46.95 37.54 clipbox
168.695455 37.54375 m
177.647326 37.54375 l
177.647326 76.94215 l
168.695455 76.94215 l
cl
0.122 0.467 0.706 setrgbcolor
fill
grestore
gsave
315.1 272.2 46.95 37.54 clipbox
177.647326 37.54375 m
186.599198 37.54375 l
186.599198 296.74375 l
177.647326 296.74375 l
cl
0.122 0.467 0.706 setrgbcolor
fill
grestore
gsave
315.1 272.2 46.95 37.54 clipbox
186.599198 37.54375 m
195.55107 37.54375 l
195.55107 68.64775 l
186.599198 68.64775 l
cl
0.122 0.467 0.706 setrgbcolor
fill
grestore
gsave
315.1 272.2 46.95 37.54 clipbox
195.55107 37.54375 m
204.502941 37.54375 l
204.502941 45.83815 l
195.55107 45.83815 l
cl
0.122 0.467 0.706 setrgbcolor
fill
grestore
gsave
315.1 272.2 46.95 37.54 clipbox
204.502941 37.54375 m
213.454813 37.54375 l
213.454813 237.64615 l
204.502941 237.64615 l
cl
0.122 0.467 0.706 setrgbcolor
fill
grestore
gsave
315.1 272.2 46.95 37.54 clipbox
213.454813 37.54375 m
222.406684 37.54375 l
222.406684 59.31655 l
213.454813 59.31655 l
cl
0.122 0.467 0.706 setrgbcolor
fill
grestore
gsave
315.1 272.2 46.95 37.54 clipbox
222.406684 37.54375 m
231.358556 37.54375 l
231.358556 70.72135 l
222.406684 70.72135 l
cl
0.122 0.467 0.706 setrgbcolor
fill
grestore
gsave
315.1 272.2 46.95 37.54 clipbox
231.358556 37.54375 m
240.310428 37.54375 l
240.310428 176.47495 l
231.358556 176.47495 l
cl
0.122 0.467 0.706 setrgbcolor
fill
grestore
gsave
315.1 272.2 46.95 37.54 clipbox
240.310428 37.54375 m
249.262299 37.54375 l
249.262299 71.75815 l
240.310428 71.75815 l
cl
0.122 0.467 0.706 setrgbcolor
fill
grestore
gsave
315.1 272.2 46.95 37.54 clipbox
249.262299 37.54375 m
258.214171 37.54375 l
258.214171 147.44455 l
249.262299 147.44455 l
cl
0.122 0.467 0.706 setrgbcolor
fill
grestore
gsave
315.1 272.2 46.95 37.54 clipbox
258.214171 37.54375 m
267.166043 37.54375 l
267.166043 92.49415 l
258.214171 92.49415 l
cl
0.122 0.467 0.706 setrgbcolor
fill
grestore
gsave
315.1 272.2 46.95 37.54 clipbox
267.166043 37.54375 m
276.117914 37.54375 l
276.117914 138.11335 l
267.166043 138.11335 l
cl
0.122 0.467 0.706 setrgbcolor
fill
grestore
gsave
315.1 272.2 46.95 37.54 clipbox
276.117914 37.54375 m
285.069786 37.54375 l
285.069786 46.87495 l
276.117914 46.87495 l
cl
0.122 0.467 0.706 setrgbcolor
fill
grestore
gsave
315.1 272.2 46.95 37.54 clipbox
285.069786 37.54375 m
294.021658 37.54375 l
294.021658 246.97735 l
285.069786 246.97735 l
cl
0.122 0.467 0.706 setrgbcolor
fill
grestore
gsave
315.1 272.2 46.95 37.54 clipbox
294.021658 37.54375 m
302.973529 37.54375 l
302.973529 44.80135 l
294.021658 44.80135 l
cl
0.122 0.467 0.706 setrgbcolor
fill
grestore
gsave
315.1 272.2 46.95 37.54 clipbox
302.973529 37.54375 m
311.925401 37.54375 l
311.925401 127.74535 l
302.973529 127.74535 l
cl
0.122 0.467 0.706 setrgbcolor
fill
grestore
gsave
315.1 272.2 46.95 37.54 clipbox
311.925401 37.54375 m
320.877273 37.54375 l
320.877273 119.45095 l
311.925401 119.45095 l
cl
0.122 0.467 0.706 setrgbcolor
fill
grestore
gsave
315.1 272.2 46.95 37.54 clipbox
320.877273 37.54375 m
329.829144 37.54375 l
329.829144 147.44455 l
320.877273 147.44455 l
cl
0.122 0.467 0.706 setrgbcolor
fill
grestore
gsave
315.1 272.2 46.95 37.54 clipbox
329.829144 37.54375 m
338.781016 37.54375 l
338.781016 165.07015 l
329.829144 165.07015 l
cl
0.122 0.467 0.706 setrgbcolor
fill
grestore
gsave
315.1 272.2 46.95 37.54 clipbox
338.781016 37.54375 m
347.732888 37.54375 l
347.732888 40.65415 l
338.781016 40.65415 l
cl
0.122 0.467 0.706 setrgbcolor
fill
grestore
1 setlinejoin
0 setlinecap
[] 0 setdash
gsave
/o {
gsave
newpath
translate
0.8 setlinewidth
1 setlinejoin
0 setlinecap
0 0 m
0 -3.5 l

gsave
0.000 setgray
fill
grestore
stroke
grestore
} bind def
61.273 37.5438 o
grestore
/DejaVuSans findfont
10.000 scalefont
setfont
gsave
58.093307 22.950000 translate
0.000000 rotate
0.000000 0 m /zero glyphshow
grestore
gsave
/o {
gsave
newpath
translate
0.8 setlinewidth
1 setlinejoin
0 setlinecap
0 0 m
0 -3.5 l

gsave
0.000 setgray
fill
grestore
stroke
grestore
} bind def
117.222 37.5438 o
grestore
gsave
110.862818 22.950000 translate
0.000000 rotate
0.000000 0 m /five glyphshow
6.362305 0 m /zero glyphshow
grestore
gsave
/o {
gsave
newpath
translate
0.8 setlinewidth
1 setlinejoin
0 setlinecap
0 0 m
0 -3.5 l

gsave
0.000 setgray
fill
grestore
stroke
grestore
} bind def
173.171 37.5438 o
grestore
gsave
163.632328 22.950000 translate
0.000000 rotate
0.000000 0 m /one glyphshow
6.362305 0 m /zero glyphshow
12.724609 0 m /zero glyphshow
grestore
gsave
/o {
gsave
newpath
translate
0.8 setlinewidth
1 setlinejoin
0 setlinecap
0 0 m
0 -3.5 l

gsave
0.000 setgray
fill
grestore
stroke
grestore
} bind def
229.121 37.5438 o
grestore
gsave
219.581526 22.950000 translate
0.000000 rotate
0.000000 0 m /one glyphshow
6.362305 0 m /five glyphshow
12.724609 0 m /zero glyphshow
grestore
gsave
/o {
gsave
newpath
translate
0.8 setlinewidth
1 setlinejoin
0 setlinecap
0 0 m
0 -3.5 l

gsave
0.000 setgray
fill
grestore
stroke
grestore
} bind def
285.07 37.5438 o
grestore
gsave
275.530724 22.950000 translate
0.000000 rotate
0.000000 0 m /two glyphshow
6.362305 0 m /zero glyphshow
12.724609 0 m /zero glyphshow
grestore
gsave
/o {
gsave
newpath
translate
0.8 setlinewidth
1 setlinejoin
0 setlinecap
0 0 m
0 -3.5 l

gsave
0.000 setgray
fill
grestore
stroke
grestore
} bind def
341.019 37.5438 o
grestore
gsave
331.479921 22.950000 translate
0.000000 rotate
0.000000 0 m /two glyphshow
6.362305 0 m /five glyphshow
12.724609 0 m /zero glyphshow
grestore
gsave
186.081066 9.278125 translate
0.000000 rotate
0.000000 0 m /o glyphshow
6.118164 0 m /p glyphshow
12.465820 0 m /i glyphshow
15.244141 0 m /n glyphshow
21.582031 0 m /i glyphshow
24.360352 0 m /o glyphshow
30.478516 0 m /n glyphshow
grestore
gsave
/o {
gsave
newpath
translate
0.8 setlinewidth
1 setlinejoin
0 setlinecap
0 0 m
-3.5 0 l

gsave
0.000 setgray
fill
grestore
stroke
grestore
} bind def
46.95 37.5438 o
grestore
gsave
33.590625 33.746875 translate
0.000000 rotate
0.000000 0 m /zero glyphshow
grestore
gsave
/o {
gsave
newpath
translate
0.8 setlinewidth
1 setlinejoin
0 setlinecap
0 0 m
-3.5 0 l

gsave
0.000 setgray
fill
grestore
stroke
grestore
} bind def
46.95 89.3838 o
grestore
gsave
27.231250 85.586875 translate
0.000000 rotate
0.000000 0 m /five glyphshow
6.362305 0 m /zero glyphshow
grestore
gsave
/o {
gsave
newpath
translate
0.8 setlinewidth
1 setlinejoin
0 setlinecap
0 0 m
-3.5 0 l

gsave
0.000 setgray
fill
grestore
stroke
grestore
} bind def
46.95 141.224 o
grestore
gsave
20.871875 137.426875 translate
0.000000 rotate
0.000000 0 m /one glyphshow
6.362305 0 m /zero glyphshow
12.724609 0 m /zero glyphshow
grestore
gsave
/o {
gsave
newpath
translate
0.8 setlinewidth
1 setlinejoin
0 setlinecap
0 0 m
-3.5 0 l

gsave
0.000 setgray
fill
grestore
stroke
grestore
} bind def
46.95 193.064 o
grestore
gsave
20.871875 189.266875 translate
0.000000 rotate
0.000000 0 m /one glyphshow
6.362305 0 m /five glyphshow
12.724609 0 m /zero glyphshow
grestore
gsave
/o {
gsave
newpath
translate
0.8 setlinewidth
1 setlinejoin
0 setlinecap
0 0 m
-3.5 0 l

gsave
0.000 setgray
fill
grestore
stroke
grestore
} bind def
46.95 244.904 o
grestore
gsave
20.871875 241.106875 translate
0.000000 rotate
0.000000 0 m /two glyphshow
6.362305 0 m /zero glyphshow
12.724609 0 m /zero glyphshow
grestore
gsave
/o {
gsave
newpath
translate
0.8 setlinewidth
1 setlinejoin
0 setlinecap
0 0 m
-3.5 0 l

gsave
0.000 setgray
fill
grestore
stroke
grestore
} bind def
46.95 296.744 o
grestore
gsave
20.871875 292.946875 translate
0.000000 rotate
0.000000 0 m /two glyphshow
6.362305 0 m /five glyphshow
12.724609 0 m /zero glyphshow
grestore
gsave
14.793750 159.194063 translate
90.000000 rotate
0.000000 0 m /o glyphshow
6.118164 0 m /o glyphshow
12.236328 0 m /u glyphshow
18.574219 0 m /n glyphshow
24.912109 0 m /t glyphshow
grestore
0 setlinejoin
2 setlinecap
[] 0 setdash
gsave
46.95 37.54375 m
46.95 309.70375 l
stroke
grestore
gsave
362.055882 37.54375 m
362.055882 309.70375 l
stroke
grestore
gsave
46.95 37.54375 m
362.055882 37.54375 l
stroke
grestore
gsave
46.95 309.70375 m
362.055882 309.70375 l
stroke
grestore
/DejaVuSans findfont
12.000 scalefont
setfont
gsave
156.729504 315.703750 translate
0.000000 rotate
0.000000 0 m /m glyphshow
11.689453 0 m /space glyphshow
15.503906 0 m /equal glyphshow
25.558594 0 m /space glyphshow
29.373047 0 m /zero glyphshow
37.007812 0 m /period glyphshow
40.822266 0 m /six glyphshow
48.457031 0 m /comma glyphshow
52.271484 0 m /space glyphshow
56.085938 0 m /epsilon glyphshow
62.572266 0 m /space glyphshow
66.386719 0 m /equal glyphshow
76.441406 0 m /space glyphshow
80.255859 0 m /one glyphshow
87.890625 0 m /zero glyphshow
grestore
gsave
425.077059 37.54375 m
740.182941 37.54375 l
740.182941 309.70375 l
425.077059 309.70375 l
cl
1.000 setgray
fill
grestore
gsave
315.1 272.2 425.1 37.54 clipbox
439.400053 37.54375 m
448.351925 37.54375 l
448.351925 37.735608 l
439.400053 37.735608 l
cl
0.122 0.467 0.706 setrgbcolor
fill
grestore
gsave
315.1 272.2 425.1 37.54 clipbox
448.351925 37.54375 m
457.303797 37.54375 l
457.303797 37.54375 l
448.351925 37.54375 l
cl
0.122 0.467 0.706 setrgbcolor
fill
grestore
gsave
315.1 272.2 425.1 37.54 clipbox
457.303797 37.54375 m
466.255668 37.54375 l
466.255668 37.54375 l
457.303797 37.54375 l
cl
0.122 0.467 0.706 setrgbcolor
fill
grestore
gsave
315.1 272.2 425.1 37.54 clipbox
466.255668 37.54375 m
475.20754 37.54375 l
475.20754 37.54375 l
466.255668 37.54375 l
cl
0.122 0.467 0.706 setrgbcolor
fill
grestore
gsave
315.1 272.2 425.1 37.54 clipbox
475.20754 37.54375 m
484.159412 37.54375 l
484.159412 37.54375 l
475.20754 37.54375 l
cl
0.122 0.467 0.706 setrgbcolor
fill
grestore
gsave
315.1 272.2 425.1 37.54 clipbox
484.159412 37.54375 m
493.111283 37.54375 l
493.111283 37.54375 l
484.159412 37.54375 l
cl
0.122 0.467 0.706 setrgbcolor
fill
grestore
gsave
315.1 272.2 425.1 37.54 clipbox
493.111283 37.54375 m
502.063155 37.54375 l
502.063155 37.54375 l
493.111283 37.54375 l
cl
0.122 0.467 0.706 setrgbcolor
fill
grestore
gsave
315.1 272.2 425.1 37.54 clipbox
502.063155 37.54375 m
511.015027 37.54375 l
511.015027 37.54375 l
502.063155 37.54375 l
cl
0.122 0.467 0.706 setrgbcolor
fill
grestore
gsave
315.1 272.2 425.1 37.54 clipbox
511.015027 37.54375 m
519.966898 37.54375 l
519.966898 254.535016 l
511.015027 254.535016 l
cl
0.122 0.467 0.706 setrgbcolor
fill
grestore
gsave
315.1 272.2 425.1 37.54 clipbox
519.966898 37.54375 m
528.91877 37.54375 l
528.91877 37.54375 l
519.966898 37.54375 l
cl
0.122 0.467 0.706 setrgbcolor
fill
grestore
gsave
315.1 272.2 425.1 37.54 clipbox
528.91877 37.54375 m
537.870642 37.54375 l
537.870642 37.54375 l
528.91877 37.54375 l
cl
0.122 0.467 0.706 setrgbcolor
fill
grestore
gsave
315.1 272.2 425.1 37.54 clipbox
537.870642 37.54375 m
546.822513 37.54375 l
546.822513 37.54375 l
537.870642 37.54375 l
cl
0.122 0.467 0.706 setrgbcolor
fill
grestore
gsave
315.1 272.2 425.1 37.54 clipbox
546.822513 37.54375 m
555.774385 37.54375 l
555.774385 37.54375 l
546.822513 37.54375 l
cl
0.122 0.467 0.706 setrgbcolor
fill
grestore
gsave
315.1 272.2 425.1 37.54 clipbox
555.774385 37.54375 m
564.726257 37.54375 l
564.726257 37.54375 l
555.774385 37.54375 l
cl
0.122 0.467 0.706 setrgbcolor
fill
grestore
gsave
315.1 272.2 425.1 37.54 clipbox
564.726257 37.54375 m
573.678128 37.54375 l
573.678128 37.54375 l
564.726257 37.54375 l
cl
0.122 0.467 0.706 setrgbcolor
fill
grestore
gsave
315.1 272.2 425.1 37.54 clipbox
573.678128 37.54375 m
582.63 37.54375 l
582.63 40.037902 l
573.678128 40.037902 l
cl
0.122 0.467 0.706 setrgbcolor
fill
grestore
gsave
315.1 272.2 425.1 37.54 clipbox
582.63 37.54375 m
591.581872 37.54375 l
591.581872 38.311182 l
582.63 38.311182 l
cl
0.122 0.467 0.706 setrgbcolor
fill
grestore
gsave
315.1 272.2 425.1 37.54 clipbox
591.581872 37.54375 m
600.533743 37.54375 l
600.533743 37.54375 l
591.581872 37.54375 l
cl
0.122 0.467 0.706 setrgbcolor
fill
grestore
gsave
315.1 272.2 425.1 37.54 clipbox
600.533743 37.54375 m
609.485615 37.54375 l
609.485615 37.54375 l
600.533743 37.54375 l
cl
0.122 0.467 0.706 setrgbcolor
fill
grestore
gsave
315.1 272.2 425.1 37.54 clipbox
609.485615 37.54375 m
618.437487 37.54375 l
618.437487 37.54375 l
609.485615 37.54375 l
cl
0.122 0.467 0.706 setrgbcolor
fill
grestore
gsave
315.1 272.2 425.1 37.54 clipbox
618.437487 37.54375 m
627.389358 37.54375 l
627.389358 37.54375 l
618.437487 37.54375 l
cl
0.122 0.467 0.706 setrgbcolor
fill
grestore
gsave
315.1 272.2 425.1 37.54 clipbox
627.389358 37.54375 m
636.34123 37.54375 l
636.34123 37.54375 l
627.389358 37.54375 l
cl
0.122 0.467 0.706 setrgbcolor
fill
grestore
gsave
315.1 272.2 425.1 37.54 clipbox
636.34123 37.54375 m
645.293102 37.54375 l
645.293102 296.74375 l
636.34123 296.74375 l
cl
0.122 0.467 0.706 setrgbcolor
fill
grestore
gsave
315.1 272.2 425.1 37.54 clipbox
645.293102 37.54375 m
654.244973 37.54375 l
654.244973 37.54375 l
645.293102 37.54375 l
cl
0.122 0.467 0.706 setrgbcolor
fill
grestore
gsave
315.1 272.2 425.1 37.54 clipbox
654.244973 37.54375 m
663.196845 37.54375 l
663.196845 37.54375 l
654.244973 37.54375 l
cl
0.122 0.467 0.706 setrgbcolor
fill
grestore
gsave
315.1 272.2 425.1 37.54 clipbox
663.196845 37.54375 m
672.148717 37.54375 l
672.148717 37.54375 l
663.196845 37.54375 l
cl
0.122 0.467 0.706 setrgbcolor
fill
grestore
gsave
315.1 272.2 425.1 37.54 clipbox
672.148717 37.54375 m
681.100588 37.54375 l
681.100588 37.54375 l
672.148717 37.54375 l
cl
0.122 0.467 0.706 setrgbcolor
fill
grestore
gsave
315.1 272.2 425.1 37.54 clipbox
681.100588 37.54375 m
690.05246 37.54375 l
690.05246 37.54375 l
681.100588 37.54375 l
cl
0.122 0.467 0.706 setrgbcolor
fill
grestore
gsave
315.1 272.2 425.1 37.54 clipbox
690.05246 37.54375 m
699.004332 37.54375 l
699.004332 37.54375 l
690.05246 37.54375 l
cl
0.122 0.467 0.706 setrgbcolor
fill
grestore
gsave
315.1 272.2 425.1 37.54 clipbox
699.004332 37.54375 m
707.956203 37.54375 l
707.956203 37.54375 l
699.004332 37.54375 l
cl
0.122 0.467 0.706 setrgbcolor
fill
grestore
gsave
315.1 272.2 425.1 37.54 clipbox
707.956203 37.54375 m
716.908075 37.54375 l
716.908075 37.54375 l
707.956203 37.54375 l
cl
0.122 0.467 0.706 setrgbcolor
fill
grestore
gsave
315.1 272.2 425.1 37.54 clipbox
716.908075 37.54375 m
725.859947 37.54375 l
725.859947 37.54375 l
716.908075 37.54375 l
cl
0.122 0.467 0.706 setrgbcolor
fill
grestore
1 setlinejoin
0 setlinecap
[] 0 setdash
gsave
/o {
gsave
newpath
translate
0.8 setlinewidth
1 setlinejoin
0 setlinecap
0 0 m
0 -3.5 l

gsave
0.000 setgray
fill
grestore
stroke
grestore
} bind def
439.4 37.5438 o
grestore
/DejaVuSans findfont
10.000 scalefont
setfont
gsave
436.220366 22.950000 translate
0.000000 rotate
0.000000 0 m /zero glyphshow
grestore
gsave
/o {
gsave
newpath
translate
0.8 setlinewidth
1 setlinejoin
0 setlinecap
0 0 m
0 -3.5 l

gsave
0.000 setgray
fill
grestore
stroke
grestore
} bind def
495.349 37.5438 o
grestore
gsave
488.989876 22.950000 translate
0.000000 rotate
0.000000 0 m /five glyphshow
6.362305 0 m /zero glyphshow
grestore
gsave
/o {
gsave
newpath
translate
0.8 setlinewidth
1 setlinejoin
0 setlinecap
0 0 m
0 -3.5 l

gsave
0.000 setgray
fill
grestore
stroke
grestore
} bind def
551.298 37.5438 o
grestore
gsave
541.759387 22.950000 translate
0.000000 rotate
0.000000 0 m /one glyphshow
6.362305 0 m /zero glyphshow
12.724609 0 m /zero glyphshow
grestore
gsave
/o {
gsave
newpath
translate
0.8 setlinewidth
1 setlinejoin
0 setlinecap
0 0 m
0 -3.5 l

gsave
0.000 setgray
fill
grestore
stroke
grestore
} bind def
607.248 37.5438 o
grestore
gsave
597.708585 22.950000 translate
0.000000 rotate
0.000000 0 m /one glyphshow
6.362305 0 m /five glyphshow
12.724609 0 m /zero glyphshow
grestore
gsave
/o {
gsave
newpath
translate
0.8 setlinewidth
1 setlinejoin
0 setlinecap
0 0 m
0 -3.5 l

gsave
0.000 setgray
fill
grestore
stroke
grestore
} bind def
663.197 37.5438 o
grestore
gsave
653.657782 22.950000 translate
0.000000 rotate
0.000000 0 m /two glyphshow
6.362305 0 m /zero glyphshow
12.724609 0 m /zero glyphshow
grestore
gsave
/o {
gsave
newpath
translate
0.8 setlinewidth
1 setlinejoin
0 setlinecap
0 0 m
0 -3.5 l

gsave
0.000 setgray
fill
grestore
stroke
grestore
} bind def
719.146 37.5438 o
grestore
gsave
709.606980 22.950000 translate
0.000000 rotate
0.000000 0 m /two glyphshow
6.362305 0 m /five glyphshow
12.724609 0 m /zero glyphshow
grestore
gsave
564.208125 9.278125 translate
0.000000 rotate
0.000000 0 m /o glyphshow
6.118164 0 m /p glyphshow
12.465820 0 m /i glyphshow
15.244141 0 m /n glyphshow
21.582031 0 m /i glyphshow
24.360352 0 m /o glyphshow
30.478516 0 m /n glyphshow
grestore
gsave
/o {
gsave
newpath
translate
0.8 setlinewidth
1 setlinejoin
0 setlinecap
0 0 m
-3.5 0 l

gsave
0.000 setgray
fill
grestore
stroke
grestore
} bind def
425.077 37.5438 o
grestore
gsave
411.717684 33.746875 translate
0.000000 rotate
0.000000 0 m /zero glyphshow
grestore
gsave
/o {
gsave
newpath
translate
0.8 setlinewidth
1 setlinejoin
0 setlinecap
0 0 m
-3.5 0 l

gsave
0.000 setgray
fill
grestore
stroke
grestore
} bind def
425.077 75.9153 o
grestore
gsave
398.998934 72.118452 translate
0.000000 rotate
0.000000 0 m /two glyphshow
6.362305 0 m /zero glyphshow
12.724609 0 m /zero glyphshow
grestore
gsave
/o {
gsave
newpath
translate
0.8 setlinewidth
1 setlinejoin
0 setlinecap
0 0 m
-3.5 0 l

gsave
0.000 setgray
fill
grestore
stroke
grestore
} bind def
425.077 114.287 o
grestore
gsave
398.998934 110.490028 translate
0.000000 rotate
0.000000 0 m /four glyphshow
6.362305 0 m /zero glyphshow
12.724609 0 m /zero glyphshow
grestore
gsave
/o {
gsave
newpath
translate
0.8 setlinewidth
1 setlinejoin
0 setlinecap
0 0 m
-3.5 0 l

gsave
0.000 setgray
fill
grestore
stroke
grestore
} bind def
425.077 152.658 o
grestore
gsave
398.998934 148.861605 translate
0.000000 rotate
0.000000 0 m /six glyphshow
6.362305 0 m /zero glyphshow
12.724609 0 m /zero glyphshow
grestore
gsave
/o {
gsave
newpath
translate
0.8 setlinewidth
1 setlinejoin
0 setlinecap
0 0 m
-3.5 0 l

gsave
0.000 setgray
fill
grestore
stroke
grestore
} bind def
425.077 191.03 o
grestore
gsave
398.998934 187.233181 translate
0.000000 rotate
0.000000 0 m /eight glyphshow
6.362305 0 m /zero glyphshow
12.724609 0 m /zero glyphshow
grestore
gsave
/o {
gsave
newpath
translate
0.8 setlinewidth
1 setlinejoin
0 setlinecap
0 0 m
-3.5 0 l

gsave
0.000 setgray
fill
grestore
stroke
grestore
} bind def
425.077 229.402 o
grestore
gsave
392.639559 225.604758 translate
0.000000 rotate
0.000000 0 m /one glyphshow
6.362305 0 m /zero glyphshow
12.724609 0 m /zero glyphshow
19.086914 0 m /zero glyphshow
grestore
gsave
/o {
gsave
newpath
translate
0.8 setlinewidth
1 setlinejoin
0 setlinecap
0 0 m
-3.5 0 l

gsave
0.000 setgray
fill
grestore
stroke
grestore
} bind def
425.077 267.773 o
grestore
gsave
392.639559 263.976335 translate
0.000000 rotate
0.000000 0 m /one glyphshow
6.362305 0 m /two glyphshow
12.724609 0 m /zero glyphshow
19.086914 0 m /zero glyphshow
grestore
gsave
/o {
gsave
newpath
translate
0.8 setlinewidth
1 setlinejoin
0 setlinecap
0 0 m
-3.5 0 l

gsave
0.000 setgray
fill
grestore
stroke
grestore
} bind def
425.077 306.145 o
grestore
gsave
392.639559 302.347911 translate
0.000000 rotate
0.000000 0 m /one glyphshow
6.362305 0 m /four glyphshow
12.724609 0 m /zero glyphshow
19.086914 0 m /zero glyphshow
grestore
gsave
386.561434 159.194063 translate
90.000000 rotate
0.000000 0 m /o glyphshow
6.118164 0 m /o glyphshow
12.236328 0 m /u glyphshow
18.574219 0 m /n glyphshow
24.912109 0 m /t glyphshow
grestore
0 setlinejoin
2 setlinecap
[] 0 setdash
gsave
425.077059 37.54375 m
425.077059 309.70375 l
stroke
grestore
gsave
740.182941 37.54375 m
740.182941 309.70375 l
stroke
grestore
gsave
425.077059 37.54375 m
740.182941 37.54375 l
stroke
grestore
gsave
425.077059 309.70375 m
740.182941 309.70375 l
stroke
grestore
/DejaVuSans findfont
12.000 scalefont
setfont
gsave
534.856562 315.703750 translate
0.000000 rotate
0.000000 0 m /m glyphshow
11.689453 0 m /space glyphshow
15.503906 0 m /equal glyphshow
25.558594 0 m /space glyphshow
29.373047 0 m /zero glyphshow
37.007812 0 m /period glyphshow
40.822266 0 m /six glyphshow
48.457031 0 m /comma glyphshow
52.271484 0 m /space glyphshow
56.085938 0 m /epsilon glyphshow
62.572266 0 m /space glyphshow
66.386719 0 m /equal glyphshow
76.441406 0 m /space glyphshow
80.255859 0 m /five glyphshow
87.890625 0 m /zero glyphshow
grestore
gsave
803.204118 37.54375 m
1118.31 37.54375 l
1118.31 309.70375 l
803.204118 309.70375 l
cl
1.000 setgray
fill
grestore
gsave
315.1 272.2 803.2 37.54 clipbox
817.527112 37.54375 m
826.478984 37.54375 l
826.478984 37.855663 l
817.527112 37.855663 l
cl
0.122 0.467 0.706 setrgbcolor
fill
grestore
gsave
315.1 272.2 803.2 37.54 clipbox
826.478984 37.54375 m
835.430856 37.54375 l
835.430856 37.54375 l
826.478984 37.54375 l
cl
0.122 0.467 0.706 setrgbcolor
fill
grestore
gsave
315.1 272.2 803.2 37.54 clipbox
835.430856 37.54375 m
844.382727 37.54375 l
844.382727 37.54375 l
835.430856 37.54375 l
cl
0.122 0.467 0.706 setrgbcolor
fill
grestore
gsave
315.1 272.2 803.2 37.54 clipbox
844.382727 37.54375 m
853.334599 37.54375 l
853.334599 37.54375 l
844.382727 37.54375 l
cl
0.122 0.467 0.706 setrgbcolor
fill
grestore
gsave
315.1 272.2 803.2 37.54 clipbox
853.334599 37.54375 m
862.286471 37.54375 l
862.286471 37.54375 l
853.334599 37.54375 l
cl
0.122 0.467 0.706 setrgbcolor
fill
grestore
gsave
315.1 272.2 803.2 37.54 clipbox
862.286471 37.54375 m
871.238342 37.54375 l
871.238342 37.54375 l
862.286471 37.54375 l
cl
0.122 0.467 0.706 setrgbcolor
fill
grestore
gsave
315.1 272.2 803.2 37.54 clipbox
871.238342 37.54375 m
880.190214 37.54375 l
880.190214 37.54375 l
871.238342 37.54375 l
cl
0.122 0.467 0.706 setrgbcolor
fill
grestore
gsave
315.1 272.2 803.2 37.54 clipbox
880.190214 37.54375 m
889.142086 37.54375 l
889.142086 37.54375 l
880.190214 37.54375 l
cl
0.122 0.467 0.706 setrgbcolor
fill
grestore
gsave
315.1 272.2 803.2 37.54 clipbox
889.142086 37.54375 m
898.093957 37.54375 l
898.093957 37.54375 l
889.142086 37.54375 l
cl
0.122 0.467 0.706 setrgbcolor
fill
grestore
gsave
315.1 272.2 803.2 37.54 clipbox
898.093957 37.54375 m
907.045829 37.54375 l
907.045829 37.54375 l
898.093957 37.54375 l
cl
0.122 0.467 0.706 setrgbcolor
fill
grestore
gsave
315.1 272.2 803.2 37.54 clipbox
907.045829 37.54375 m
915.997701 37.54375 l
915.997701 37.54375 l
907.045829 37.54375 l
cl
0.122 0.467 0.706 setrgbcolor
fill
grestore
gsave
315.1 272.2 803.2 37.54 clipbox
915.997701 37.54375 m
924.949572 37.54375 l
924.949572 37.54375 l
915.997701 37.54375 l
cl
0.122 0.467 0.706 setrgbcolor
fill
grestore
gsave
315.1 272.2 803.2 37.54 clipbox
924.949572 37.54375 m
933.901444 37.54375 l
933.901444 37.54375 l
924.949572 37.54375 l
cl
0.122 0.467 0.706 setrgbcolor
fill
grestore
gsave
315.1 272.2 803.2 37.54 clipbox
933.901444 37.54375 m
942.853316 37.54375 l
942.853316 37.54375 l
933.901444 37.54375 l
cl
0.122 0.467 0.706 setrgbcolor
fill
grestore
gsave
315.1 272.2 803.2 37.54 clipbox
942.853316 37.54375 m
951.805187 37.54375 l
951.805187 37.54375 l
942.853316 37.54375 l
cl
0.122 0.467 0.706 setrgbcolor
fill
grestore
gsave
315.1 272.2 803.2 37.54 clipbox
951.805187 37.54375 m
960.757059 37.54375 l
960.757059 37.54375 l
951.805187 37.54375 l
cl
0.122 0.467 0.706 setrgbcolor
fill
grestore
gsave
315.1 272.2 803.2 37.54 clipbox
960.757059 37.54375 m
969.70893 37.54375 l
969.70893 296.74375 l
960.757059 296.74375 l
cl
0.122 0.467 0.706 setrgbcolor
fill
grestore
gsave
315.1 272.2 803.2 37.54 clipbox
969.70893 37.54375 m
978.660802 37.54375 l
978.660802 37.54375 l
969.70893 37.54375 l
cl
0.122 0.467 0.706 setrgbcolor
fill
grestore
gsave
315.1 272.2 803.2 37.54 clipbox
978.660802 37.54375 m
987.612674 37.54375 l
987.612674 37.54375 l
978.660802 37.54375 l
cl
0.122 0.467 0.706 setrgbcolor
fill
grestore
gsave
315.1 272.2 803.2 37.54 clipbox
987.612674 37.54375 m
996.564545 37.54375 l
996.564545 37.54375 l
987.612674 37.54375 l
cl
0.122 0.467 0.706 setrgbcolor
fill
grestore
gsave
315.1 272.2 803.2 37.54 clipbox
996.564545 37.54375 m
1005.516417 37.54375 l
1005.516417 37.54375 l
996.564545 37.54375 l
cl
0.122 0.467 0.706 setrgbcolor
fill
grestore
gsave
315.1 272.2 803.2 37.54 clipbox
1005.516417 37.54375 m
1014.468289 37.54375 l
1014.468289 37.54375 l
1005.516417 37.54375 l
cl
0.122 0.467 0.706 setrgbcolor
fill
grestore
gsave
315.1 272.2 803.2 37.54 clipbox
1014.468289 37.54375 m
1023.42016 37.54375 l
1023.42016 37.54375 l
1014.468289 37.54375 l
cl
0.122 0.467 0.706 setrgbcolor
fill
grestore
gsave
315.1 272.2 803.2 37.54 clipbox
1023.42016 37.54375 m
1032.372032 37.54375 l
1032.372032 37.54375 l
1023.42016 37.54375 l
cl
0.122 0.467 0.706 setrgbcolor
fill
grestore
gsave
315.1 272.2 803.2 37.54 clipbox
1032.372032 37.54375 m
1041.323904 37.54375 l
1041.323904 37.54375 l
1032.372032 37.54375 l
cl
0.122 0.467 0.706 setrgbcolor
fill
grestore
gsave
315.1 272.2 803.2 37.54 clipbox
1041.323904 37.54375 m
1050.275775 37.54375 l
1050.275775 37.54375 l
1041.323904 37.54375 l
cl
0.122 0.467 0.706 setrgbcolor
fill
grestore
gsave
315.1 272.2 803.2 37.54 clipbox
1050.275775 37.54375 m
1059.227647 37.54375 l
1059.227647 37.54375 l
1050.275775 37.54375 l
cl
0.122 0.467 0.706 setrgbcolor
fill
grestore
gsave
315.1 272.2 803.2 37.54 clipbox
1059.227647 37.54375 m
1068.179519 37.54375 l
1068.179519 37.54375 l
1059.227647 37.54375 l
cl
0.122 0.467 0.706 setrgbcolor
fill
grestore
gsave
315.1 272.2 803.2 37.54 clipbox
1068.179519 37.54375 m
1077.13139 37.54375 l
1077.13139 37.54375 l
1068.179519 37.54375 l
cl
0.122 0.467 0.706 setrgbcolor
fill
grestore
gsave
315.1 272.2 803.2 37.54 clipbox
1077.13139 37.54375 m
1086.083262 37.54375 l
1086.083262 37.54375 l
1077.13139 37.54375 l
cl
0.122 0.467 0.706 setrgbcolor
fill
grestore
gsave
315.1 272.2 803.2 37.54 clipbox
1086.083262 37.54375 m
1095.035134 37.54375 l
1095.035134 37.751692 l
1086.083262 37.751692 l
cl
0.122 0.467 0.706 setrgbcolor
fill
grestore
gsave
315.1 272.2 803.2 37.54 clipbox
1095.035134 37.54375 m
1103.987005 37.54375 l
1103.987005 37.751692 l
1095.035134 37.751692 l
cl
0.122 0.467 0.706 setrgbcolor
fill
grestore
1 setlinejoin
0 setlinecap
[] 0 setdash
gsave
/o {
gsave
newpath
translate
0.8 setlinewidth
1 setlinejoin
0 setlinecap
0 0 m
0 -3.5 l

gsave
0.000 setgray
fill
grestore
stroke
grestore
} bind def
817.527 37.5438 o
grestore
/DejaVuSans findfont
10.000 scalefont
setfont
gsave
814.347425 22.950000 translate
0.000000 rotate
0.000000 0 m /zero glyphshow
grestore
gsave
/o {
gsave
newpath
translate
0.8 setlinewidth
1 setlinejoin
0 setlinecap
0 0 m
0 -3.5 l

gsave
0.000 setgray
fill
grestore
stroke
grestore
} bind def
873.476 37.5438 o
grestore
gsave
867.116935 22.950000 translate
0.000000 rotate
0.000000 0 m /five glyphshow
6.362305 0 m /zero glyphshow
grestore
gsave
/o {
gsave
newpath
translate
0.8 setlinewidth
1 setlinejoin
0 setlinecap
0 0 m
0 -3.5 l

gsave
0.000 setgray
fill
grestore
stroke
grestore
} bind def
929.426 37.5438 o
grestore
gsave
919.886446 22.950000 translate
0.000000 rotate
0.000000 0 m /one glyphshow
6.362305 0 m /zero glyphshow
12.724609 0 m /zero glyphshow
grestore
gsave
/o {
gsave
newpath
translate
0.8 setlinewidth
1 setlinejoin
0 setlinecap
0 0 m
0 -3.5 l

gsave
0.000 setgray
fill
grestore
stroke
grestore
} bind def
985.375 37.5438 o
grestore
gsave
975.835643 22.950000 translate
0.000000 rotate
0.000000 0 m /one glyphshow
6.362305 0 m /five glyphshow
12.724609 0 m /zero glyphshow
grestore
gsave
/o {
gsave
newpath
translate
0.8 setlinewidth
1 setlinejoin
0 setlinecap
0 0 m
0 -3.5 l

gsave
0.000 setgray
fill
grestore
stroke
grestore
} bind def
1041.32 37.5438 o
grestore
gsave
1031.784841 22.950000 translate
0.000000 rotate
0.000000 0 m /two glyphshow
6.362305 0 m /zero glyphshow
12.724609 0 m /zero glyphshow
grestore
gsave
/o {
gsave
newpath
translate
0.8 setlinewidth
1 setlinejoin
0 setlinecap
0 0 m
0 -3.5 l

gsave
0.000 setgray
fill
grestore
stroke
grestore
} bind def
1097.27 37.5438 o
grestore
gsave
1087.734039 22.950000 translate
0.000000 rotate
0.000000 0 m /two glyphshow
6.362305 0 m /five glyphshow
12.724609 0 m /zero glyphshow
grestore
gsave
942.335184 9.278125 translate
0.000000 rotate
0.000000 0 m /o glyphshow
6.118164 0 m /p glyphshow
12.465820 0 m /i glyphshow
15.244141 0 m /n glyphshow
21.582031 0 m /i glyphshow
24.360352 0 m /o glyphshow
30.478516 0 m /n glyphshow
grestore
gsave
/o {
gsave
newpath
translate
0.8 setlinewidth
1 setlinejoin
0 setlinecap
0 0 m
-3.5 0 l

gsave
0.000 setgray
fill
grestore
stroke
grestore
} bind def
803.204 37.5438 o
grestore
gsave
789.844743 33.746875 translate
0.000000 rotate
0.000000 0 m /zero glyphshow
grestore
gsave
/o {
gsave
newpath
translate
0.8 setlinewidth
1 setlinejoin
0 setlinecap
0 0 m
-3.5 0 l

gsave
0.000 setgray
fill
grestore
stroke
grestore
} bind def
803.204 89.5293 o
grestore
gsave
777.125993 85.732435 translate
0.000000 rotate
0.000000 0 m /five glyphshow
6.362305 0 m /zero glyphshow
12.724609 0 m /zero glyphshow
grestore
gsave
/o {
gsave
newpath
translate
0.8 setlinewidth
1 setlinejoin
0 setlinecap
0 0 m
-3.5 0 l

gsave
0.000 setgray
fill
grestore
stroke
grestore
} bind def
803.204 141.515 o
grestore
gsave
770.766618 137.717994 translate
0.000000 rotate
0.000000 0 m /one glyphshow
6.362305 0 m /zero glyphshow
12.724609 0 m /zero glyphshow
19.086914 0 m /zero glyphshow
grestore
gsave
/o {
gsave
newpath
translate
0.8 setlinewidth
1 setlinejoin
0 setlinecap
0 0 m
-3.5 0 l

gsave
0.000 setgray
fill
grestore
stroke
grestore
} bind def
803.204 193.5 o
grestore
gsave
770.766618 189.703554 translate
0.000000 rotate
0.000000 0 m /one glyphshow
6.362305 0 m /five glyphshow
12.724609 0 m /zero glyphshow
19.086914 0 m /zero glyphshow
grestore
gsave
/o {
gsave
newpath
translate
0.8 setlinewidth
1 setlinejoin
0 setlinecap
0 0 m
-3.5 0 l

gsave
0.000 setgray
fill
grestore
stroke
grestore
} bind def
803.204 245.486 o
grestore
gsave
770.766618 241.689113 translate
0.000000 rotate
0.000000 0 m /two glyphshow
6.362305 0 m /zero glyphshow
12.724609 0 m /zero glyphshow
19.086914 0 m /zero glyphshow
grestore
gsave
/o {
gsave
newpath
translate
0.8 setlinewidth
1 setlinejoin
0 setlinecap
0 0 m
-3.5 0 l

gsave
0.000 setgray
fill
grestore
stroke
grestore
} bind def
803.204 297.472 o
grestore
gsave
770.766618 293.674673 translate
0.000000 rotate
0.000000 0 m /two glyphshow
6.362305 0 m /five glyphshow
12.724609 0 m /zero glyphshow
19.086914 0 m /zero glyphshow
grestore
gsave
764.688493 159.194063 translate
90.000000 rotate
0.000000 0 m /o glyphshow
6.118164 0 m /o glyphshow
12.236328 0 m /u glyphshow
18.574219 0 m /n glyphshow
24.912109 0 m /t glyphshow
grestore
0 setlinejoin
2 setlinecap
[] 0 setdash
gsave
803.204118 37.54375 m
803.204118 309.70375 l
stroke
grestore
gsave
1118.31 37.54375 m
1118.31 309.70375 l
stroke
grestore
gsave
803.204118 37.54375 m
1118.31 37.54375 l
stroke
grestore
gsave
803.204118 309.70375 m
1118.31 309.70375 l
stroke
grestore
/DejaVuSans findfont
12.000 scalefont
setfont
gsave
909.163309 315.703750 translate
0.000000 rotate
0.000000 0 m /m glyphshow
11.689453 0 m /space glyphshow
15.503906 0 m /equal glyphshow
25.558594 0 m /space glyphshow
29.373047 0 m /zero glyphshow
37.007812 0 m /period glyphshow
40.822266 0 m /six glyphshow
48.457031 0 m /comma glyphshow
52.271484 0 m /space glyphshow
56.085938 0 m /epsilon glyphshow
62.572266 0 m /space glyphshow
66.386719 0 m /equal glyphshow
76.441406 0 m /space glyphshow
80.255859 0 m /one glyphshow
87.890625 0 m /zero glyphshow
95.525391 0 m /zero glyphshow
grestore
gsave
491.420312 704.930750 translate
0.000000 rotate
0.000000 0 m /F glyphshow
6.027344 0 m /i glyphshow
9.361328 0 m /n glyphshow
16.966797 0 m /a glyphshow
24.320312 0 m /l glyphshow
27.654297 0 m /space glyphshow
31.468750 0 m /o glyphshow
38.810547 0 m /p glyphshow
46.427734 0 m /i glyphshow
49.761719 0 m /n glyphshow
57.367188 0 m /i glyphshow
60.701172 0 m /o glyphshow
68.042969 0 m /n glyphshow
75.648438 0 m /space glyphshow
79.462891 0 m /d glyphshow
87.080078 0 m /i glyphshow
90.414062 0 m /s glyphshow
96.666016 0 m /t glyphshow
101.371094 0 m /r glyphshow
106.304688 0 m /i glyphshow
109.638672 0 m /b glyphshow
117.255859 0 m /u glyphshow
124.861328 0 m /t glyphshow
129.566406 0 m /i glyphshow
132.900391 0 m /o glyphshow
140.242188 0 m /n glyphshow
grestore

end
showpage
