%!PS-Adobe-3.0 EPSF-3.0
%%Title: ./fig/b_std_official.eps
%%Creator: matplotlib version 3.2.1, http://matplotlib.org/
%%CreationDate: Fri Apr 17 00:33:10 2020
%%Orientation: landscape
%%BoundingBox: -54.627874999999975 -163.5753125 666.6278749999999 955.5753125
%%EndComments
%%BeginProlog
/mpldict 8 dict def
mpldict begin
/m { moveto } bind def
/l { lineto } bind def
/r { rlineto } bind def
/c { curveto } bind def
/cl { closepath } bind def
/box {
m
1 index 0 r
0 exch r
neg 0 r
cl
} bind def
/clipbox {
box
clip
newpath
} bind def
%!PS-Adobe-3.0 Resource-Font
%%Title: DejaVu Sans
%%Copyright: Copyright (c) 2003 by Bitstream, Inc. All Rights Reserved. Copyright (c) 2006 by Tavmjong Bah. All Rights Reserved. DejaVu changes are in public domain 
%%Creator: Converted from TrueType to type 3 by PPR
25 dict begin
/_d{bind def}bind def
/_m{moveto}_d
/_l{lineto}_d
/_cl{closepath eofill}_d
/_c{curveto}_d
/_sc{7 -1 roll{setcachedevice}{pop pop pop pop pop pop}ifelse}_d
/_e{exec}_d
/FontName /DejaVuSans def
/PaintType 0 def
/FontMatrix[.001 0 0 .001 0 0]def
/FontBBox[-1021 -463 1793 1232]def
/FontType 3 def
/Encoding [ /space /comma /period /zero /one /two /three /four /five /six /seven /colon /I /S /a /d /e /i /m /n /o /p /r /s /t /v ] def
/FontInfo 10 dict dup begin
/FamilyName (DejaVu Sans) def
/FullName (DejaVu Sans) def
/Notice (Copyright (c) 2003 by Bitstream, Inc. All Rights Reserved. Copyright (c) 2006 by Tavmjong Bah. All Rights Reserved. DejaVu changes are in public domain ) def
/Weight (Book) def
/Version (Version 2.35) def
/ItalicAngle 0.0 def
/isFixedPitch false def
/UnderlinePosition -130 def
/UnderlineThickness 90 def
end readonly def
/CharStrings 27 dict dup begin
/.notdef 0 def
/space{318 0 0 0 0 0 _sc
}_d
/comma{318 0 77 -115 220 124 _sc
117 124 _m
220 124 _l
220 40 _l
140 -115 _l
77 -115 _l
117 40 _l
117 124 _l
_cl}_d
/period{318 0 107 0 210 124 _sc
107 124 _m
210 124 _l
210 0 _l
107 0 _l
107 124 _l
_cl}_d
/zero{636 0 66 -13 570 742 _sc
318 664 _m
267 664 229 639 203 589 _c
177 539 165 464 165 364 _c
165 264 177 189 203 139 _c
229 89 267 64 318 64 _c
369 64 407 89 433 139 _c
458 189 471 264 471 364 _c
471 464 458 539 433 589 _c
407 639 369 664 318 664 _c
318 742 _m
399 742 461 709 505 645 _c
548 580 570 486 570 364 _c
570 241 548 147 505 83 _c
461 19 399 -13 318 -13 _c
236 -13 173 19 130 83 _c
87 147 66 241 66 364 _c
66 486 87 580 130 645 _c
173 709 236 742 318 742 _c
_cl}_d
/one{636 0 110 0 544 729 _sc
124 83 _m
285 83 _l
285 639 _l
110 604 _l
110 694 _l
284 729 _l
383 729 _l
383 83 _l
544 83 _l
544 0 _l
124 0 _l
124 83 _l
_cl}_d
/two{{636 0 73 0 536 742 _sc
192 83 _m
536 83 _l
536 0 _l
73 0 _l
73 83 _l
110 121 161 173 226 239 _c
290 304 331 346 348 365 _c
380 400 402 430 414 455 _c
426 479 433 504 433 528 _c
433 566 419 598 392 622 _c
365 646 330 659 286 659 _c
255 659 222 653 188 643 _c
154 632 117 616 78 594 _c
78 694 _l
118 710 155 722 189 730 _c
223 738 255 742 284 742 _c
}_e{359 742 419 723 464 685 _c
509 647 532 597 532 534 _c
532 504 526 475 515 449 _c
504 422 484 390 454 354 _c
446 344 420 317 376 272 _c
332 227 271 164 192 83 _c
_cl}_e}_d
/three{{636 0 76 -13 556 742 _sc
406 393 _m
453 383 490 362 516 330 _c
542 298 556 258 556 212 _c
556 140 531 84 482 45 _c
432 6 362 -13 271 -13 _c
240 -13 208 -10 176 -4 _c
144 1 110 10 76 22 _c
76 117 _l
103 101 133 89 166 81 _c
198 73 232 69 268 69 _c
330 69 377 81 409 105 _c
441 129 458 165 458 212 _c
458 254 443 288 413 312 _c
383 336 341 349 287 349 _c
}_e{202 349 _l
202 430 _l
291 430 _l
339 430 376 439 402 459 _c
428 478 441 506 441 543 _c
441 580 427 609 401 629 _c
374 649 336 659 287 659 _c
260 659 231 656 200 650 _c
169 644 135 635 98 623 _c
98 711 _l
135 721 170 729 203 734 _c
235 739 266 742 296 742 _c
370 742 429 725 473 691 _c
517 657 539 611 539 553 _c
539 513 527 479 504 451 _c
481 423 448 403 406 393 _c
_cl}_e}_d
/four{636 0 49 0 580 729 _sc
378 643 _m
129 254 _l
378 254 _l
378 643 _l
352 729 _m
476 729 _l
476 254 _l
580 254 _l
580 172 _l
476 172 _l
476 0 _l
378 0 _l
378 172 _l
49 172 _l
49 267 _l
352 729 _l
_cl}_d
/five{{636 0 77 -13 549 729 _sc
108 729 _m
495 729 _l
495 646 _l
198 646 _l
198 467 _l
212 472 227 476 241 478 _c
255 480 270 482 284 482 _c
365 482 429 459 477 415 _c
525 370 549 310 549 234 _c
549 155 524 94 475 51 _c
426 8 357 -13 269 -13 _c
238 -13 207 -10 175 -6 _c
143 -1 111 6 77 17 _c
77 116 _l
106 100 136 88 168 80 _c
199 72 232 69 267 69 _c
}_e{323 69 368 83 401 113 _c
433 143 450 183 450 234 _c
450 284 433 324 401 354 _c
368 384 323 399 267 399 _c
241 399 214 396 188 390 _c
162 384 135 375 108 363 _c
108 729 _l
_cl}_e}_d
/six{{636 0 70 -13 573 742 _sc
330 404 _m
286 404 251 388 225 358 _c
199 328 186 286 186 234 _c
186 181 199 139 225 109 _c
251 79 286 64 330 64 _c
374 64 409 79 435 109 _c
461 139 474 181 474 234 _c
474 286 461 328 435 358 _c
409 388 374 404 330 404 _c
526 713 _m
526 623 _l
501 635 476 644 451 650 _c
425 656 400 659 376 659 _c
310 659 260 637 226 593 _c
}_e{192 549 172 482 168 394 _c
187 422 211 444 240 459 _c
269 474 301 482 336 482 _c
409 482 467 459 509 415 _c
551 371 573 310 573 234 _c
573 159 550 99 506 54 _c
462 9 403 -13 330 -13 _c
246 -13 181 19 137 83 _c
92 147 70 241 70 364 _c
70 479 97 571 152 639 _c
206 707 280 742 372 742 _c
396 742 421 739 447 735 _c
472 730 498 723 526 713 _c
_cl}_e}_d
/seven{636 0 82 0 551 729 _sc
82 729 _m
551 729 _l
551 687 _l
286 0 _l
183 0 _l
432 646 _l
82 646 _l
82 729 _l
_cl}_d
/colon{337 0 117 0 220 517 _sc
117 124 _m
220 124 _l
220 0 _l
117 0 _l
117 124 _l
117 517 _m
220 517 _l
220 393 _l
117 393 _l
117 517 _l
_cl}_d
/I{295 0 98 0 197 729 _sc
98 729 _m
197 729 _l
197 0 _l
98 0 _l
98 729 _l
_cl}_d
/S{{635 0 66 -13 579 742 _sc
535 705 _m
535 609 _l
497 627 462 640 429 649 _c
395 657 363 662 333 662 _c
279 662 237 651 208 631 _c
179 610 165 580 165 542 _c
165 510 174 485 194 469 _c
213 452 250 439 304 429 _c
364 417 _l
437 403 491 378 526 343 _c
561 307 579 260 579 201 _c
579 130 555 77 508 41 _c
460 5 391 -13 300 -13 _c
265 -13 228 -9 189 -2 _c
}_e{150 5 110 16 69 32 _c
69 134 _l
109 111 148 94 186 83 _c
224 71 262 66 300 66 _c
356 66 399 77 430 99 _c
460 121 476 152 476 194 _c
476 230 465 258 443 278 _c
421 298 385 313 335 323 _c
275 335 _l
201 349 148 372 115 404 _c
82 435 66 478 66 534 _c
66 598 88 649 134 686 _c
179 723 242 742 322 742 _c
356 742 390 739 426 733 _c
461 727 497 717 535 705 _c
}_e{_cl}_e}_d
/a{{613 0 60 -13 522 560 _sc
343 275 _m
270 275 220 266 192 250 _c
164 233 150 205 150 165 _c
150 133 160 107 181 89 _c
202 70 231 61 267 61 _c
317 61 357 78 387 114 _c
417 149 432 196 432 255 _c
432 275 _l
343 275 _l
522 312 _m
522 0 _l
432 0 _l
432 83 _l
411 49 385 25 355 10 _c
325 -5 287 -13 243 -13 _c
187 -13 142 2 109 33 _c
76 64 60 106 60 159 _c
}_e{60 220 80 266 122 298 _c
163 329 224 345 306 345 _c
432 345 _l
432 354 _l
432 395 418 427 391 450 _c
364 472 326 484 277 484 _c
245 484 215 480 185 472 _c
155 464 127 453 100 439 _c
100 522 _l
132 534 164 544 195 550 _c
226 556 256 560 286 560 _c
365 560 424 539 463 498 _c
502 457 522 395 522 312 _c
_cl}_e}_d
/d{{635 0 55 -13 544 760 _sc
454 464 _m
454 760 _l
544 760 _l
544 0 _l
454 0 _l
454 82 _l
435 49 411 25 382 10 _c
353 -5 319 -13 279 -13 _c
213 -13 159 13 117 65 _c
75 117 55 187 55 273 _c
55 359 75 428 117 481 _c
159 533 213 560 279 560 _c
319 560 353 552 382 536 _c
411 520 435 496 454 464 _c
148 273 _m
148 207 161 155 188 117 _c
215 79 253 61 301 61 _c
}_e{348 61 385 79 413 117 _c
440 155 454 207 454 273 _c
454 339 440 390 413 428 _c
385 466 348 485 301 485 _c
253 485 215 466 188 428 _c
161 390 148 339 148 273 _c
_cl}_e}_d
/e{{615 0 55 -13 562 560 _sc
562 296 _m
562 252 _l
149 252 _l
153 190 171 142 205 110 _c
238 78 284 62 344 62 _c
378 62 412 66 444 74 _c
476 82 509 95 541 113 _c
541 28 _l
509 14 476 3 442 -3 _c
408 -9 373 -13 339 -13 _c
251 -13 182 12 131 62 _c
80 112 55 181 55 268 _c
55 357 79 428 127 481 _c
175 533 241 560 323 560 _c
397 560 455 536 498 489 _c
}_e{540 441 562 377 562 296 _c
472 322 _m
471 371 457 410 431 440 _c
404 469 368 484 324 484 _c
274 484 234 469 204 441 _c
174 413 156 373 152 322 _c
472 322 _l
_cl}_e}_d
/i{278 0 94 0 184 760 _sc
94 547 _m
184 547 _l
184 0 _l
94 0 _l
94 547 _l
94 760 _m
184 760 _l
184 646 _l
94 646 _l
94 760 _l
_cl}_d
/m{{974 0 91 0 889 560 _sc
520 442 _m
542 482 569 511 600 531 _c
631 550 668 560 711 560 _c
767 560 811 540 842 500 _c
873 460 889 403 889 330 _c
889 0 _l
799 0 _l
799 327 _l
799 379 789 418 771 444 _c
752 469 724 482 686 482 _c
639 482 602 466 575 435 _c
548 404 535 362 535 309 _c
535 0 _l
445 0 _l
445 327 _l
445 379 435 418 417 444 _c
398 469 369 482 331 482 _c
}_e{285 482 248 466 221 435 _c
194 404 181 362 181 309 _c
181 0 _l
91 0 _l
91 547 _l
181 547 _l
181 462 _l
201 495 226 520 255 536 _c
283 552 317 560 357 560 _c
397 560 430 550 458 530 _c
486 510 506 480 520 442 _c
_cl}_e}_d
/n{634 0 91 0 549 560 _sc
549 330 _m
549 0 _l
459 0 _l
459 327 _l
459 379 448 417 428 443 _c
408 469 378 482 338 482 _c
289 482 251 466 223 435 _c
195 404 181 362 181 309 _c
181 0 _l
91 0 _l
91 547 _l
181 547 _l
181 462 _l
202 494 227 519 257 535 _c
286 551 320 560 358 560 _c
420 560 468 540 500 501 _c
532 462 549 405 549 330 _c
_cl}_d
/o{612 0 55 -13 557 560 _sc
306 484 _m
258 484 220 465 192 427 _c
164 389 150 338 150 273 _c
150 207 163 156 191 118 _c
219 80 257 62 306 62 _c
354 62 392 80 420 118 _c
448 156 462 207 462 273 _c
462 337 448 389 420 427 _c
392 465 354 484 306 484 _c
306 560 _m
384 560 445 534 490 484 _c
534 433 557 363 557 273 _c
557 183 534 113 490 63 _c
445 12 384 -13 306 -13 _c
227 -13 165 12 121 63 _c
77 113 55 183 55 273 _c
55 363 77 433 121 484 _c
165 534 227 560 306 560 _c
_cl}_d
/p{{635 0 91 -207 580 560 _sc
181 82 _m
181 -207 _l
91 -207 _l
91 547 _l
181 547 _l
181 464 _l
199 496 223 520 252 536 _c
281 552 316 560 356 560 _c
422 560 476 533 518 481 _c
559 428 580 359 580 273 _c
580 187 559 117 518 65 _c
476 13 422 -13 356 -13 _c
316 -13 281 -5 252 10 _c
223 25 199 49 181 82 _c
487 273 _m
487 339 473 390 446 428 _c
418 466 381 485 334 485 _c
}_e{286 485 249 466 222 428 _c
194 390 181 339 181 273 _c
181 207 194 155 222 117 _c
249 79 286 61 334 61 _c
381 61 418 79 446 117 _c
473 155 487 207 487 273 _c
_cl}_e}_d
/r{411 0 91 0 411 560 _sc
411 463 _m
401 469 390 473 378 476 _c
366 478 353 480 339 480 _c
288 480 249 463 222 430 _c
194 397 181 350 181 288 _c
181 0 _l
91 0 _l
91 547 _l
181 547 _l
181 462 _l
199 495 224 520 254 536 _c
284 552 321 560 365 560 _c
371 560 378 559 386 559 _c
393 558 401 557 411 555 _c
411 463 _l
_cl}_d
/s{{521 0 54 -13 472 560 _sc
443 531 _m
443 446 _l
417 458 391 468 364 475 _c
336 481 308 485 279 485 _c
234 485 200 478 178 464 _c
156 450 145 430 145 403 _c
145 382 153 366 169 354 _c
185 342 217 330 265 320 _c
296 313 _l
360 299 405 279 432 255 _c
458 230 472 195 472 151 _c
472 100 452 60 412 31 _c
372 1 316 -13 246 -13 _c
216 -13 186 -10 154 -5 _c
}_e{122 0 89 8 54 20 _c
54 113 _l
87 95 120 82 152 74 _c
184 65 216 61 248 61 _c
290 61 323 68 346 82 _c
368 96 380 117 380 144 _c
380 168 371 187 355 200 _c
339 213 303 226 247 238 _c
216 245 _l
160 257 119 275 95 299 _c
70 323 58 356 58 399 _c
58 450 76 490 112 518 _c
148 546 200 560 268 560 _c
301 560 332 557 362 552 _c
391 547 418 540 443 531 _c
}_e{_cl}_e}_d
/t{392 0 27 0 368 702 _sc
183 702 _m
183 547 _l
368 547 _l
368 477 _l
183 477 _l
183 180 _l
183 135 189 106 201 94 _c
213 81 238 75 276 75 _c
368 75 _l
368 0 _l
276 0 _l
206 0 158 13 132 39 _c
106 65 93 112 93 180 _c
93 477 _l
27 477 _l
27 547 _l
93 547 _l
93 702 _l
183 702 _l
_cl}_d
/v{592 0 30 0 562 547 _sc
30 547 _m
125 547 _l
296 88 _l
467 547 _l
562 547 _l
357 0 _l
235 0 _l
30 547 _l
_cl}_d
end readonly def

/BuildGlyph
 {exch begin
 CharStrings exch
 2 copy known not{pop /.notdef}if
 true 3 1 roll get exec
 end}_d

/BuildChar {
 1 index /Encoding get exch get
 1 index /BuildGlyph get exec
}_d

FontName currentdict end definefont pop
end
%%EndProlog
mpldict begin
666.628 -163.575 translate
90 rotate
1119.151 721.256 0 0 clipbox
gsave
0 0 m
1119.150625 0 l
1119.150625 721.25575 l
0 721.25575 l
cl
1.000 setgray
fill
grestore
gsave
40.590625 37.54375 m
1111.950625 37.54375 l
1111.950625 636.29575 l
40.590625 636.29575 l
cl
1.000 setgray
fill
grestore
0.800 setlinewidth
1 setlinejoin
0 setlinecap
[] 0 setdash
0.000 setgray
gsave
/o {
gsave
newpath
translate
0.8 setlinewidth
1 setlinejoin
0 setlinecap
0 0 m
0 -3.5 l

gsave
0.000 setgray
fill
grestore
stroke
grestore
} bind def
89.2888 37.5438 o
grestore
/DejaVuSans findfont
10.000 scalefont
setfont
gsave
86.109119 22.950000 translate
0.000000 rotate
0.000000 0 m /zero glyphshow
grestore
gsave
/o {
gsave
newpath
translate
0.8 setlinewidth
1 setlinejoin
0 setlinecap
0 0 m
0 -3.5 l

gsave
0.000 setgray
fill
grestore
stroke
grestore
} bind def
284.121 37.5438 o
grestore
gsave
265.042375 22.950000 translate
0.000000 rotate
0.000000 0 m /one glyphshow
6.362305 0 m /zero glyphshow
12.724609 0 m /zero glyphshow
19.086914 0 m /zero glyphshow
25.449219 0 m /zero glyphshow
31.811523 0 m /zero glyphshow
grestore
gsave
/o {
gsave
newpath
translate
0.8 setlinewidth
1 setlinejoin
0 setlinecap
0 0 m
0 -3.5 l

gsave
0.000 setgray
fill
grestore
stroke
grestore
} bind def
478.952 37.5438 o
grestore
gsave
459.874069 22.950000 translate
0.000000 rotate
0.000000 0 m /two glyphshow
6.362305 0 m /zero glyphshow
12.724609 0 m /zero glyphshow
19.086914 0 m /zero glyphshow
25.449219 0 m /zero glyphshow
31.811523 0 m /zero glyphshow
grestore
gsave
/o {
gsave
newpath
translate
0.8 setlinewidth
1 setlinejoin
0 setlinecap
0 0 m
0 -3.5 l

gsave
0.000 setgray
fill
grestore
stroke
grestore
} bind def
673.784 37.5438 o
grestore
gsave
654.705763 22.950000 translate
0.000000 rotate
0.000000 0 m /three glyphshow
6.362305 0 m /zero glyphshow
12.724609 0 m /zero glyphshow
19.086914 0 m /zero glyphshow
25.449219 0 m /zero glyphshow
31.811523 0 m /zero glyphshow
grestore
gsave
/o {
gsave
newpath
translate
0.8 setlinewidth
1 setlinejoin
0 setlinecap
0 0 m
0 -3.5 l

gsave
0.000 setgray
fill
grestore
stroke
grestore
} bind def
868.616 37.5438 o
grestore
gsave
849.537456 22.950000 translate
0.000000 rotate
0.000000 0 m /four glyphshow
6.362305 0 m /zero glyphshow
12.724609 0 m /zero glyphshow
19.086914 0 m /zero glyphshow
25.449219 0 m /zero glyphshow
31.811523 0 m /zero glyphshow
grestore
gsave
/o {
gsave
newpath
translate
0.8 setlinewidth
1 setlinejoin
0 setlinecap
0 0 m
0 -3.5 l

gsave
0.000 setgray
fill
grestore
stroke
grestore
} bind def
1063.45 37.5438 o
grestore
gsave
1044.369150 22.950000 translate
0.000000 rotate
0.000000 0 m /five glyphshow
6.362305 0 m /zero glyphshow
12.724609 0 m /zero glyphshow
19.086914 0 m /zero glyphshow
25.449219 0 m /zero glyphshow
31.811523 0 m /zero glyphshow
grestore
gsave
552.442500 9.278125 translate
0.000000 rotate
0.000000 0 m /I glyphshow
2.949219 0 m /t glyphshow
6.870117 0 m /e glyphshow
13.022461 0 m /r glyphshow
17.133789 0 m /a glyphshow
23.261719 0 m /t glyphshow
27.182617 0 m /i glyphshow
29.960938 0 m /o glyphshow
36.079102 0 m /n glyphshow
42.416992 0 m /s glyphshow
grestore
gsave
/o {
gsave
newpath
translate
0.8 setlinewidth
1 setlinejoin
0 setlinecap
0 0 m
-3.5 0 l

gsave
0.000 setgray
fill
grestore
stroke
grestore
} bind def
40.5906 58.1341 o
grestore
gsave
27.231250 54.337201 translate
0.000000 rotate
0.000000 0 m /zero glyphshow
grestore
gsave
/o {
gsave
newpath
translate
0.8 setlinewidth
1 setlinejoin
0 setlinecap
0 0 m
-3.5 0 l

gsave
0.000 setgray
fill
grestore
stroke
grestore
} bind def
40.5906 131.64 o
grestore
gsave
20.871875 127.843223 translate
0.000000 rotate
0.000000 0 m /one glyphshow
6.362305 0 m /zero glyphshow
grestore
gsave
/o {
gsave
newpath
translate
0.8 setlinewidth
1 setlinejoin
0 setlinecap
0 0 m
-3.5 0 l

gsave
0.000 setgray
fill
grestore
stroke
grestore
} bind def
40.5906 205.146 o
grestore
gsave
20.871875 201.349245 translate
0.000000 rotate
0.000000 0 m /two glyphshow
6.362305 0 m /zero glyphshow
grestore
gsave
/o {
gsave
newpath
translate
0.8 setlinewidth
1 setlinejoin
0 setlinecap
0 0 m
-3.5 0 l

gsave
0.000 setgray
fill
grestore
stroke
grestore
} bind def
40.5906 278.652 o
grestore
gsave
20.871875 274.855267 translate
0.000000 rotate
0.000000 0 m /three glyphshow
6.362305 0 m /zero glyphshow
grestore
gsave
/o {
gsave
newpath
translate
0.8 setlinewidth
1 setlinejoin
0 setlinecap
0 0 m
-3.5 0 l

gsave
0.000 setgray
fill
grestore
stroke
grestore
} bind def
40.5906 352.158 o
grestore
gsave
20.871875 348.361289 translate
0.000000 rotate
0.000000 0 m /four glyphshow
6.362305 0 m /zero glyphshow
grestore
gsave
/o {
gsave
newpath
translate
0.8 setlinewidth
1 setlinejoin
0 setlinecap
0 0 m
-3.5 0 l

gsave
0.000 setgray
fill
grestore
stroke
grestore
} bind def
40.5906 425.664 o
grestore
gsave
20.871875 421.867311 translate
0.000000 rotate
0.000000 0 m /five glyphshow
6.362305 0 m /zero glyphshow
grestore
gsave
/o {
gsave
newpath
translate
0.8 setlinewidth
1 setlinejoin
0 setlinecap
0 0 m
-3.5 0 l

gsave
0.000 setgray
fill
grestore
stroke
grestore
} bind def
40.5906 499.17 o
grestore
gsave
20.871875 495.373333 translate
0.000000 rotate
0.000000 0 m /six glyphshow
6.362305 0 m /zero glyphshow
grestore
gsave
/o {
gsave
newpath
translate
0.8 setlinewidth
1 setlinejoin
0 setlinecap
0 0 m
-3.5 0 l

gsave
0.000 setgray
fill
grestore
stroke
grestore
} bind def
40.5906 572.676 o
grestore
gsave
20.871875 568.879355 translate
0.000000 rotate
0.000000 0 m /seven glyphshow
6.362305 0 m /zero glyphshow
grestore
gsave
14.793750 289.310375 translate
90.000000 rotate
0.000000 0 m /S glyphshow
6.347656 0 m /t glyphshow
10.268555 0 m /a glyphshow
16.396484 0 m /n glyphshow
22.734375 0 m /d glyphshow
29.082031 0 m /a glyphshow
35.209961 0 m /r glyphshow
39.196289 0 m /d glyphshow
45.543945 0 m /space glyphshow
48.722656 0 m /d glyphshow
55.070312 0 m /e glyphshow
61.222656 0 m /v glyphshow
67.140625 0 m /i glyphshow
69.918945 0 m /a glyphshow
76.046875 0 m /t glyphshow
79.967773 0 m /i glyphshow
82.746094 0 m /o glyphshow
88.864258 0 m /n glyphshow
grestore
1.500 setlinewidth
2 setlinecap
0.122 0.467 0.706 setrgbcolor
gsave
1071 598.8 40.59 37.54 clipbox
89.288807 609.07975 m
160.207543 608.89727 l
284.315332 608.58655 l
339.25787 608.453274 l
386.40714 608.342396 l
530.387761 607.988875 l
673.004561 607.647672 l
1063.252443 606.723262 l
1063.252443 606.723262 l
stroke
grestore
1.000 0.498 0.055 setrgbcolor
gsave
1071 598.8 40.59 37.54 clipbox
89.288807 594.951691 m
90.652629 594.467662 l
92.406114 593.833015 l
94.354431 593.136659 l
95.328589 592.851743 l
97.276906 592.109911 l
98.056233 591.853604 l
100.783877 590.762466 l
101.368372 590.567863 l
103.706352 589.803251 l
104.485679 589.565597 l
109.940966 587.723536 l
111.304788 587.245802 l
112.084115 586.966173 l
117.149739 585.20873 l
118.123897 584.833813 l
118.708393 584.615509 l
123.774017 582.651789 l
124.553343 582.362947 l
125.137838 582.105791 l
126.306829 581.672471 l
131.372453 579.779712 l
132.346611 579.266206 l
135.65875 578.099944 l
138.776057 576.775025 l
141.308869 575.900144 l
142.283027 575.437521 l
144.426176 574.708251 l
146.179661 574.103251 l
148.712473 573.023314 l
159.428217 568.887009 l
160.792038 568.215366 l
161.766197 567.77893 l
162.350692 567.492305 l
166.442157 565.865536 l
167.416316 565.394997 l
168.195643 565.116658 l
169.364633 564.72875 l
170.14396 564.376364 l
173.65093 563.05507 l
175.404415 562.47273 l
177.547564 561.618757 l
178.132059 561.420142 l
180.859703 560.314308 l
181.63903 560.061012 l
182.613188 559.7153 l
183.197683 559.464763 l
184.756337 558.890549 l
185.535663 558.594212 l
198.97905 553.905686 l
200.342872 553.145307 l
200.927367 552.976704 l
208.330972 549.822094 l
210.279289 548.958307 l
211.64311 548.410273 l
216.513903 546.595216 l
239.893706 537.212563 l
241.647191 536.497353 l
242.816181 536.029781 l
243.79034 535.642458 l
245.154162 535.069879 l
247.686974 534.034657 l
249.635291 533.436588 l
250.219786 533.211271 l
250.999113 533.010742 l
251.583608 532.800658 l
253.726756 531.92071 l
254.700915 531.615299 l
255.28541 531.40898 l
256.064737 531.110413 l
260.351034 529.382325 l
260.740697 529.188104 l
265.026994 527.51989 l
265.416658 527.372986 l
266.001153 527.11494 l
266.975311 526.766784 l
267.94947 526.298588 l
271.261609 525.189513 l
271.846104 524.925815 l
272.430599 524.798519 l
278.27555 522.746751 l
279.054876 522.412031 l
279.44454 522.268353 l
280.029035 522.06943 l
281.198025 521.647548 l
291.134441 517.795015 l
292.498263 517.365442 l
298.343214 515.220647 l
298.927709 515.000727 l
301.265689 514.169324 l
302.239848 513.850736 l
303.214006 513.554326 l
303.993333 513.349839 l
309.643452 511.160224 l
311.202106 510.653053 l
311.786601 510.420161 l
315.683235 509.123852 l
317.43672 508.589008 l
318.60571 508.168416 l
327.7628 505.025205 l
328.93179 504.457946 l
329.711117 504.174142 l
330.490444 503.787358 l
331.074939 503.646697 l
335.361236 502.184631 l
336.530226 501.795431 l
339.25787 500.972374 l
340.037196 500.727258 l
340.816523 500.510833 l
341.401018 500.320939 l
342.375177 499.995204 l
343.349335 499.741324 l
344.518325 499.376615 l
346.856306 498.674892 l
349.583949 497.938095 l
355.234069 496.416604 l
359.520366 495.248822 l
361.079019 494.822707 l
363.417 494.414852 l
366.534307 493.660278 l
367.313634 493.417252 l
374.132743 491.959022 l
375.301733 491.746045 l
385.043318 489.937606 l
387.381298 489.607389 l
403.357497 487.516118 l
413.683577 486.446042 l
417.190547 486.201847 l
419.138864 486.057173 l
422.645835 485.804823 l
423.814825 485.708946 l
425.957973 485.529215 l
426.932132 485.434389 l
431.023597 485.119569 l
435.115063 484.930879 l
459.274193 483.924205 l
515.580552 483.036831 l
580.654338 482.790371 l
794.384706 482.678134 l
1063.252443 482.672127 l
1063.252443 482.672127 l
stroke
grestore
0.173 0.627 0.173 setrgbcolor
gsave
1071 598.8 40.59 37.54 clipbox
89.288807 600.706343 m
89.873302 599.491855 l
91.042292 597.034737 l
92.211282 594.074285 l
92.600946 593.47692 l
93.380272 591.331402 l
93.964767 589.82177 l
95.133758 587.359164 l
95.523421 586.202386 l
97.66657 581.052697 l
98.83556 577.749746 l
100.199382 573.869408 l
101.17354 571.731697 l
101.563204 570.919403 l
102.147699 569.175203 l
102.732194 567.912392 l
103.706352 565.465317 l
104.485679 563.407076 l
106.239164 559.202134 l
106.628828 558.203776 l
107.018491 557.339339 l
109.746135 549.349368 l
112.66861 540.711299 l
112.863442 540.379681 l
114.227264 535.899091 l
115.201422 533.069112 l
122.020531 512.639523 l
125.137838 503.069937 l
125.33267 502.721278 l
126.111997 500.345259 l
126.50166 499.264707 l
126.891324 497.804538 l
128.255146 493.379146 l
128.449977 492.989669 l
132.151779 479.102729 l
137.217403 460.461462 l
138.386394 455.579369 l
138.970889 453.416882 l
140.529542 447.750975 l
140.919206 446.165598 l
141.114037 445.649381 l
142.283027 440.663178 l
142.477859 440.127587 l
144.621008 430.361988 l
145.010671 429.091499 l
145.595166 426.321953 l
145.98483 424.645781 l
146.374493 422.738148 l
151.050454 402.865351 l
152.219444 396.535786 l
153.778097 389.214965 l
154.362592 386.855545 l
156.116078 378.875317 l
156.505741 377.372928 l
157.090236 374.308324 l
157.285068 373.79633 l
160.012712 360.253706 l
161.961029 351.45487 l
162.935187 347.054793 l
163.32485 344.7356 l
164.883504 337.389295 l
165.273167 335.463762 l
165.467999 334.73618 l
165.857662 332.525872 l
166.831821 328.301626 l
168.780138 318.654899 l
169.169801 317.081643 l
169.754296 314.811935 l
170.14396 312.989502 l
170.728455 309.690766 l
170.923286 308.990355 l
171.507782 305.69499 l
172.287108 302.348615 l
173.261267 296.796038 l
174.235425 292.262432 l
174.81992 289.494848 l
175.209584 287.811929 l
175.98891 283.300921 l
176.768237 280.010817 l
177.352732 277.32441 l
177.742396 275.676198 l
177.937227 275.049697 l
178.716554 270.940254 l
179.106218 269.185275 l
179.690713 266.191139 l
180.859703 261.818677 l
181.63903 258.250746 l
181.833861 257.686299 l
182.223525 255.850639 l
183.587347 250.75841 l
183.97701 249.00821 l
184.951168 244.073989 l
185.925327 239.66932 l
186.509822 237.710669 l
187.289149 235.037597 l
187.48398 234.543457 l
188.458139 230.313438 l
188.847802 229.165465 l
190.016792 225.052978 l
190.406456 223.647128 l
191.770278 217.235833 l
192.939268 212.74359 l
193.523763 209.983727 l
193.913426 208.632281 l
194.108258 208.19465 l
194.497921 206.382235 l
195.861743 201.55359 l
197.225565 196.515694 l
197.615228 194.653833 l
197.81006 194.390784 l
198.394555 192.341113 l
199.173882 189.605362 l
200.537704 184.471167 l
202.486021 178.537138 l
202.680853 178.182279 l
203.655011 175.106452 l
204.044674 173.869368 l
204.434338 172.155845 l
204.824001 171.176416 l
205.603328 168.855054 l
206.577486 166.141935 l
206.772318 165.326445 l
207.161981 164.545737 l
207.746477 161.979455 l
208.330972 160.172001 l
208.720635 159.141215 l
209.110298 158.119258 l
210.668952 154.229273 l
212.422437 150.453567 l
213.981091 146.272818 l
215.150081 144.123079 l
215.929408 142.744994 l
216.124239 142.375082 l
217.29323 138.908225 l
218.267388 136.993563 l
218.46222 136.715446 l
219.046715 135.240345 l
219.436378 134.615558 l
219.826042 133.785624 l
220.215705 132.853113 l
220.605368 131.605278 l
221.384695 130.509586 l
221.774358 129.471919 l
222.164022 128.851485 l
222.553685 128.122495 l
224.112339 125.498518 l
224.696834 124.153976 l
226.839983 120.444504 l
227.229646 119.588136 l
228.008973 118.141865 l
228.983131 116.399682 l
229.372795 115.64815 l
229.95729 114.844762 l
232.490102 111.323433 l
233.269428 110.259996 l
233.659092 109.601984 l
234.243587 108.915451 l
234.438419 108.705622 l
234.828082 108.112811 l
236.386735 105.902632 l
237.166062 104.918383 l
237.750557 104.108014 l
238.529884 103.080639 l
239.504043 102.05236 l
241.062696 100.459047 l
242.036855 99.311939 l
243.79034 97.036809 l
248.4663 92.466726 l
252.947429 89.092316 l
253.337093 88.695333 l
254.311251 88.00655 l
254.700915 87.751515 l
255.090578 87.287423 l
255.480241 87.005837 l
256.649232 86.143326 l
257.62339 85.674893 l
262.299351 82.401845 l
262.689014 82.298316 l
264.052836 81.629897 l
264.247668 81.554348 l
265.026994 80.879271 l
266.585648 80.14331 l
266.975311 79.976725 l
267.94947 79.552075 l
269.11846 78.818 l
269.897787 78.464947 l
270.871945 77.770619 l
271.45644 77.50913 l
275.742738 75.417346 l
276.327233 75.19584 l
278.27555 74.30888 l
280.808362 73.587278 l
286.068817 72.075599 l
287.627471 71.68569 l
288.406798 71.470271 l
288.991293 71.294083 l
292.887927 70.3274 l
294.641412 70.009526 l
304.382997 68.555568 l
304.967492 68.463916 l
305.746818 68.371444 l
308.864126 68.027896 l
312.760759 67.612885 l
317.43672 67.228892 l
323.866166 66.669904 l
324.450661 66.608919 l
346.271811 65.859146 l
351.337435 65.771925 l
352.311593 65.726515 l
361.273851 65.623337 l
364.196327 65.597319 l
372.963753 65.49233 l
376.665555 65.430388 l
391.472764 65.322961 l
392.836585 65.295853 l
404.721319 65.186376 l
407.838626 65.149505 l
432.971914 65.047094 l
435.89439 65.009475 l
456.351718 64.904946 l
458.689698 64.895364 l
572.276575 64.789043 l
574.614556 64.779293 l
1063.252443 64.75975 l
1063.252443 64.75975 l
stroke
grestore
0.839 0.153 0.157 setrgbcolor
gsave
1071 598.8 40.59 37.54 clipbox
89.288807 600.05727 m
925.311604 596.57426 l
964.083111 596.463786 l
1063.252443 596.209432 l
1063.252443 596.209432 l
stroke
grestore
0.580 0.404 0.741 setrgbcolor
gsave
1071 598.8 40.59 37.54 clipbox
89.288807 597.576244 m
94.354431 594.263425 l
97.66657 592.32967 l
98.251065 591.945058 l
100.589045 590.580391 l
101.368372 589.997063 l
102.927025 589.093821 l
104.680511 587.943686 l
105.265006 587.714298 l
106.239164 587.176548 l
106.823659 586.711814 l
111.694452 584.085137 l
113.447937 582.992755 l
115.00659 582.142527 l
117.149739 580.746516 l
118.318729 580.170167 l
122.020531 578.109074 l
122.410195 577.957591 l
123.384353 577.422223 l
123.968848 577.137217 l
125.33267 576.205256 l
126.111997 575.757979 l
127.086155 575.15868 l
127.865482 574.649869 l
128.839641 573.901342 l
130.593126 572.860326 l
133.125938 571.270878 l
133.515601 570.98827 l
133.905265 570.827811 l
134.879423 570.251905 l
135.074255 570.159896 l
135.463918 569.831651 l
136.632908 568.97661 l
137.607067 568.363119 l
139.16572 567.30106 l
139.555384 567.039393 l
140.139879 566.513869 l
140.724374 566.149193 l
145.400335 563.090709 l
145.789998 562.901708 l
146.374493 562.49187 l
146.764156 562.30526 l
147.543483 561.770204 l
148.32281 561.382937 l
148.712473 561.131211 l
149.102137 560.906913 l
151.634949 559.313062 l
154.557424 557.445011 l
154.947088 557.179822 l
156.505741 556.184223 l
157.4799 555.538923 l
158.259226 555.079438 l
159.233385 554.622052 l
160.207543 554.114702 l
160.792038 553.71478 l
161.181702 553.478398 l
162.740355 552.366033 l
164.688672 551.024163 l
165.273167 550.759203 l
165.857662 550.38628 l
167.805979 549.051545 l
168.195643 548.741425 l
169.169801 548.118037 l
169.754296 547.88266 l
170.533623 547.411701 l
171.118118 547.075964 l
174.430257 545.111807 l
175.014752 544.646827 l
175.209584 544.585741 l
175.599247 544.262235 l
177.352732 543.17668 l
178.326891 542.619384 l
179.690713 541.773032 l
180.664871 541.123601 l
181.63903 540.580151 l
183.002851 539.706519 l
183.97701 539.052905 l
192.354773 534.370269 l
193.328931 533.84282 l
195.666912 532.402753 l
196.056575 532.137004 l
200.537704 529.556599 l
200.927367 529.167211 l
201.511862 528.952566 l
202.875684 528.117425 l
205.79816 526.400123 l
206.187823 526.196122 l
208.13614 525.086387 l
208.720635 524.699522 l
212.032774 522.970522 l
212.617269 522.390368 l
215.150081 520.87039 l
215.539744 520.590958 l
216.124239 520.331978 l
217.29323 519.631538 l
219.63121 518.502317 l
220.020873 518.3407 l
220.995032 517.761427 l
221.384695 517.643998 l
221.96919 517.297321 l
222.748517 516.787135 l
224.30717 515.938819 l
225.281329 515.494082 l
239.309211 509.083195 l
240.088538 508.798276 l
241.45236 507.867619 l
242.036855 507.598279 l
242.62135 507.306067 l
243.205845 506.979093 l
244.374835 506.362379 l
245.348993 505.972803 l
246.712815 505.321887 l
253.142261 502.153561 l
254.311251 501.714687 l
254.700915 501.498987 l
255.675073 501.075664 l
256.649232 500.64295 l
258.402717 499.980806 l
260.351034 499.066144 l
261.520024 498.656576 l
262.689014 498.136417 l
265.806321 496.984095 l
268.923628 495.885225 l
269.897787 495.490221 l
270.28745 495.349757 l
272.040935 494.481904 l
274.184084 493.666414 l
275.937569 493.026598 l
276.716896 492.758901 l
282.756679 490.946306 l
289.186124 489.095497 l
290.160283 488.829622 l
292.498263 488.200199 l
293.082758 488.065699 l
295.810402 487.441146 l
296.589729 487.263953 l
297.758719 487.005611 l
310.617611 484.332294 l
312.176264 484.027164 l
314.514245 483.577263 l
328.347295 481.512411 l
330.685275 481.343409 l
331.26977 481.257503 l
333.607751 481.042817 l
334.581909 480.9729 l
336.335394 480.843513 l
337.309553 480.762927 l
339.063038 480.608001 l
339.452701 480.512787 l
341.011355 480.376707 l
342.76484 480.254971 l
344.128662 480.103034 l
344.907989 480.023741 l
346.271811 479.933365 l
366.534307 478.813024 l
369.456782 478.678193 l
370.625772 478.588556 l
382.315674 478.173634 l
399.850526 477.678976 l
450.701598 477.115702 l
780.746487 476.964587 l
1063.252443 476.96371 l
1063.252443 476.96371 l
stroke
grestore
0.549 0.337 0.294 setrgbcolor
gsave
1071 598.8 40.59 37.54 clipbox
89.288807 600.815958 m
89.873302 599.139745 l
91.821619 591.260913 l
92.211282 589.925054 l
92.795777 587.121642 l
93.575104 584.019223 l
93.964767 581.996502 l
97.471738 567.57511 l
97.861401 565.813546 l
98.056233 565.397114 l
99.614887 559.347605 l
100.199382 557.570047 l
101.368372 551.523436 l
101.758035 549.557528 l
103.51152 542.188939 l
103.901184 539.965269 l
104.290847 538.026008 l
105.849501 531.722359 l
106.239164 529.832235 l
106.628828 527.520153 l
107.602986 522.834692 l
108.382313 519.297934 l
108.771976 517.27586 l
108.966808 516.438539 l
109.551303 512.961577 l
109.940966 511.214545 l
110.135798 510.642483 l
114.616927 485.863829 l
114.811759 485.265254 l
115.785917 479.672275 l
116.175581 477.14392 l
118.123897 465.498785 l
118.513561 462.382004 l
119.098056 458.920602 l
119.487719 455.861445 l
120.072214 452.2147 l
121.436036 443.512667 l
123.968848 425.976408 l
124.748175 421.043943 l
125.137838 417.048662 l
127.086155 403.706937 l
128.060314 396.035668 l
128.449977 393.235428 l
128.644809 392.423218 l
132.151779 366.860679 l
133.32077 358.977313 l
134.879423 345.511505 l
135.269087 343.265724 l
136.438077 335.267705 l
136.82774 332.864598 l
137.607067 326.58666 l
138.581225 318.334905 l
139.16572 314.088734 l
140.334711 304.902252 l
140.919206 301.226634 l
143.062354 285.301196 l
143.841681 279.535065 l
144.231344 276.633316 l
144.815839 272.241128 l
147.933147 249.782612 l
148.32281 246.858919 l
148.517642 246.134227 l
149.4918 239.346648 l
150.465959 234.373463 l
151.440117 228.302751 l
151.82978 226.12359 l
153.193602 218.261402 l
155.726414 204.796214 l
156.895405 199.932007 l
157.285068 198.030804 l
157.4799 197.19577 l
157.869563 196.483535 l
159.428217 189.317877 l
159.623048 188.947986 l
160.012712 187.725124 l
161.181702 183.16118 l
162.935187 175.521829 l
163.130019 175.021265 l
163.714514 172.408442 l
164.493841 169.654842 l
164.883504 167.351205 l
165.857662 164.780491 l
166.247326 162.595359 l
166.636989 161.62799 l
167.611148 157.173225 l
168.195643 155.925426 l
169.364633 152.140827 l
169.559465 150.986286 l
169.754296 150.62737 l
170.338791 147.637663 l
170.923286 146.277504 l
171.31295 145.35515 l
172.092277 143.478769 l
172.48194 142.716664 l
172.871603 141.601895 l
173.066435 141.258101 l
173.261267 140.340686 l
174.625089 137.970067 l
174.81992 137.721437 l
175.599247 136.100847 l
175.98891 134.351482 l
176.378574 133.685027 l
176.573406 133.440618 l
177.157901 132.327172 l
177.742396 131.435972 l
177.937227 131.327389 l
178.521722 130.296691 l
178.911386 129.617831 l
179.106218 129.453167 l
179.495881 128.798322 l
180.664871 127.663069 l
181.444198 126.551629 l
183.392515 124.298549 l
183.587347 123.705309 l
184.171842 123.165503 l
184.561505 122.737035 l
184.951168 122.227522 l
185.146 122.090471 l
185.340832 121.183809 l
185.925327 120.581745 l
186.31499 120.206842 l
187.289149 119.235477 l
187.48398 118.825917 l
187.873644 118.532491 l
188.458139 118.057568 l
188.652971 117.477692 l
189.627129 116.743674 l
190.016792 116.443477 l
190.990951 115.627145 l
191.770278 115.08591 l
192.354773 114.670755 l
193.523763 114.010921 l
193.913426 113.817191 l
194.30309 113.307959 l
194.497921 113.187963 l
194.692753 112.72118 l
195.082416 112.507356 l
196.64107 111.745607 l
199.173882 110.74661 l
200.342872 110.226447 l
202.291189 109.474216 l
207.941308 108.078252 l
210.084457 107.665885 l
211.448279 107.473085 l
214.760418 107.03264 l
216.513903 106.889669 l
218.072556 106.722264 l
227.424478 106.190474 l
246.907647 105.894085 l
281.587688 105.843829 l
1063.252443 105.84247 l
1063.252443 105.84247 l
stroke
grestore
0.800 setlinewidth
0 setlinejoin
[] 0 setdash
0.000 setgray
gsave
40.590625 37.54375 m
40.590625 636.29575 l
stroke
grestore
gsave
1111.950625 37.54375 m
1111.950625 636.29575 l
stroke
grestore
gsave
40.590625 37.54375 m
1111.950625 37.54375 l
stroke
grestore
gsave
40.590625 636.29575 m
1111.950625 636.29575 l
stroke
grestore
1.000 setlinewidth
0 setlinecap
0.800 setgray
gsave
47.590625 42.54375 m
161.54375 42.54375 l
162.877083 42.54375 163.54375 43.210417 163.54375 44.54375 c
163.54375 131.575 l
163.54375 132.908333 162.877083 133.575 161.54375 133.575 c
47.590625 133.575 l
46.257292 133.575 45.590625 132.908333 45.590625 131.575 c
45.590625 44.54375 l
45.590625 43.210417 46.257292 42.54375 47.590625 42.54375 c
cl
gsave
1.000 setgray
fill
grestore
stroke
grestore
1.500 setlinewidth
1 setlinejoin
2 setlinecap
[] 0 setdash
0.122 0.467 0.706 setrgbcolor
gsave
49.590625 125.48125 m
69.590625 125.48125 l
stroke
grestore
0.000 setgray
gsave
77.590625 121.981250 translate
0.000000 rotate
0.000000 0 m /m glyphshow
9.741211 0 m /colon glyphshow
13.110352 0 m /space glyphshow
16.289062 0 m /zero glyphshow
22.651367 0 m /period glyphshow
25.830078 0 m /three glyphshow
32.192383 0 m /comma glyphshow
35.371094 0 m /space glyphshow
38.549805 0 m /e glyphshow
44.702148 0 m /p glyphshow
51.049805 0 m /s glyphshow
56.259766 0 m /colon glyphshow
59.628906 0 m /space glyphshow
62.807617 0 m /one glyphshow
69.169922 0 m /zero glyphshow
grestore
1.000 0.498 0.055 setrgbcolor
gsave
49.590625 110.809375 m
69.590625 110.809375 l
stroke
grestore
0.000 setgray
gsave
77.590625 107.309375 translate
0.000000 rotate
0.000000 0 m /m glyphshow
9.741211 0 m /colon glyphshow
13.110352 0 m /space glyphshow
16.289062 0 m /zero glyphshow
22.651367 0 m /period glyphshow
25.830078 0 m /three glyphshow
32.192383 0 m /comma glyphshow
35.371094 0 m /space glyphshow
38.549805 0 m /e glyphshow
44.702148 0 m /p glyphshow
51.049805 0 m /s glyphshow
56.259766 0 m /colon glyphshow
59.628906 0 m /space glyphshow
62.807617 0 m /five glyphshow
69.169922 0 m /zero glyphshow
grestore
0.173 0.627 0.173 setrgbcolor
gsave
49.590625 96.1375 m
69.590625 96.1375 l
stroke
grestore
0.000 setgray
gsave
77.590625 92.637500 translate
0.000000 rotate
0.000000 0 m /m glyphshow
9.741211 0 m /colon glyphshow
13.110352 0 m /space glyphshow
16.289062 0 m /zero glyphshow
22.651367 0 m /period glyphshow
25.830078 0 m /three glyphshow
32.192383 0 m /comma glyphshow
35.371094 0 m /space glyphshow
38.549805 0 m /e glyphshow
44.702148 0 m /p glyphshow
51.049805 0 m /s glyphshow
56.259766 0 m /colon glyphshow
59.628906 0 m /space glyphshow
62.807617 0 m /one glyphshow
69.169922 0 m /zero glyphshow
75.532227 0 m /zero glyphshow
grestore
0.839 0.153 0.157 setrgbcolor
gsave
49.590625 81.465625 m
69.590625 81.465625 l
stroke
grestore
0.000 setgray
gsave
77.590625 77.965625 translate
0.000000 rotate
0.000000 0 m /m glyphshow
9.741211 0 m /colon glyphshow
13.110352 0 m /space glyphshow
16.289062 0 m /zero glyphshow
22.651367 0 m /period glyphshow
25.830078 0 m /six glyphshow
32.192383 0 m /comma glyphshow
35.371094 0 m /space glyphshow
38.549805 0 m /e glyphshow
44.702148 0 m /p glyphshow
51.049805 0 m /s glyphshow
56.259766 0 m /colon glyphshow
59.628906 0 m /space glyphshow
62.807617 0 m /one glyphshow
69.169922 0 m /zero glyphshow
grestore
0.580 0.404 0.741 setrgbcolor
gsave
49.590625 66.79375 m
69.590625 66.79375 l
stroke
grestore
0.000 setgray
gsave
77.590625 63.293750 translate
0.000000 rotate
0.000000 0 m /m glyphshow
9.741211 0 m /colon glyphshow
13.110352 0 m /space glyphshow
16.289062 0 m /zero glyphshow
22.651367 0 m /period glyphshow
25.830078 0 m /six glyphshow
32.192383 0 m /comma glyphshow
35.371094 0 m /space glyphshow
38.549805 0 m /e glyphshow
44.702148 0 m /p glyphshow
51.049805 0 m /s glyphshow
56.259766 0 m /colon glyphshow
59.628906 0 m /space glyphshow
62.807617 0 m /five glyphshow
69.169922 0 m /zero glyphshow
grestore
0.549 0.337 0.294 setrgbcolor
gsave
49.590625 52.121875 m
69.590625 52.121875 l
stroke
grestore
0.000 setgray
gsave
77.590625 48.621875 translate
0.000000 rotate
0.000000 0 m /m glyphshow
9.741211 0 m /colon glyphshow
13.110352 0 m /space glyphshow
16.289062 0 m /zero glyphshow
22.651367 0 m /period glyphshow
25.830078 0 m /six glyphshow
32.192383 0 m /comma glyphshow
35.371094 0 m /space glyphshow
38.549805 0 m /e glyphshow
44.702148 0 m /p glyphshow
51.049805 0 m /s glyphshow
56.259766 0 m /colon glyphshow
59.628906 0 m /space glyphshow
62.807617 0 m /one glyphshow
69.169922 0 m /zero glyphshow
75.532227 0 m /zero glyphshow
grestore
/DejaVuSans findfont
12.000 scalefont
setfont
gsave
501.889062 704.930750 translate
0.000000 rotate
0.000000 0 m /S glyphshow
7.617188 0 m /t glyphshow
12.322266 0 m /a glyphshow
19.675781 0 m /n glyphshow
27.281250 0 m /d glyphshow
34.898438 0 m /a glyphshow
42.251953 0 m /r glyphshow
46.935547 0 m /d glyphshow
54.552734 0 m /space glyphshow
58.367188 0 m /d glyphshow
65.984375 0 m /e glyphshow
73.367188 0 m /v glyphshow
80.468750 0 m /i glyphshow
83.802734 0 m /a glyphshow
91.156250 0 m /t glyphshow
95.861328 0 m /i glyphshow
99.195312 0 m /o glyphshow
106.537109 0 m /n glyphshow
grestore

end
showpage
