%!PS-Adobe-3.0 EPSF-3.0
%%Title: ./fig/b_std_highres.eps
%%Creator: matplotlib version 3.2.1, http://matplotlib.org/
%%CreationDate: Fri Apr 17 00:30:20 2020
%%Orientation: landscape
%%BoundingBox: -54.627874999999975 -163.5753125000001 666.6278749999999 955.5753125000001
%%EndComments
%%BeginProlog
/mpldict 8 dict def
mpldict begin
/m { moveto } bind def
/l { lineto } bind def
/r { rlineto } bind def
/c { curveto } bind def
/cl { closepath } bind def
/box {
m
1 index 0 r
0 exch r
neg 0 r
cl
} bind def
/clipbox {
box
clip
newpath
} bind def
%!PS-Adobe-3.0 Resource-Font
%%Title: DejaVu Sans
%%Copyright: Copyright (c) 2003 by Bitstream, Inc. All Rights Reserved. Copyright (c) 2006 by Tavmjong Bah. All Rights Reserved. DejaVu changes are in public domain 
%%Creator: Converted from TrueType to type 3 by PPR
25 dict begin
/_d{bind def}bind def
/_m{moveto}_d
/_l{lineto}_d
/_cl{closepath eofill}_d
/_c{curveto}_d
/_sc{7 -1 roll{setcachedevice}{pop pop pop pop pop pop}ifelse}_d
/_e{exec}_d
/FontName /DejaVuSans def
/PaintType 0 def
/FontMatrix[.001 0 0 .001 0 0]def
/FontBBox[-1021 -463 1793 1232]def
/FontType 3 def
/Encoding [ /space /comma /period /zero /one /two /three /four /five /six /seven /eight /colon /I /S /a /d /e /i /m /n /o /p /r /s /t /v ] def
/FontInfo 10 dict dup begin
/FamilyName (DejaVu Sans) def
/FullName (DejaVu Sans) def
/Notice (Copyright (c) 2003 by Bitstream, Inc. All Rights Reserved. Copyright (c) 2006 by Tavmjong Bah. All Rights Reserved. DejaVu changes are in public domain ) def
/Weight (Book) def
/Version (Version 2.35) def
/ItalicAngle 0.0 def
/isFixedPitch false def
/UnderlinePosition -130 def
/UnderlineThickness 90 def
end readonly def
/CharStrings 28 dict dup begin
/.notdef 0 def
/space{318 0 0 0 0 0 _sc
}_d
/comma{318 0 77 -115 220 124 _sc
117 124 _m
220 124 _l
220 40 _l
140 -115 _l
77 -115 _l
117 40 _l
117 124 _l
_cl}_d
/period{318 0 107 0 210 124 _sc
107 124 _m
210 124 _l
210 0 _l
107 0 _l
107 124 _l
_cl}_d
/zero{636 0 66 -13 570 742 _sc
318 664 _m
267 664 229 639 203 589 _c
177 539 165 464 165 364 _c
165 264 177 189 203 139 _c
229 89 267 64 318 64 _c
369 64 407 89 433 139 _c
458 189 471 264 471 364 _c
471 464 458 539 433 589 _c
407 639 369 664 318 664 _c
318 742 _m
399 742 461 709 505 645 _c
548 580 570 486 570 364 _c
570 241 548 147 505 83 _c
461 19 399 -13 318 -13 _c
236 -13 173 19 130 83 _c
87 147 66 241 66 364 _c
66 486 87 580 130 645 _c
173 709 236 742 318 742 _c
_cl}_d
/one{636 0 110 0 544 729 _sc
124 83 _m
285 83 _l
285 639 _l
110 604 _l
110 694 _l
284 729 _l
383 729 _l
383 83 _l
544 83 _l
544 0 _l
124 0 _l
124 83 _l
_cl}_d
/two{{636 0 73 0 536 742 _sc
192 83 _m
536 83 _l
536 0 _l
73 0 _l
73 83 _l
110 121 161 173 226 239 _c
290 304 331 346 348 365 _c
380 400 402 430 414 455 _c
426 479 433 504 433 528 _c
433 566 419 598 392 622 _c
365 646 330 659 286 659 _c
255 659 222 653 188 643 _c
154 632 117 616 78 594 _c
78 694 _l
118 710 155 722 189 730 _c
223 738 255 742 284 742 _c
}_e{359 742 419 723 464 685 _c
509 647 532 597 532 534 _c
532 504 526 475 515 449 _c
504 422 484 390 454 354 _c
446 344 420 317 376 272 _c
332 227 271 164 192 83 _c
_cl}_e}_d
/three{{636 0 76 -13 556 742 _sc
406 393 _m
453 383 490 362 516 330 _c
542 298 556 258 556 212 _c
556 140 531 84 482 45 _c
432 6 362 -13 271 -13 _c
240 -13 208 -10 176 -4 _c
144 1 110 10 76 22 _c
76 117 _l
103 101 133 89 166 81 _c
198 73 232 69 268 69 _c
330 69 377 81 409 105 _c
441 129 458 165 458 212 _c
458 254 443 288 413 312 _c
383 336 341 349 287 349 _c
}_e{202 349 _l
202 430 _l
291 430 _l
339 430 376 439 402 459 _c
428 478 441 506 441 543 _c
441 580 427 609 401 629 _c
374 649 336 659 287 659 _c
260 659 231 656 200 650 _c
169 644 135 635 98 623 _c
98 711 _l
135 721 170 729 203 734 _c
235 739 266 742 296 742 _c
370 742 429 725 473 691 _c
517 657 539 611 539 553 _c
539 513 527 479 504 451 _c
481 423 448 403 406 393 _c
_cl}_e}_d
/four{636 0 49 0 580 729 _sc
378 643 _m
129 254 _l
378 254 _l
378 643 _l
352 729 _m
476 729 _l
476 254 _l
580 254 _l
580 172 _l
476 172 _l
476 0 _l
378 0 _l
378 172 _l
49 172 _l
49 267 _l
352 729 _l
_cl}_d
/five{{636 0 77 -13 549 729 _sc
108 729 _m
495 729 _l
495 646 _l
198 646 _l
198 467 _l
212 472 227 476 241 478 _c
255 480 270 482 284 482 _c
365 482 429 459 477 415 _c
525 370 549 310 549 234 _c
549 155 524 94 475 51 _c
426 8 357 -13 269 -13 _c
238 -13 207 -10 175 -6 _c
143 -1 111 6 77 17 _c
77 116 _l
106 100 136 88 168 80 _c
199 72 232 69 267 69 _c
}_e{323 69 368 83 401 113 _c
433 143 450 183 450 234 _c
450 284 433 324 401 354 _c
368 384 323 399 267 399 _c
241 399 214 396 188 390 _c
162 384 135 375 108 363 _c
108 729 _l
_cl}_e}_d
/six{{636 0 70 -13 573 742 _sc
330 404 _m
286 404 251 388 225 358 _c
199 328 186 286 186 234 _c
186 181 199 139 225 109 _c
251 79 286 64 330 64 _c
374 64 409 79 435 109 _c
461 139 474 181 474 234 _c
474 286 461 328 435 358 _c
409 388 374 404 330 404 _c
526 713 _m
526 623 _l
501 635 476 644 451 650 _c
425 656 400 659 376 659 _c
310 659 260 637 226 593 _c
}_e{192 549 172 482 168 394 _c
187 422 211 444 240 459 _c
269 474 301 482 336 482 _c
409 482 467 459 509 415 _c
551 371 573 310 573 234 _c
573 159 550 99 506 54 _c
462 9 403 -13 330 -13 _c
246 -13 181 19 137 83 _c
92 147 70 241 70 364 _c
70 479 97 571 152 639 _c
206 707 280 742 372 742 _c
396 742 421 739 447 735 _c
472 730 498 723 526 713 _c
_cl}_e}_d
/seven{636 0 82 0 551 729 _sc
82 729 _m
551 729 _l
551 687 _l
286 0 _l
183 0 _l
432 646 _l
82 646 _l
82 729 _l
_cl}_d
/eight{{636 0 68 -13 568 742 _sc
318 346 _m
271 346 234 333 207 308 _c
180 283 167 249 167 205 _c
167 161 180 126 207 101 _c
234 76 271 64 318 64 _c
364 64 401 76 428 102 _c
455 127 469 161 469 205 _c
469 249 455 283 429 308 _c
402 333 365 346 318 346 _c
219 388 _m
177 398 144 418 120 447 _c
96 476 85 511 85 553 _c
85 611 105 657 147 691 _c
188 725 245 742 318 742 _c
}_e{390 742 447 725 489 691 _c
530 657 551 611 551 553 _c
551 511 539 476 515 447 _c
491 418 459 398 417 388 _c
464 377 501 355 528 323 _c
554 291 568 251 568 205 _c
568 134 546 80 503 43 _c
459 5 398 -13 318 -13 _c
237 -13 175 5 132 43 _c
89 80 68 134 68 205 _c
68 251 81 291 108 323 _c
134 355 171 377 219 388 _c
183 544 _m
183 506 194 476 218 455 _c
}_e{242 434 275 424 318 424 _c
360 424 393 434 417 455 _c
441 476 453 506 453 544 _c
453 582 441 611 417 632 _c
393 653 360 664 318 664 _c
275 664 242 653 218 632 _c
194 611 183 582 183 544 _c
_cl}_e}_d
/colon{337 0 117 0 220 517 _sc
117 124 _m
220 124 _l
220 0 _l
117 0 _l
117 124 _l
117 517 _m
220 517 _l
220 393 _l
117 393 _l
117 517 _l
_cl}_d
/I{295 0 98 0 197 729 _sc
98 729 _m
197 729 _l
197 0 _l
98 0 _l
98 729 _l
_cl}_d
/S{{635 0 66 -13 579 742 _sc
535 705 _m
535 609 _l
497 627 462 640 429 649 _c
395 657 363 662 333 662 _c
279 662 237 651 208 631 _c
179 610 165 580 165 542 _c
165 510 174 485 194 469 _c
213 452 250 439 304 429 _c
364 417 _l
437 403 491 378 526 343 _c
561 307 579 260 579 201 _c
579 130 555 77 508 41 _c
460 5 391 -13 300 -13 _c
265 -13 228 -9 189 -2 _c
}_e{150 5 110 16 69 32 _c
69 134 _l
109 111 148 94 186 83 _c
224 71 262 66 300 66 _c
356 66 399 77 430 99 _c
460 121 476 152 476 194 _c
476 230 465 258 443 278 _c
421 298 385 313 335 323 _c
275 335 _l
201 349 148 372 115 404 _c
82 435 66 478 66 534 _c
66 598 88 649 134 686 _c
179 723 242 742 322 742 _c
356 742 390 739 426 733 _c
461 727 497 717 535 705 _c
}_e{_cl}_e}_d
/a{{613 0 60 -13 522 560 _sc
343 275 _m
270 275 220 266 192 250 _c
164 233 150 205 150 165 _c
150 133 160 107 181 89 _c
202 70 231 61 267 61 _c
317 61 357 78 387 114 _c
417 149 432 196 432 255 _c
432 275 _l
343 275 _l
522 312 _m
522 0 _l
432 0 _l
432 83 _l
411 49 385 25 355 10 _c
325 -5 287 -13 243 -13 _c
187 -13 142 2 109 33 _c
76 64 60 106 60 159 _c
}_e{60 220 80 266 122 298 _c
163 329 224 345 306 345 _c
432 345 _l
432 354 _l
432 395 418 427 391 450 _c
364 472 326 484 277 484 _c
245 484 215 480 185 472 _c
155 464 127 453 100 439 _c
100 522 _l
132 534 164 544 195 550 _c
226 556 256 560 286 560 _c
365 560 424 539 463 498 _c
502 457 522 395 522 312 _c
_cl}_e}_d
/d{{635 0 55 -13 544 760 _sc
454 464 _m
454 760 _l
544 760 _l
544 0 _l
454 0 _l
454 82 _l
435 49 411 25 382 10 _c
353 -5 319 -13 279 -13 _c
213 -13 159 13 117 65 _c
75 117 55 187 55 273 _c
55 359 75 428 117 481 _c
159 533 213 560 279 560 _c
319 560 353 552 382 536 _c
411 520 435 496 454 464 _c
148 273 _m
148 207 161 155 188 117 _c
215 79 253 61 301 61 _c
}_e{348 61 385 79 413 117 _c
440 155 454 207 454 273 _c
454 339 440 390 413 428 _c
385 466 348 485 301 485 _c
253 485 215 466 188 428 _c
161 390 148 339 148 273 _c
_cl}_e}_d
/e{{615 0 55 -13 562 560 _sc
562 296 _m
562 252 _l
149 252 _l
153 190 171 142 205 110 _c
238 78 284 62 344 62 _c
378 62 412 66 444 74 _c
476 82 509 95 541 113 _c
541 28 _l
509 14 476 3 442 -3 _c
408 -9 373 -13 339 -13 _c
251 -13 182 12 131 62 _c
80 112 55 181 55 268 _c
55 357 79 428 127 481 _c
175 533 241 560 323 560 _c
397 560 455 536 498 489 _c
}_e{540 441 562 377 562 296 _c
472 322 _m
471 371 457 410 431 440 _c
404 469 368 484 324 484 _c
274 484 234 469 204 441 _c
174 413 156 373 152 322 _c
472 322 _l
_cl}_e}_d
/i{278 0 94 0 184 760 _sc
94 547 _m
184 547 _l
184 0 _l
94 0 _l
94 547 _l
94 760 _m
184 760 _l
184 646 _l
94 646 _l
94 760 _l
_cl}_d
/m{{974 0 91 0 889 560 _sc
520 442 _m
542 482 569 511 600 531 _c
631 550 668 560 711 560 _c
767 560 811 540 842 500 _c
873 460 889 403 889 330 _c
889 0 _l
799 0 _l
799 327 _l
799 379 789 418 771 444 _c
752 469 724 482 686 482 _c
639 482 602 466 575 435 _c
548 404 535 362 535 309 _c
535 0 _l
445 0 _l
445 327 _l
445 379 435 418 417 444 _c
398 469 369 482 331 482 _c
}_e{285 482 248 466 221 435 _c
194 404 181 362 181 309 _c
181 0 _l
91 0 _l
91 547 _l
181 547 _l
181 462 _l
201 495 226 520 255 536 _c
283 552 317 560 357 560 _c
397 560 430 550 458 530 _c
486 510 506 480 520 442 _c
_cl}_e}_d
/n{634 0 91 0 549 560 _sc
549 330 _m
549 0 _l
459 0 _l
459 327 _l
459 379 448 417 428 443 _c
408 469 378 482 338 482 _c
289 482 251 466 223 435 _c
195 404 181 362 181 309 _c
181 0 _l
91 0 _l
91 547 _l
181 547 _l
181 462 _l
202 494 227 519 257 535 _c
286 551 320 560 358 560 _c
420 560 468 540 500 501 _c
532 462 549 405 549 330 _c
_cl}_d
/o{612 0 55 -13 557 560 _sc
306 484 _m
258 484 220 465 192 427 _c
164 389 150 338 150 273 _c
150 207 163 156 191 118 _c
219 80 257 62 306 62 _c
354 62 392 80 420 118 _c
448 156 462 207 462 273 _c
462 337 448 389 420 427 _c
392 465 354 484 306 484 _c
306 560 _m
384 560 445 534 490 484 _c
534 433 557 363 557 273 _c
557 183 534 113 490 63 _c
445 12 384 -13 306 -13 _c
227 -13 165 12 121 63 _c
77 113 55 183 55 273 _c
55 363 77 433 121 484 _c
165 534 227 560 306 560 _c
_cl}_d
/p{{635 0 91 -207 580 560 _sc
181 82 _m
181 -207 _l
91 -207 _l
91 547 _l
181 547 _l
181 464 _l
199 496 223 520 252 536 _c
281 552 316 560 356 560 _c
422 560 476 533 518 481 _c
559 428 580 359 580 273 _c
580 187 559 117 518 65 _c
476 13 422 -13 356 -13 _c
316 -13 281 -5 252 10 _c
223 25 199 49 181 82 _c
487 273 _m
487 339 473 390 446 428 _c
418 466 381 485 334 485 _c
}_e{286 485 249 466 222 428 _c
194 390 181 339 181 273 _c
181 207 194 155 222 117 _c
249 79 286 61 334 61 _c
381 61 418 79 446 117 _c
473 155 487 207 487 273 _c
_cl}_e}_d
/r{411 0 91 0 411 560 _sc
411 463 _m
401 469 390 473 378 476 _c
366 478 353 480 339 480 _c
288 480 249 463 222 430 _c
194 397 181 350 181 288 _c
181 0 _l
91 0 _l
91 547 _l
181 547 _l
181 462 _l
199 495 224 520 254 536 _c
284 552 321 560 365 560 _c
371 560 378 559 386 559 _c
393 558 401 557 411 555 _c
411 463 _l
_cl}_d
/s{{521 0 54 -13 472 560 _sc
443 531 _m
443 446 _l
417 458 391 468 364 475 _c
336 481 308 485 279 485 _c
234 485 200 478 178 464 _c
156 450 145 430 145 403 _c
145 382 153 366 169 354 _c
185 342 217 330 265 320 _c
296 313 _l
360 299 405 279 432 255 _c
458 230 472 195 472 151 _c
472 100 452 60 412 31 _c
372 1 316 -13 246 -13 _c
216 -13 186 -10 154 -5 _c
}_e{122 0 89 8 54 20 _c
54 113 _l
87 95 120 82 152 74 _c
184 65 216 61 248 61 _c
290 61 323 68 346 82 _c
368 96 380 117 380 144 _c
380 168 371 187 355 200 _c
339 213 303 226 247 238 _c
216 245 _l
160 257 119 275 95 299 _c
70 323 58 356 58 399 _c
58 450 76 490 112 518 _c
148 546 200 560 268 560 _c
301 560 332 557 362 552 _c
391 547 418 540 443 531 _c
}_e{_cl}_e}_d
/t{392 0 27 0 368 702 _sc
183 702 _m
183 547 _l
368 547 _l
368 477 _l
183 477 _l
183 180 _l
183 135 189 106 201 94 _c
213 81 238 75 276 75 _c
368 75 _l
368 0 _l
276 0 _l
206 0 158 13 132 39 _c
106 65 93 112 93 180 _c
93 477 _l
27 477 _l
27 547 _l
93 547 _l
93 702 _l
183 702 _l
_cl}_d
/v{592 0 30 0 562 547 _sc
30 547 _m
125 547 _l
296 88 _l
467 547 _l
562 547 _l
357 0 _l
235 0 _l
30 547 _l
_cl}_d
end readonly def

/BuildGlyph
 {exch begin
 CharStrings exch
 2 copy known not{pop /.notdef}if
 true 3 1 roll get exec
 end}_d

/BuildChar {
 1 index /Encoding get exch get
 1 index /BuildGlyph get exec
}_d

FontName currentdict end definefont pop
end
%%EndProlog
mpldict begin
666.628 -163.575 translate
90 rotate
1119.151 721.256 0 0 clipbox
gsave
0 0 m
1119.150625 0 l
1119.150625 721.25575 l
0 721.25575 l
cl
1.000 setgray
fill
grestore
gsave
40.590625 37.54375 m
1111.950625 37.54375 l
1111.950625 636.29575 l
40.590625 636.29575 l
cl
1.000 setgray
fill
grestore
0.800 setlinewidth
1 setlinejoin
0 setlinecap
[] 0 setdash
0.000 setgray
gsave
/o {
gsave
newpath
translate
0.8 setlinewidth
1 setlinejoin
0 setlinecap
0 0 m
0 -3.5 l

gsave
0.000 setgray
fill
grestore
stroke
grestore
} bind def
89.2888 37.5438 o
grestore
/DejaVuSans findfont
10.000 scalefont
setfont
gsave
81.335682 22.950000 translate
0.000000 rotate
0.000000 0 m /zero glyphshow
6.362305 0 m /period glyphshow
9.541016 0 m /zero glyphshow
grestore
gsave
/o {
gsave
newpath
translate
0.8 setlinewidth
1 setlinejoin
0 setlinecap
0 0 m
0 -3.5 l

gsave
0.000 setgray
fill
grestore
stroke
grestore
} bind def
284.101 37.5438 o
grestore
gsave
276.147890 22.950000 translate
0.000000 rotate
0.000000 0 m /zero glyphshow
6.362305 0 m /period glyphshow
9.541016 0 m /two glyphshow
grestore
gsave
/o {
gsave
newpath
translate
0.8 setlinewidth
1 setlinejoin
0 setlinecap
0 0 m
0 -3.5 l

gsave
0.000 setgray
fill
grestore
stroke
grestore
} bind def
478.913 37.5438 o
grestore
gsave
470.960099 22.950000 translate
0.000000 rotate
0.000000 0 m /zero glyphshow
6.362305 0 m /period glyphshow
9.541016 0 m /four glyphshow
grestore
gsave
/o {
gsave
newpath
translate
0.8 setlinewidth
1 setlinejoin
0 setlinecap
0 0 m
0 -3.5 l

gsave
0.000 setgray
fill
grestore
stroke
grestore
} bind def
673.725 37.5438 o
grestore
gsave
665.772307 22.950000 translate
0.000000 rotate
0.000000 0 m /zero glyphshow
6.362305 0 m /period glyphshow
9.541016 0 m /six glyphshow
grestore
gsave
/o {
gsave
newpath
translate
0.8 setlinewidth
1 setlinejoin
0 setlinecap
0 0 m
0 -3.5 l

gsave
0.000 setgray
fill
grestore
stroke
grestore
} bind def
868.538 37.5438 o
grestore
gsave
860.584516 22.950000 translate
0.000000 rotate
0.000000 0 m /zero glyphshow
6.362305 0 m /period glyphshow
9.541016 0 m /eight glyphshow
grestore
gsave
/o {
gsave
newpath
translate
0.8 setlinewidth
1 setlinejoin
0 setlinecap
0 0 m
0 -3.5 l

gsave
0.000 setgray
fill
grestore
stroke
grestore
} bind def
1063.35 37.5438 o
grestore
gsave
1055.396724 22.950000 translate
0.000000 rotate
0.000000 0 m /one glyphshow
6.362305 0 m /period glyphshow
9.541016 0 m /zero glyphshow
grestore
gsave
552.442500 9.278125 translate
0.000000 rotate
0.000000 0 m /I glyphshow
2.949219 0 m /t glyphshow
6.870117 0 m /e glyphshow
13.022461 0 m /r glyphshow
17.133789 0 m /a glyphshow
23.261719 0 m /t glyphshow
27.182617 0 m /i glyphshow
29.960938 0 m /o glyphshow
36.079102 0 m /n glyphshow
42.416992 0 m /s glyphshow
grestore
gsave
1093.075625 10.278125 translate
0.000000 rotate
0.000000 0 m /one glyphshow
6.362305 0 m /e glyphshow
12.514648 0 m /eight glyphshow
grestore
gsave
/o {
gsave
newpath
translate
0.8 setlinewidth
1 setlinejoin
0 setlinecap
0 0 m
-3.5 0 l

gsave
0.000 setgray
fill
grestore
stroke
grestore
} bind def
40.5906 46.2582 o
grestore
gsave
27.231250 42.461298 translate
0.000000 rotate
0.000000 0 m /zero glyphshow
grestore
gsave
/o {
gsave
newpath
translate
0.8 setlinewidth
1 setlinejoin
0 setlinecap
0 0 m
-3.5 0 l

gsave
0.000 setgray
fill
grestore
stroke
grestore
} bind def
40.5906 122.697 o
grestore
gsave
20.871875 118.900517 translate
0.000000 rotate
0.000000 0 m /one glyphshow
6.362305 0 m /zero glyphshow
grestore
gsave
/o {
gsave
newpath
translate
0.8 setlinewidth
1 setlinejoin
0 setlinecap
0 0 m
-3.5 0 l

gsave
0.000 setgray
fill
grestore
stroke
grestore
} bind def
40.5906 199.137 o
grestore
gsave
20.871875 195.339736 translate
0.000000 rotate
0.000000 0 m /two glyphshow
6.362305 0 m /zero glyphshow
grestore
gsave
/o {
gsave
newpath
translate
0.8 setlinewidth
1 setlinejoin
0 setlinecap
0 0 m
-3.5 0 l

gsave
0.000 setgray
fill
grestore
stroke
grestore
} bind def
40.5906 275.576 o
grestore
gsave
20.871875 271.778955 translate
0.000000 rotate
0.000000 0 m /three glyphshow
6.362305 0 m /zero glyphshow
grestore
gsave
/o {
gsave
newpath
translate
0.8 setlinewidth
1 setlinejoin
0 setlinecap
0 0 m
-3.5 0 l

gsave
0.000 setgray
fill
grestore
stroke
grestore
} bind def
40.5906 352.015 o
grestore
gsave
20.871875 348.218174 translate
0.000000 rotate
0.000000 0 m /four glyphshow
6.362305 0 m /zero glyphshow
grestore
gsave
/o {
gsave
newpath
translate
0.8 setlinewidth
1 setlinejoin
0 setlinecap
0 0 m
-3.5 0 l

gsave
0.000 setgray
fill
grestore
stroke
grestore
} bind def
40.5906 428.454 o
grestore
gsave
20.871875 424.657392 translate
0.000000 rotate
0.000000 0 m /five glyphshow
6.362305 0 m /zero glyphshow
grestore
gsave
/o {
gsave
newpath
translate
0.8 setlinewidth
1 setlinejoin
0 setlinecap
0 0 m
-3.5 0 l

gsave
0.000 setgray
fill
grestore
stroke
grestore
} bind def
40.5906 504.893 o
grestore
gsave
20.871875 501.096611 translate
0.000000 rotate
0.000000 0 m /six glyphshow
6.362305 0 m /zero glyphshow
grestore
gsave
/o {
gsave
newpath
translate
0.8 setlinewidth
1 setlinejoin
0 setlinecap
0 0 m
-3.5 0 l

gsave
0.000 setgray
fill
grestore
stroke
grestore
} bind def
40.5906 581.333 o
grestore
gsave
20.871875 577.535830 translate
0.000000 rotate
0.000000 0 m /seven glyphshow
6.362305 0 m /zero glyphshow
grestore
gsave
14.793750 289.310375 translate
90.000000 rotate
0.000000 0 m /S glyphshow
6.347656 0 m /t glyphshow
10.268555 0 m /a glyphshow
16.396484 0 m /n glyphshow
22.734375 0 m /d glyphshow
29.082031 0 m /a glyphshow
35.209961 0 m /r glyphshow
39.196289 0 m /d glyphshow
45.543945 0 m /space glyphshow
48.722656 0 m /d glyphshow
55.070312 0 m /e glyphshow
61.222656 0 m /v glyphshow
67.140625 0 m /i glyphshow
69.918945 0 m /a glyphshow
76.046875 0 m /t glyphshow
79.967773 0 m /i glyphshow
82.746094 0 m /o glyphshow
88.864258 0 m /n glyphshow
grestore
1.500 setlinewidth
2 setlinecap
0.122 0.467 0.706 setrgbcolor
gsave
1071 598.8 40.59 37.54 clipbox
89.288807 609.012462 m
802.78852 606.240709 l
1063.252443 605.282472 l
1063.252443 605.282472 l
stroke
grestore
1.000 0.498 0.055 setrgbcolor
gsave
1071 598.8 40.59 37.54 clipbox
89.288807 608.433973 m
124.842035 588.931418 l
128.446061 586.881601 l
153.576836 572.469399 l
158.934171 569.352627 l
185.136413 554.048877 l
189.422282 551.533825 l
218.157083 535.217007 l
241.242329 522.823453 l
250.788128 518.010477 l
262.963891 512.219279 l
277.379994 505.948829 l
282.347705 503.9376 l
289.360945 501.28721 l
305.335546 495.882753 l
313.420253 493.531344 l
319.654243 491.88243 l
334.265159 488.601465 l
339.427683 487.619672 l
347.220171 486.312011 l
354.136004 485.313922 l
362.902554 484.245565 l
376.73422 482.939229 l
389.104796 482.087705 l
407.027519 481.239249 l
424.170993 480.720779 l
445.113306 480.355592 l
483.00428 480.041367 l
558.396605 479.877126 l
690.771501 479.84887 l
1063.252443 479.843957 l
1063.252443 479.843957 l
stroke
grestore
0.173 0.627 0.173 setrgbcolor
gsave
1071 598.8 40.59 37.54 clipbox
89.288807 609.07975 m
95.035767 587.761556 l
100.19829 567.592386 l
103.315286 554.873727 l
106.432281 541.612264 l
114.614394 503.527729 l
117.926201 486.607972 l
121.432821 467.661293 l
126.497939 437.870562 l
130.101964 414.936344 l
136.628173 369.818559 l
144.420662 312.698877 l
152.21315 256.841522 l
156.2068 230.686023 l
160.395263 205.848277 l
163.512258 189.187824 l
167.505909 169.994322 l
170.038467 159.109787 l
173.642493 145.375787 l
175.103585 140.271326 l
177.538737 132.462241 l
181.142763 122.087583 l
184.064946 114.604524 l
186.110474 109.849805 l
188.643033 104.508057 l
190.98078 100.0897 l
194.682212 93.899412 l
198.383644 88.570744 l
201.403233 84.884158 l
203.740979 82.355605 l
207.73463 78.567647 l
210.559407 76.356927 l
214.455651 73.804432 l
217.767458 72.047774 l
220.98186 70.654438 l
225.949571 68.978293 l
231.112095 67.780161 l
235.300557 67.097975 l
240.463081 66.504026 l
249.034818 65.90416 l
259.554677 65.528038 l
274.457811 65.280656 l
318.874995 65.026772 l
381.312307 64.912591 l
524.401874 64.823933 l
1063.252443 64.75975 l
1063.252443 64.75975 l
stroke
grestore
0.839 0.153 0.157 setrgbcolor
gsave
1071 598.8 40.59 37.54 clipbox
89.288807 608.938153 m
176.369864 608.321899 l
344.687612 607.128805 l
898.343909 603.593841 l
1063.252443 602.865966 l
1063.252443 602.865966 l
stroke
grestore
0.580 0.404 0.741 setrgbcolor
gsave
1071 598.8 40.59 37.54 clipbox
89.288807 608.973915 m
96.496859 602.592601 l
99.419042 599.957828 l
103.607504 596.150232 l
112.081835 588.369838 l
119.095075 581.787878 l
124.160192 576.967053 l
132.634523 568.833661 l
156.693831 545.728635 l
161.174512 541.553342 l
167.798127 535.490759 l
175.103585 529.038262 l
189.422282 517.351714 l
196.532928 512.129816 l
202.669512 507.978418 l
206.176132 505.797604 l
208.903503 504.173467 l
218.254489 499.230392 l
223.124794 497.066204 l
228.384724 495.011221 l
234.034278 493.112277 l
238.417552 491.855752 l
244.456731 490.399415 l
251.567376 489.061536 l
262.184642 487.622354 l
268.126414 487.052038 l
279.23071 486.316511 l
292.380534 485.802535 l
308.452541 485.48564 l
331.148164 485.30196 l
379.364185 485.220596 l
838.536561 485.210053 l
1063.252443 485.209688 l
1063.252443 485.209688 l
stroke
grestore
0.549 0.337 0.294 setrgbcolor
gsave
1071 598.8 40.59 37.54 clipbox
89.288807 608.473072 m
96.20464 565.207959 l
100.782727 532.99629 l
103.997129 508.191776 l
106.529687 487.129425 l
108.96484 465.213409 l
111.107774 444.389712 l
114.029957 414.255593 l
117.536577 375.332368 l
126.010908 277.967987 l
128.933091 247.163935 l
131.46565 223.032186 l
133.511178 205.185108 l
136.822986 180.456234 l
138.673702 168.302335 l
140.134793 159.649579 l
141.985509 149.743555 l
144.128444 139.742313 l
146.855814 129.064147 l
148.609124 123.244629 l
150.946871 116.747072 l
153.284617 111.323581 l
154.745709 108.395353 l
157.375674 104.05101 l
159.810826 100.991625 l
161.369324 99.405488 l
163.999289 97.240143 l
166.434441 95.714594 l
168.674782 94.58991 l
169.941061 94.069537 l
173.350275 93.02194 l
176.077646 92.45068 l
178.707611 92.054608 l
182.506449 91.67025 l
187.181942 91.401963 l
195.46146 91.198811 l
211.436062 91.09992 l
261.405393 91.069724 l
1063.252443 91.062103 l
1063.252443 91.062103 l
stroke
grestore
0.800 setlinewidth
0 setlinejoin
[] 0 setdash
0.000 setgray
gsave
40.590625 37.54375 m
40.590625 636.29575 l
stroke
grestore
gsave
1111.950625 37.54375 m
1111.950625 636.29575 l
stroke
grestore
gsave
40.590625 37.54375 m
1111.950625 37.54375 l
stroke
grestore
gsave
40.590625 636.29575 m
1111.950625 636.29575 l
stroke
grestore
1.000 setlinewidth
0 setlinecap
0.800 setgray
gsave
990.9975 291.404125 m
1104.950625 291.404125 l
1106.283958 291.404125 1106.950625 292.070792 1106.950625 293.404125 c
1106.950625 380.435375 l
1106.950625 381.768708 1106.283958 382.435375 1104.950625 382.435375 c
990.9975 382.435375 l
989.664167 382.435375 988.9975 381.768708 988.9975 380.435375 c
988.9975 293.404125 l
988.9975 292.070792 989.664167 291.404125 990.9975 291.404125 c
cl
gsave
1.000 setgray
fill
grestore
stroke
grestore
1.500 setlinewidth
1 setlinejoin
2 setlinecap
[] 0 setdash
0.122 0.467 0.706 setrgbcolor
gsave
992.9975 374.341625 m
1012.9975 374.341625 l
stroke
grestore
0.000 setgray
gsave
1020.997500 370.841625 translate
0.000000 rotate
0.000000 0 m /m glyphshow
9.741211 0 m /colon glyphshow
13.110352 0 m /space glyphshow
16.289062 0 m /zero glyphshow
22.651367 0 m /period glyphshow
25.830078 0 m /three glyphshow
32.192383 0 m /comma glyphshow
35.371094 0 m /space glyphshow
38.549805 0 m /e glyphshow
44.702148 0 m /p glyphshow
51.049805 0 m /s glyphshow
56.259766 0 m /colon glyphshow
59.628906 0 m /space glyphshow
62.807617 0 m /one glyphshow
69.169922 0 m /zero glyphshow
grestore
1.000 0.498 0.055 setrgbcolor
gsave
992.9975 359.66975 m
1012.9975 359.66975 l
stroke
grestore
0.000 setgray
gsave
1020.997500 356.169750 translate
0.000000 rotate
0.000000 0 m /m glyphshow
9.741211 0 m /colon glyphshow
13.110352 0 m /space glyphshow
16.289062 0 m /zero glyphshow
22.651367 0 m /period glyphshow
25.830078 0 m /three glyphshow
32.192383 0 m /comma glyphshow
35.371094 0 m /space glyphshow
38.549805 0 m /e glyphshow
44.702148 0 m /p glyphshow
51.049805 0 m /s glyphshow
56.259766 0 m /colon glyphshow
59.628906 0 m /space glyphshow
62.807617 0 m /five glyphshow
69.169922 0 m /zero glyphshow
grestore
0.173 0.627 0.173 setrgbcolor
gsave
992.9975 344.997875 m
1012.9975 344.997875 l
stroke
grestore
0.000 setgray
gsave
1020.997500 341.497875 translate
0.000000 rotate
0.000000 0 m /m glyphshow
9.741211 0 m /colon glyphshow
13.110352 0 m /space glyphshow
16.289062 0 m /zero glyphshow
22.651367 0 m /period glyphshow
25.830078 0 m /three glyphshow
32.192383 0 m /comma glyphshow
35.371094 0 m /space glyphshow
38.549805 0 m /e glyphshow
44.702148 0 m /p glyphshow
51.049805 0 m /s glyphshow
56.259766 0 m /colon glyphshow
59.628906 0 m /space glyphshow
62.807617 0 m /one glyphshow
69.169922 0 m /zero glyphshow
75.532227 0 m /zero glyphshow
grestore
0.839 0.153 0.157 setrgbcolor
gsave
992.9975 330.326 m
1012.9975 330.326 l
stroke
grestore
0.000 setgray
gsave
1020.997500 326.826000 translate
0.000000 rotate
0.000000 0 m /m glyphshow
9.741211 0 m /colon glyphshow
13.110352 0 m /space glyphshow
16.289062 0 m /zero glyphshow
22.651367 0 m /period glyphshow
25.830078 0 m /six glyphshow
32.192383 0 m /comma glyphshow
35.371094 0 m /space glyphshow
38.549805 0 m /e glyphshow
44.702148 0 m /p glyphshow
51.049805 0 m /s glyphshow
56.259766 0 m /colon glyphshow
59.628906 0 m /space glyphshow
62.807617 0 m /one glyphshow
69.169922 0 m /zero glyphshow
grestore
0.580 0.404 0.741 setrgbcolor
gsave
992.9975 315.654125 m
1012.9975 315.654125 l
stroke
grestore
0.000 setgray
gsave
1020.997500 312.154125 translate
0.000000 rotate
0.000000 0 m /m glyphshow
9.741211 0 m /colon glyphshow
13.110352 0 m /space glyphshow
16.289062 0 m /zero glyphshow
22.651367 0 m /period glyphshow
25.830078 0 m /six glyphshow
32.192383 0 m /comma glyphshow
35.371094 0 m /space glyphshow
38.549805 0 m /e glyphshow
44.702148 0 m /p glyphshow
51.049805 0 m /s glyphshow
56.259766 0 m /colon glyphshow
59.628906 0 m /space glyphshow
62.807617 0 m /five glyphshow
69.169922 0 m /zero glyphshow
grestore
0.549 0.337 0.294 setrgbcolor
gsave
992.9975 300.98225 m
1012.9975 300.98225 l
stroke
grestore
0.000 setgray
gsave
1020.997500 297.482250 translate
0.000000 rotate
0.000000 0 m /m glyphshow
9.741211 0 m /colon glyphshow
13.110352 0 m /space glyphshow
16.289062 0 m /zero glyphshow
22.651367 0 m /period glyphshow
25.830078 0 m /six glyphshow
32.192383 0 m /comma glyphshow
35.371094 0 m /space glyphshow
38.549805 0 m /e glyphshow
44.702148 0 m /p glyphshow
51.049805 0 m /s glyphshow
56.259766 0 m /colon glyphshow
59.628906 0 m /space glyphshow
62.807617 0 m /one glyphshow
69.169922 0 m /zero glyphshow
75.532227 0 m /zero glyphshow
grestore
/DejaVuSans findfont
12.000 scalefont
setfont
gsave
501.889062 704.930750 translate
0.000000 rotate
0.000000 0 m /S glyphshow
7.617188 0 m /t glyphshow
12.322266 0 m /a glyphshow
19.675781 0 m /n glyphshow
27.281250 0 m /d glyphshow
34.898438 0 m /a glyphshow
42.251953 0 m /r glyphshow
46.935547 0 m /d glyphshow
54.552734 0 m /space glyphshow
58.367188 0 m /d glyphshow
65.984375 0 m /e glyphshow
73.367188 0 m /v glyphshow
80.468750 0 m /i glyphshow
83.802734 0 m /a glyphshow
91.156250 0 m /t glyphshow
95.861328 0 m /i glyphshow
99.195312 0 m /o glyphshow
106.537109 0 m /n glyphshow
grestore

end
showpage
