%!PS-Adobe-3.0 EPSF-3.0
%%Title: ./fig/b_std_report_official.eps
%%Creator: matplotlib version 3.2.1, http://matplotlib.org/
%%CreationDate: Fri Apr 24 11:43:20 2020
%%Orientation: landscape
%%BoundingBox: 145.028125 65.20468750000002 466.971875 726.7953124999999
%%EndComments
%%BeginProlog
/mpldict 8 dict def
mpldict begin
/m { moveto } bind def
/l { lineto } bind def
/r { rlineto } bind def
/c { curveto } bind def
/cl { closepath } bind def
/box {
m
1 index 0 r
0 exch r
neg 0 r
cl
} bind def
/clipbox {
box
clip
newpath
} bind def
%!PS-Adobe-3.0 Resource-Font
%%Title: DejaVu Sans
%%Copyright: Copyright (c) 2003 by Bitstream, Inc. All Rights Reserved. Copyright (c) 2006 by Tavmjong Bah. All Rights Reserved. DejaVu changes are in public domain 
%%Creator: Converted from TrueType to type 3 by PPR
25 dict begin
/_d{bind def}bind def
/_m{moveto}_d
/_l{lineto}_d
/_cl{closepath eofill}_d
/_c{curveto}_d
/_sc{7 -1 roll{setcachedevice}{pop pop pop pop pop pop}ifelse}_d
/_e{exec}_d
/FontName /DejaVuSans def
/PaintType 0 def
/FontMatrix[.001 0 0 .001 0 0]def
/FontBBox[-1021 -463 1793 1232]def
/FontType 3 def
/Encoding [ /space /comma /period /zero /one /two /three /four /five /six /seven /colon /I /S /a /d /e /i /m /n /o /p /r /s /t /v ] def
/FontInfo 10 dict dup begin
/FamilyName (DejaVu Sans) def
/FullName (DejaVu Sans) def
/Notice (Copyright (c) 2003 by Bitstream, Inc. All Rights Reserved. Copyright (c) 2006 by Tavmjong Bah. All Rights Reserved. DejaVu changes are in public domain ) def
/Weight (Book) def
/Version (Version 2.35) def
/ItalicAngle 0.0 def
/isFixedPitch false def
/UnderlinePosition -130 def
/UnderlineThickness 90 def
end readonly def
/CharStrings 27 dict dup begin
/.notdef 0 def
/space{318 0 0 0 0 0 _sc
}_d
/comma{318 0 77 -115 220 124 _sc
117 124 _m
220 124 _l
220 40 _l
140 -115 _l
77 -115 _l
117 40 _l
117 124 _l
_cl}_d
/period{318 0 107 0 210 124 _sc
107 124 _m
210 124 _l
210 0 _l
107 0 _l
107 124 _l
_cl}_d
/zero{636 0 66 -13 570 742 _sc
318 664 _m
267 664 229 639 203 589 _c
177 539 165 464 165 364 _c
165 264 177 189 203 139 _c
229 89 267 64 318 64 _c
369 64 407 89 433 139 _c
458 189 471 264 471 364 _c
471 464 458 539 433 589 _c
407 639 369 664 318 664 _c
318 742 _m
399 742 461 709 505 645 _c
548 580 570 486 570 364 _c
570 241 548 147 505 83 _c
461 19 399 -13 318 -13 _c
236 -13 173 19 130 83 _c
87 147 66 241 66 364 _c
66 486 87 580 130 645 _c
173 709 236 742 318 742 _c
_cl}_d
/one{636 0 110 0 544 729 _sc
124 83 _m
285 83 _l
285 639 _l
110 604 _l
110 694 _l
284 729 _l
383 729 _l
383 83 _l
544 83 _l
544 0 _l
124 0 _l
124 83 _l
_cl}_d
/two{{636 0 73 0 536 742 _sc
192 83 _m
536 83 _l
536 0 _l
73 0 _l
73 83 _l
110 121 161 173 226 239 _c
290 304 331 346 348 365 _c
380 400 402 430 414 455 _c
426 479 433 504 433 528 _c
433 566 419 598 392 622 _c
365 646 330 659 286 659 _c
255 659 222 653 188 643 _c
154 632 117 616 78 594 _c
78 694 _l
118 710 155 722 189 730 _c
223 738 255 742 284 742 _c
}_e{359 742 419 723 464 685 _c
509 647 532 597 532 534 _c
532 504 526 475 515 449 _c
504 422 484 390 454 354 _c
446 344 420 317 376 272 _c
332 227 271 164 192 83 _c
_cl}_e}_d
/three{{636 0 76 -13 556 742 _sc
406 393 _m
453 383 490 362 516 330 _c
542 298 556 258 556 212 _c
556 140 531 84 482 45 _c
432 6 362 -13 271 -13 _c
240 -13 208 -10 176 -4 _c
144 1 110 10 76 22 _c
76 117 _l
103 101 133 89 166 81 _c
198 73 232 69 268 69 _c
330 69 377 81 409 105 _c
441 129 458 165 458 212 _c
458 254 443 288 413 312 _c
383 336 341 349 287 349 _c
}_e{202 349 _l
202 430 _l
291 430 _l
339 430 376 439 402 459 _c
428 478 441 506 441 543 _c
441 580 427 609 401 629 _c
374 649 336 659 287 659 _c
260 659 231 656 200 650 _c
169 644 135 635 98 623 _c
98 711 _l
135 721 170 729 203 734 _c
235 739 266 742 296 742 _c
370 742 429 725 473 691 _c
517 657 539 611 539 553 _c
539 513 527 479 504 451 _c
481 423 448 403 406 393 _c
_cl}_e}_d
/four{636 0 49 0 580 729 _sc
378 643 _m
129 254 _l
378 254 _l
378 643 _l
352 729 _m
476 729 _l
476 254 _l
580 254 _l
580 172 _l
476 172 _l
476 0 _l
378 0 _l
378 172 _l
49 172 _l
49 267 _l
352 729 _l
_cl}_d
/five{{636 0 77 -13 549 729 _sc
108 729 _m
495 729 _l
495 646 _l
198 646 _l
198 467 _l
212 472 227 476 241 478 _c
255 480 270 482 284 482 _c
365 482 429 459 477 415 _c
525 370 549 310 549 234 _c
549 155 524 94 475 51 _c
426 8 357 -13 269 -13 _c
238 -13 207 -10 175 -6 _c
143 -1 111 6 77 17 _c
77 116 _l
106 100 136 88 168 80 _c
199 72 232 69 267 69 _c
}_e{323 69 368 83 401 113 _c
433 143 450 183 450 234 _c
450 284 433 324 401 354 _c
368 384 323 399 267 399 _c
241 399 214 396 188 390 _c
162 384 135 375 108 363 _c
108 729 _l
_cl}_e}_d
/six{{636 0 70 -13 573 742 _sc
330 404 _m
286 404 251 388 225 358 _c
199 328 186 286 186 234 _c
186 181 199 139 225 109 _c
251 79 286 64 330 64 _c
374 64 409 79 435 109 _c
461 139 474 181 474 234 _c
474 286 461 328 435 358 _c
409 388 374 404 330 404 _c
526 713 _m
526 623 _l
501 635 476 644 451 650 _c
425 656 400 659 376 659 _c
310 659 260 637 226 593 _c
}_e{192 549 172 482 168 394 _c
187 422 211 444 240 459 _c
269 474 301 482 336 482 _c
409 482 467 459 509 415 _c
551 371 573 310 573 234 _c
573 159 550 99 506 54 _c
462 9 403 -13 330 -13 _c
246 -13 181 19 137 83 _c
92 147 70 241 70 364 _c
70 479 97 571 152 639 _c
206 707 280 742 372 742 _c
396 742 421 739 447 735 _c
472 730 498 723 526 713 _c
_cl}_e}_d
/seven{636 0 82 0 551 729 _sc
82 729 _m
551 729 _l
551 687 _l
286 0 _l
183 0 _l
432 646 _l
82 646 _l
82 729 _l
_cl}_d
/colon{337 0 117 0 220 517 _sc
117 124 _m
220 124 _l
220 0 _l
117 0 _l
117 124 _l
117 517 _m
220 517 _l
220 393 _l
117 393 _l
117 517 _l
_cl}_d
/I{295 0 98 0 197 729 _sc
98 729 _m
197 729 _l
197 0 _l
98 0 _l
98 729 _l
_cl}_d
/S{{635 0 66 -13 579 742 _sc
535 705 _m
535 609 _l
497 627 462 640 429 649 _c
395 657 363 662 333 662 _c
279 662 237 651 208 631 _c
179 610 165 580 165 542 _c
165 510 174 485 194 469 _c
213 452 250 439 304 429 _c
364 417 _l
437 403 491 378 526 343 _c
561 307 579 260 579 201 _c
579 130 555 77 508 41 _c
460 5 391 -13 300 -13 _c
265 -13 228 -9 189 -2 _c
}_e{150 5 110 16 69 32 _c
69 134 _l
109 111 148 94 186 83 _c
224 71 262 66 300 66 _c
356 66 399 77 430 99 _c
460 121 476 152 476 194 _c
476 230 465 258 443 278 _c
421 298 385 313 335 323 _c
275 335 _l
201 349 148 372 115 404 _c
82 435 66 478 66 534 _c
66 598 88 649 134 686 _c
179 723 242 742 322 742 _c
356 742 390 739 426 733 _c
461 727 497 717 535 705 _c
}_e{_cl}_e}_d
/a{{613 0 60 -13 522 560 _sc
343 275 _m
270 275 220 266 192 250 _c
164 233 150 205 150 165 _c
150 133 160 107 181 89 _c
202 70 231 61 267 61 _c
317 61 357 78 387 114 _c
417 149 432 196 432 255 _c
432 275 _l
343 275 _l
522 312 _m
522 0 _l
432 0 _l
432 83 _l
411 49 385 25 355 10 _c
325 -5 287 -13 243 -13 _c
187 -13 142 2 109 33 _c
76 64 60 106 60 159 _c
}_e{60 220 80 266 122 298 _c
163 329 224 345 306 345 _c
432 345 _l
432 354 _l
432 395 418 427 391 450 _c
364 472 326 484 277 484 _c
245 484 215 480 185 472 _c
155 464 127 453 100 439 _c
100 522 _l
132 534 164 544 195 550 _c
226 556 256 560 286 560 _c
365 560 424 539 463 498 _c
502 457 522 395 522 312 _c
_cl}_e}_d
/d{{635 0 55 -13 544 760 _sc
454 464 _m
454 760 _l
544 760 _l
544 0 _l
454 0 _l
454 82 _l
435 49 411 25 382 10 _c
353 -5 319 -13 279 -13 _c
213 -13 159 13 117 65 _c
75 117 55 187 55 273 _c
55 359 75 428 117 481 _c
159 533 213 560 279 560 _c
319 560 353 552 382 536 _c
411 520 435 496 454 464 _c
148 273 _m
148 207 161 155 188 117 _c
215 79 253 61 301 61 _c
}_e{348 61 385 79 413 117 _c
440 155 454 207 454 273 _c
454 339 440 390 413 428 _c
385 466 348 485 301 485 _c
253 485 215 466 188 428 _c
161 390 148 339 148 273 _c
_cl}_e}_d
/e{{615 0 55 -13 562 560 _sc
562 296 _m
562 252 _l
149 252 _l
153 190 171 142 205 110 _c
238 78 284 62 344 62 _c
378 62 412 66 444 74 _c
476 82 509 95 541 113 _c
541 28 _l
509 14 476 3 442 -3 _c
408 -9 373 -13 339 -13 _c
251 -13 182 12 131 62 _c
80 112 55 181 55 268 _c
55 357 79 428 127 481 _c
175 533 241 560 323 560 _c
397 560 455 536 498 489 _c
}_e{540 441 562 377 562 296 _c
472 322 _m
471 371 457 410 431 440 _c
404 469 368 484 324 484 _c
274 484 234 469 204 441 _c
174 413 156 373 152 322 _c
472 322 _l
_cl}_e}_d
/i{278 0 94 0 184 760 _sc
94 547 _m
184 547 _l
184 0 _l
94 0 _l
94 547 _l
94 760 _m
184 760 _l
184 646 _l
94 646 _l
94 760 _l
_cl}_d
/m{{974 0 91 0 889 560 _sc
520 442 _m
542 482 569 511 600 531 _c
631 550 668 560 711 560 _c
767 560 811 540 842 500 _c
873 460 889 403 889 330 _c
889 0 _l
799 0 _l
799 327 _l
799 379 789 418 771 444 _c
752 469 724 482 686 482 _c
639 482 602 466 575 435 _c
548 404 535 362 535 309 _c
535 0 _l
445 0 _l
445 327 _l
445 379 435 418 417 444 _c
398 469 369 482 331 482 _c
}_e{285 482 248 466 221 435 _c
194 404 181 362 181 309 _c
181 0 _l
91 0 _l
91 547 _l
181 547 _l
181 462 _l
201 495 226 520 255 536 _c
283 552 317 560 357 560 _c
397 560 430 550 458 530 _c
486 510 506 480 520 442 _c
_cl}_e}_d
/n{634 0 91 0 549 560 _sc
549 330 _m
549 0 _l
459 0 _l
459 327 _l
459 379 448 417 428 443 _c
408 469 378 482 338 482 _c
289 482 251 466 223 435 _c
195 404 181 362 181 309 _c
181 0 _l
91 0 _l
91 547 _l
181 547 _l
181 462 _l
202 494 227 519 257 535 _c
286 551 320 560 358 560 _c
420 560 468 540 500 501 _c
532 462 549 405 549 330 _c
_cl}_d
/o{612 0 55 -13 557 560 _sc
306 484 _m
258 484 220 465 192 427 _c
164 389 150 338 150 273 _c
150 207 163 156 191 118 _c
219 80 257 62 306 62 _c
354 62 392 80 420 118 _c
448 156 462 207 462 273 _c
462 337 448 389 420 427 _c
392 465 354 484 306 484 _c
306 560 _m
384 560 445 534 490 484 _c
534 433 557 363 557 273 _c
557 183 534 113 490 63 _c
445 12 384 -13 306 -13 _c
227 -13 165 12 121 63 _c
77 113 55 183 55 273 _c
55 363 77 433 121 484 _c
165 534 227 560 306 560 _c
_cl}_d
/p{{635 0 91 -207 580 560 _sc
181 82 _m
181 -207 _l
91 -207 _l
91 547 _l
181 547 _l
181 464 _l
199 496 223 520 252 536 _c
281 552 316 560 356 560 _c
422 560 476 533 518 481 _c
559 428 580 359 580 273 _c
580 187 559 117 518 65 _c
476 13 422 -13 356 -13 _c
316 -13 281 -5 252 10 _c
223 25 199 49 181 82 _c
487 273 _m
487 339 473 390 446 428 _c
418 466 381 485 334 485 _c
}_e{286 485 249 466 222 428 _c
194 390 181 339 181 273 _c
181 207 194 155 222 117 _c
249 79 286 61 334 61 _c
381 61 418 79 446 117 _c
473 155 487 207 487 273 _c
_cl}_e}_d
/r{411 0 91 0 411 560 _sc
411 463 _m
401 469 390 473 378 476 _c
366 478 353 480 339 480 _c
288 480 249 463 222 430 _c
194 397 181 350 181 288 _c
181 0 _l
91 0 _l
91 547 _l
181 547 _l
181 462 _l
199 495 224 520 254 536 _c
284 552 321 560 365 560 _c
371 560 378 559 386 559 _c
393 558 401 557 411 555 _c
411 463 _l
_cl}_d
/s{{521 0 54 -13 472 560 _sc
443 531 _m
443 446 _l
417 458 391 468 364 475 _c
336 481 308 485 279 485 _c
234 485 200 478 178 464 _c
156 450 145 430 145 403 _c
145 382 153 366 169 354 _c
185 342 217 330 265 320 _c
296 313 _l
360 299 405 279 432 255 _c
458 230 472 195 472 151 _c
472 100 452 60 412 31 _c
372 1 316 -13 246 -13 _c
216 -13 186 -10 154 -5 _c
}_e{122 0 89 8 54 20 _c
54 113 _l
87 95 120 82 152 74 _c
184 65 216 61 248 61 _c
290 61 323 68 346 82 _c
368 96 380 117 380 144 _c
380 168 371 187 355 200 _c
339 213 303 226 247 238 _c
216 245 _l
160 257 119 275 95 299 _c
70 323 58 356 58 399 _c
58 450 76 490 112 518 _c
148 546 200 560 268 560 _c
301 560 332 557 362 552 _c
391 547 418 540 443 531 _c
}_e{_cl}_e}_d
/t{392 0 27 0 368 702 _sc
183 702 _m
183 547 _l
368 547 _l
368 477 _l
183 477 _l
183 180 _l
183 135 189 106 201 94 _c
213 81 238 75 276 75 _c
368 75 _l
368 0 _l
276 0 _l
206 0 158 13 132 39 _c
106 65 93 112 93 180 _c
93 477 _l
27 477 _l
27 547 _l
93 547 _l
93 702 _l
183 702 _l
_cl}_d
/v{592 0 30 0 562 547 _sc
30 547 _m
125 547 _l
296 88 _l
467 547 _l
562 547 _l
357 0 _l
235 0 _l
30 547 _l
_cl}_d
end readonly def

/BuildGlyph
 {exch begin
 CharStrings exch
 2 copy known not{pop /.notdef}if
 true 3 1 roll get exec
 end}_d

/BuildChar {
 1 index /Encoding get exch get
 1 index /BuildGlyph get exec
}_d

FontName currentdict end definefont pop
end
%%EndProlog
mpldict begin
466.972 65.205 translate
90 rotate
661.591 321.944 0 0 clipbox
gsave
0 0 m
661.590625 0 l
661.590625 321.94375 l
0 321.94375 l
cl
1.000 setgray
fill
grestore
gsave
40.590625 37.54375 m
654.390625 37.54375 l
654.390625 314.74375 l
40.590625 314.74375 l
cl
1.000 setgray
fill
grestore
0.800 setlinewidth
1 setlinejoin
0 setlinecap
[] 0 setdash
0.000 setgray
gsave
/o {
gsave
newpath
translate
0.8 setlinewidth
1 setlinejoin
0 setlinecap
0 0 m
0 -3.5 l

gsave
0.000 setgray
fill
grestore
stroke
grestore
} bind def
68.4906 37.5438 o
grestore
/DejaVuSans findfont
10.000 scalefont
setfont
gsave
65.310938 22.950000 translate
0.000000 rotate
0.000000 0 m /zero glyphshow
grestore
gsave
/o {
gsave
newpath
translate
0.8 setlinewidth
1 setlinejoin
0 setlinecap
0 0 m
0 -3.5 l

gsave
0.000 setgray
fill
grestore
stroke
grestore
} bind def
180.113 37.5438 o
grestore
gsave
161.034824 22.950000 translate
0.000000 rotate
0.000000 0 m /one glyphshow
6.362305 0 m /zero glyphshow
12.724609 0 m /zero glyphshow
19.086914 0 m /zero glyphshow
25.449219 0 m /zero glyphshow
31.811523 0 m /zero glyphshow
grestore
gsave
/o {
gsave
newpath
translate
0.8 setlinewidth
1 setlinejoin
0 setlinecap
0 0 m
0 -3.5 l

gsave
0.000 setgray
fill
grestore
stroke
grestore
} bind def
291.735 37.5438 o
grestore
gsave
272.657149 22.950000 translate
0.000000 rotate
0.000000 0 m /two glyphshow
6.362305 0 m /zero glyphshow
12.724609 0 m /zero glyphshow
19.086914 0 m /zero glyphshow
25.449219 0 m /zero glyphshow
31.811523 0 m /zero glyphshow
grestore
gsave
/o {
gsave
newpath
translate
0.8 setlinewidth
1 setlinejoin
0 setlinecap
0 0 m
0 -3.5 l

gsave
0.000 setgray
fill
grestore
stroke
grestore
} bind def
403.358 37.5438 o
grestore
gsave
384.279473 22.950000 translate
0.000000 rotate
0.000000 0 m /three glyphshow
6.362305 0 m /zero glyphshow
12.724609 0 m /zero glyphshow
19.086914 0 m /zero glyphshow
25.449219 0 m /zero glyphshow
31.811523 0 m /zero glyphshow
grestore
gsave
/o {
gsave
newpath
translate
0.8 setlinewidth
1 setlinejoin
0 setlinecap
0 0 m
0 -3.5 l

gsave
0.000 setgray
fill
grestore
stroke
grestore
} bind def
514.98 37.5438 o
grestore
gsave
495.901798 22.950000 translate
0.000000 rotate
0.000000 0 m /four glyphshow
6.362305 0 m /zero glyphshow
12.724609 0 m /zero glyphshow
19.086914 0 m /zero glyphshow
25.449219 0 m /zero glyphshow
31.811523 0 m /zero glyphshow
grestore
gsave
/o {
gsave
newpath
translate
0.8 setlinewidth
1 setlinejoin
0 setlinecap
0 0 m
0 -3.5 l

gsave
0.000 setgray
fill
grestore
stroke
grestore
} bind def
626.602 37.5438 o
grestore
gsave
607.524122 22.950000 translate
0.000000 rotate
0.000000 0 m /five glyphshow
6.362305 0 m /zero glyphshow
12.724609 0 m /zero glyphshow
19.086914 0 m /zero glyphshow
25.449219 0 m /zero glyphshow
31.811523 0 m /zero glyphshow
grestore
gsave
323.662500 9.278125 translate
0.000000 rotate
0.000000 0 m /I glyphshow
2.949219 0 m /t glyphshow
6.870117 0 m /e glyphshow
13.022461 0 m /r glyphshow
17.133789 0 m /a glyphshow
23.261719 0 m /t glyphshow
27.182617 0 m /i glyphshow
29.960938 0 m /o glyphshow
36.079102 0 m /n glyphshow
42.416992 0 m /s glyphshow
grestore
gsave
/o {
gsave
newpath
translate
0.8 setlinewidth
1 setlinejoin
0 setlinecap
0 0 m
-3.5 0 l

gsave
0.000 setgray
fill
grestore
stroke
grestore
} bind def
40.5906 47.1745 o
grestore
gsave
27.231250 43.377615 translate
0.000000 rotate
0.000000 0 m /zero glyphshow
grestore
gsave
/o {
gsave
newpath
translate
0.8 setlinewidth
1 setlinejoin
0 setlinecap
0 0 m
-3.5 0 l

gsave
0.000 setgray
fill
grestore
stroke
grestore
} bind def
40.5906 81.8417 o
grestore
gsave
20.871875 78.044812 translate
0.000000 rotate
0.000000 0 m /one glyphshow
6.362305 0 m /zero glyphshow
grestore
gsave
/o {
gsave
newpath
translate
0.8 setlinewidth
1 setlinejoin
0 setlinecap
0 0 m
-3.5 0 l

gsave
0.000 setgray
fill
grestore
stroke
grestore
} bind def
40.5906 116.509 o
grestore
gsave
20.871875 112.712010 translate
0.000000 rotate
0.000000 0 m /two glyphshow
6.362305 0 m /zero glyphshow
grestore
gsave
/o {
gsave
newpath
translate
0.8 setlinewidth
1 setlinejoin
0 setlinecap
0 0 m
-3.5 0 l

gsave
0.000 setgray
fill
grestore
stroke
grestore
} bind def
40.5906 151.176 o
grestore
gsave
20.871875 147.379207 translate
0.000000 rotate
0.000000 0 m /three glyphshow
6.362305 0 m /zero glyphshow
grestore
gsave
/o {
gsave
newpath
translate
0.8 setlinewidth
1 setlinejoin
0 setlinecap
0 0 m
-3.5 0 l

gsave
0.000 setgray
fill
grestore
stroke
grestore
} bind def
40.5906 185.843 o
grestore
gsave
20.871875 182.046404 translate
0.000000 rotate
0.000000 0 m /four glyphshow
6.362305 0 m /zero glyphshow
grestore
gsave
/o {
gsave
newpath
translate
0.8 setlinewidth
1 setlinejoin
0 setlinecap
0 0 m
-3.5 0 l

gsave
0.000 setgray
fill
grestore
stroke
grestore
} bind def
40.5906 220.51 o
grestore
gsave
20.871875 216.713601 translate
0.000000 rotate
0.000000 0 m /five glyphshow
6.362305 0 m /zero glyphshow
grestore
gsave
/o {
gsave
newpath
translate
0.8 setlinewidth
1 setlinejoin
0 setlinecap
0 0 m
-3.5 0 l

gsave
0.000 setgray
fill
grestore
stroke
grestore
} bind def
40.5906 255.178 o
grestore
gsave
20.871875 251.380798 translate
0.000000 rotate
0.000000 0 m /six glyphshow
6.362305 0 m /zero glyphshow
grestore
gsave
/o {
gsave
newpath
translate
0.8 setlinewidth
1 setlinejoin
0 setlinecap
0 0 m
-3.5 0 l

gsave
0.000 setgray
fill
grestore
stroke
grestore
} bind def
40.5906 289.845 o
grestore
gsave
20.871875 286.047995 translate
0.000000 rotate
0.000000 0 m /seven glyphshow
6.362305 0 m /zero glyphshow
grestore
gsave
14.793750 128.534375 translate
90.000000 rotate
0.000000 0 m /S glyphshow
6.347656 0 m /t glyphshow
10.268555 0 m /a glyphshow
16.396484 0 m /n glyphshow
22.734375 0 m /d glyphshow
29.082031 0 m /a glyphshow
35.209961 0 m /r glyphshow
39.196289 0 m /d glyphshow
45.543945 0 m /space glyphshow
48.722656 0 m /d glyphshow
55.070312 0 m /e glyphshow
61.222656 0 m /v glyphshow
67.140625 0 m /i glyphshow
69.918945 0 m /a glyphshow
76.046875 0 m /t glyphshow
79.967773 0 m /i glyphshow
82.746094 0 m /o glyphshow
88.864258 0 m /n glyphshow
grestore
1.500 setlinewidth
2 setlinecap
0.122 0.467 0.706 setrgbcolor
gsave
613.8 277.2 40.59 37.54 clipbox
68.490625 301.69966 m
193.507628 301.451116 l
592.780683 300.615304 l
626.490625 300.546935 l
626.490625 300.546935 l
stroke
grestore
1.000 0.498 0.055 setrgbcolor
gsave
613.8 277.2 40.59 37.54 clipbox
68.490625 300.370389 m
69.830093 300.012149 l
72.955518 299.021349 l
76.639055 297.852319 l
78.871501 297.04749 l
80.545836 296.57502 l
81.550437 296.239829 l
82.220171 296.000456 l
84.11775 295.398846 l
87.131553 294.48111 l
99.410009 290.387192 l
100.191365 290.112789 l
100.749477 289.949127 l
101.754078 289.627697 l
102.423812 289.452775 l
106.107348 288.289131 l
106.66546 288.103839 l
111.018731 286.707092 l
112.134954 286.304122 l
112.693065 286.148393 l
113.586044 285.824684 l
115.706868 285.131122 l
116.599847 284.859246 l
119.055538 284.105729 l
120.060139 283.749885 l
124.971521 281.959833 l
125.752877 281.733105 l
127.985324 280.922463 l
140.040535 277.000281 l
141.268381 276.609617 l
142.942715 276.043997 l
143.500827 275.838818 l
147.630853 274.393551 l
149.41681 273.838583 l
150.086544 273.588373 l
152.095746 272.922317 l
153.211969 272.571574 l
153.881703 272.320319 l
157.230373 271.176568 l
158.793085 270.616041 l
160.91391 270.017563 l
161.472021 269.827689 l
163.592845 269.07874 l
164.262579 268.841396 l
166.048537 268.255228 l
168.504228 267.55013 l
182.457018 263.671223 l
195.181963 260.792015 l
197.860899 260.282704 l
199.311989 259.986178 l
202.102547 259.404931 l
213.041535 257.501744 l
213.934514 257.336773 l
223.868901 255.964747 l
244.742275 254.284067 l
256.574242 253.727597 l
258.136954 253.655227 l
261.708869 253.518447 l
263.606448 253.418641 l
269.968921 253.240253 l
275.21517 253.117274 l
305.241575 252.643338 l
330.133354 252.481043 l
335.602847 252.457322 l
530.718671 252.322766 l
626.490625 252.321993 l
626.490625 252.321993 l
stroke
grestore
0.173 0.627 0.173 setrgbcolor
gsave
613.8 277.2 40.59 37.54 clipbox
68.490625 300.854059 m
69.495226 298.750153 l
69.830093 298.183997 l
71.950917 293.772515 l
72.955518 291.724988 l
73.848497 289.818126 l
75.411209 286.582851 l
77.085544 282.830459 l
77.8669 280.844792 l
78.871501 278.621401 l
79.429613 277.089098 l
79.876102 276.068045 l
82.443416 270.110909 l
82.889905 268.767844 l
91.708068 245.492481 l
92.601047 242.752377 l
93.159159 241.049525 l
94.833494 236.178752 l
95.391605 234.524107 l
95.726472 233.324259 l
97.400807 227.898124 l
98.851897 223.269602 l
99.075142 222.546271 l
100.302987 218.37376 l
101.307588 215.0985 l
101.8657 213.283233 l
103.428413 207.495371 l
103.76328 206.28126 l
104.879503 202.407278 l
105.21437 201.143748 l
105.772481 199.054642 l
106.442215 196.725034 l
107.781683 191.739213 l
108.339795 189.360722 l
109.009529 186.368498 l
109.679263 183.836855 l
110.460619 180.707422 l
112.693065 171.762821 l
113.139555 170.186446 l
116.599847 156.029445 l
117.492825 152.534485 l
118.162559 150.104755 l
118.943916 147.495633 l
120.060139 143.248596 l
120.506628 141.289999 l
120.953117 140.078336 l
121.399607 138.091949 l
121.622851 137.331334 l
122.292585 134.864054 l
122.739075 133.407525 l
123.185564 131.664645 l
123.520431 130.704222 l
123.96692 129.30037 l
126.422611 121.22979 l
128.655058 114.960483 l
129.324792 113.011285 l
129.659659 111.841145 l
130.106148 110.501127 l
130.329393 110.062124 l
130.999127 108.411952 l
131.557238 107.248492 l
133.56644 102.363536 l
133.789685 101.589049 l
134.682663 99.700957 l
135.129153 98.586212 l
136.133754 96.739708 l
138.3662 91.622001 l
139.147556 90.535934 l
139.594046 89.81441 l
142.607848 84.52675 l
142.831093 83.951272 l
142.942715 83.808517 l
143.277582 82.991862 l
145.06354 80.599422 l
145.733274 79.786872 l
146.626252 78.550123 l
147.854098 76.717126 l
148.077342 76.314574 l
148.635454 75.706415 l
148.970321 75.302216 l
149.41681 74.893337 l
149.8633 74.425289 l
150.086544 74.228767 l
150.756278 73.406542 l
151.31439 72.626919 l
151.760879 71.827913 l
152.653858 70.594536 l
153.993326 69.114417 l
154.21657 68.872943 l
154.663059 68.462294 l
155.332793 67.689739 l
155.890905 67.133886 l
156.783884 66.360208 l
157.56524 65.748862 l
157.900107 65.475356 l
158.234974 65.192363 l
159.01633 64.48561 l
160.020931 63.716229 l
160.579043 63.313178 l
161.360399 62.546411 l
162.923111 61.443569 l
163.369601 61.225956 l
165.155558 60.264559 l
166.271781 59.699283 l
166.829893 59.411176 l
167.722871 58.923346 l
168.839095 58.277955 l
169.173962 58.160874 l
169.843696 57.829 l
170.848297 57.357444 l
171.51803 57.04874 l
172.076142 56.818204 l
172.522631 56.57026 l
173.973722 56.079574 l
174.8667 55.737217 l
176.429413 55.250087 l
183.01513 53.422284 l
189.600847 52.344437 l
201.432813 51.370223 l
204.781483 51.233957 l
207.572041 51.123508 l
211.925312 50.942863 l
217.171561 50.836763 l
219.404008 50.789199 l
227.998927 50.678449 l
231.794086 50.649519 l
242.174962 50.539887 l
245.412009 50.522701 l
263.383204 50.413229 l
266.285384 50.404311 l
311.492425 50.295307 l
314.506228 50.281413 l
501.808489 50.172751 l
504.599047 50.163115 l
626.490625 50.14375 l
626.490625 50.14375 l
stroke
grestore
0.839 0.153 0.157 setrgbcolor
gsave
613.8 277.2 40.59 37.54 clipbox
68.490625 302.14375 m
112.358199 301.973496 l
331.026332 301.123389 l
356.252977 301.029044 l
392.306988 300.906074 l
459.057138 300.699931 l
626.490625 300.351689 l
626.490625 300.351689 l
stroke
grestore
0.580 0.404 0.741 setrgbcolor
gsave
613.8 277.2 40.59 37.54 clipbox
68.490625 301.794973 m
69.941715 301.148813 l
70.834694 300.621628 l
74.294986 298.914876 l
74.741475 298.730226 l
75.634454 298.184345 l
77.197166 297.423272 l
77.643656 297.269123 l
81.103948 295.4388 l
82.889905 294.590411 l
83.671261 294.173873 l
84.675862 293.729394 l
85.345596 293.422992 l
88.359399 291.801703 l
88.805888 291.614511 l
90.145356 290.996914 l
91.038335 290.519886 l
92.712669 289.680119 l
93.270781 289.450894 l
94.052137 288.986363 l
94.721871 288.657839 l
99.96812 285.825796 l
100.749477 285.393004 l
102.870301 284.271746 l
103.31679 284.030446 l
103.651657 283.904333 l
104.544636 283.466619 l
105.325992 283.06115 l
107.446816 282.138128 l
107.893306 281.933771 l
108.339795 281.670079 l
108.897906 281.384416 l
111.018731 280.12446 l
111.576842 279.76947 l
112.246576 279.45198 l
112.804688 279.131029 l
114.479023 278.149893 l
115.148757 277.758112 l
117.046336 276.72435 l
118.385804 276.002892 l
119.16716 275.528246 l
120.060139 275.018834 l
120.506628 274.839803 l
122.51583 273.729654 l
123.855298 273.008314 l
124.301787 272.700192 l
125.083144 272.282228 l
125.752877 271.877393 l
125.976122 271.787628 l
126.422611 271.466791 l
126.980723 271.147985 l
127.873702 270.611764 l
130.106148 269.331091 l
130.552637 269.093627 l
130.999127 268.871304 l
132.003728 268.349626 l
132.896706 267.899012 l
133.678062 267.416723 l
136.468621 265.812281 l
138.142955 264.979884 l
138.701067 264.711861 l
141.938114 263.095402 l
144.951917 261.51695 l
145.286784 261.256987 l
146.068141 260.873199 l
147.630853 260.126054 l
148.747076 259.539282 l
149.41681 259.279433 l
150.086544 258.986224 l
152.430613 258.033805 l
153.881703 257.427019 l
154.439815 257.210497 l
156.002527 256.62219 l
156.783884 256.311648 l
162.699867 254.330419 l
163.369601 254.117952 l
163.927712 253.908592 l
164.485824 253.723436 l
165.490425 253.406711 l
166.941515 252.988082 l
168.280983 252.67516 l
169.620451 252.309601 l
171.406408 251.885724 l
176.206168 250.775083 l
183.126752 249.568159 l
185.582443 249.301439 l
199.200367 248.160996 l
212.483424 247.668465 l
224.985124 247.499835 l
269.410809 247.362091 l
626.490625 247.356856 l
626.490625 247.356856 l
stroke
grestore
0.549 0.337 0.294 setrgbcolor
gsave
613.8 277.2 40.59 37.54 clipbox
68.490625 298.126133 m
70.053338 293.105532 l
70.388205 292.104321 l
71.057938 289.99821 l
71.392805 288.749849 l
74.183364 278.734989 l
75.076342 274.940646 l
75.187964 274.649745 l
75.857698 271.541384 l
77.085544 267.000301 l
77.532033 264.766876 l
77.8669 263.710899 l
78.31339 262.053715 l
78.536634 261.234796 l
79.094746 259.159206 l
79.76448 256.860247 l
80.322591 253.9337 l
80.545836 252.939069 l
81.103948 250.119875 l
81.996926 245.725777 l
82.220171 244.695537 l
82.66666 242.611632 l
82.889905 241.682048 l
84.787484 231.794134 l
85.345596 229.122738 l
86.126952 224.871334 l
86.350197 223.799203 l
89.810489 202.837757 l
91.038335 195.753844 l
91.596446 191.687662 l
91.931313 189.441201 l
92.935914 183.194861 l
93.270781 180.771668 l
94.275382 175.7236 l
95.61485 167.812313 l
95.726472 167.390854 l
96.172961 164.509388 l
98.405408 151.077443 l
98.628653 150.001863 l
99.298387 145.916017 l
99.521631 144.881734 l
99.856498 142.651704 l
100.861099 138.767562 l
101.419211 135.652405 l
102.647056 130.220716 l
103.986524 123.688255 l
104.098147 123.473142 l
104.656258 121.599014 l
105.102747 119.808285 l
105.549237 117.741647 l
105.995726 115.925479 l
106.442215 113.697799 l
107.223572 110.407916 l
107.558439 109.689744 l
110.125752 101.660387 l
110.460619 101.006031 l
111.46522 98.277469 l
112.469821 95.87755 l
112.693065 95.339296 l
112.91631 94.637013 l
113.139555 94.226143 l
113.920911 92.455214 l
114.3674 91.767344 l
114.590645 91.187036 l
115.148757 90.193342 l
115.595246 89.448351 l
116.153358 88.357723 l
116.823091 87.607801 l
117.492825 86.767043 l
117.827692 86.289663 l
118.162559 85.799414 l
118.497426 85.39869 l
118.832293 84.908714 l
119.725272 83.778589 l
121.622851 81.591322 l
121.957718 81.401676 l
122.739075 80.595973 l
123.185564 80.273081 l
123.632053 79.936444 l
124.301787 79.530858 l
124.636654 79.342814 l
125.194766 78.949775 l
128.208569 77.327862 l
128.431813 77.275525 l
128.655058 77.018743 l
129.436414 76.637289 l
129.882903 76.473835 l
132.11535 75.808172 l
137.361599 74.878596 l
142.384604 74.5072 l
153.435214 74.251862 l
176.206168 74.181109 l
626.490625 74.172564 l
626.490625 74.172564 l
stroke
grestore
0.800 setlinewidth
0 setlinejoin
[] 0 setdash
0.000 setgray
gsave
40.590625 37.54375 m
40.590625 314.74375 l
stroke
grestore
gsave
654.390625 37.54375 m
654.390625 314.74375 l
stroke
grestore
gsave
40.590625 37.54375 m
654.390625 37.54375 l
stroke
grestore
gsave
40.590625 314.74375 m
654.390625 314.74375 l
stroke
grestore
1.000 setlinewidth
0 setlinecap
0.800 setgray
gsave
533.4375 130.628125 m
647.390625 130.628125 l
648.723958 130.628125 649.390625 131.294792 649.390625 132.628125 c
649.390625 219.659375 l
649.390625 220.992708 648.723958 221.659375 647.390625 221.659375 c
533.4375 221.659375 l
532.104167 221.659375 531.4375 220.992708 531.4375 219.659375 c
531.4375 132.628125 l
531.4375 131.294792 532.104167 130.628125 533.4375 130.628125 c
cl
gsave
1.000 setgray
fill
grestore
stroke
grestore
1.500 setlinewidth
1 setlinejoin
2 setlinecap
[] 0 setdash
0.122 0.467 0.706 setrgbcolor
gsave
535.4375 213.565625 m
555.4375 213.565625 l
stroke
grestore
0.000 setgray
gsave
563.437500 210.065625 translate
0.000000 rotate
0.000000 0 m /m glyphshow
9.741211 0 m /colon glyphshow
13.110352 0 m /space glyphshow
16.289062 0 m /zero glyphshow
22.651367 0 m /period glyphshow
25.830078 0 m /three glyphshow
32.192383 0 m /comma glyphshow
35.371094 0 m /space glyphshow
38.549805 0 m /e glyphshow
44.702148 0 m /p glyphshow
51.049805 0 m /s glyphshow
56.259766 0 m /colon glyphshow
59.628906 0 m /space glyphshow
62.807617 0 m /one glyphshow
69.169922 0 m /zero glyphshow
grestore
1.000 0.498 0.055 setrgbcolor
gsave
535.4375 198.89375 m
555.4375 198.89375 l
stroke
grestore
0.000 setgray
gsave
563.437500 195.393750 translate
0.000000 rotate
0.000000 0 m /m glyphshow
9.741211 0 m /colon glyphshow
13.110352 0 m /space glyphshow
16.289062 0 m /zero glyphshow
22.651367 0 m /period glyphshow
25.830078 0 m /three glyphshow
32.192383 0 m /comma glyphshow
35.371094 0 m /space glyphshow
38.549805 0 m /e glyphshow
44.702148 0 m /p glyphshow
51.049805 0 m /s glyphshow
56.259766 0 m /colon glyphshow
59.628906 0 m /space glyphshow
62.807617 0 m /five glyphshow
69.169922 0 m /zero glyphshow
grestore
0.173 0.627 0.173 setrgbcolor
gsave
535.4375 184.221875 m
555.4375 184.221875 l
stroke
grestore
0.000 setgray
gsave
563.437500 180.721875 translate
0.000000 rotate
0.000000 0 m /m glyphshow
9.741211 0 m /colon glyphshow
13.110352 0 m /space glyphshow
16.289062 0 m /zero glyphshow
22.651367 0 m /period glyphshow
25.830078 0 m /three glyphshow
32.192383 0 m /comma glyphshow
35.371094 0 m /space glyphshow
38.549805 0 m /e glyphshow
44.702148 0 m /p glyphshow
51.049805 0 m /s glyphshow
56.259766 0 m /colon glyphshow
59.628906 0 m /space glyphshow
62.807617 0 m /one glyphshow
69.169922 0 m /zero glyphshow
75.532227 0 m /zero glyphshow
grestore
0.839 0.153 0.157 setrgbcolor
gsave
535.4375 169.55 m
555.4375 169.55 l
stroke
grestore
0.000 setgray
gsave
563.437500 166.050000 translate
0.000000 rotate
0.000000 0 m /m glyphshow
9.741211 0 m /colon glyphshow
13.110352 0 m /space glyphshow
16.289062 0 m /zero glyphshow
22.651367 0 m /period glyphshow
25.830078 0 m /six glyphshow
32.192383 0 m /comma glyphshow
35.371094 0 m /space glyphshow
38.549805 0 m /e glyphshow
44.702148 0 m /p glyphshow
51.049805 0 m /s glyphshow
56.259766 0 m /colon glyphshow
59.628906 0 m /space glyphshow
62.807617 0 m /one glyphshow
69.169922 0 m /zero glyphshow
grestore
0.580 0.404 0.741 setrgbcolor
gsave
535.4375 154.878125 m
555.4375 154.878125 l
stroke
grestore
0.000 setgray
gsave
563.437500 151.378125 translate
0.000000 rotate
0.000000 0 m /m glyphshow
9.741211 0 m /colon glyphshow
13.110352 0 m /space glyphshow
16.289062 0 m /zero glyphshow
22.651367 0 m /period glyphshow
25.830078 0 m /six glyphshow
32.192383 0 m /comma glyphshow
35.371094 0 m /space glyphshow
38.549805 0 m /e glyphshow
44.702148 0 m /p glyphshow
51.049805 0 m /s glyphshow
56.259766 0 m /colon glyphshow
59.628906 0 m /space glyphshow
62.807617 0 m /five glyphshow
69.169922 0 m /zero glyphshow
grestore
0.549 0.337 0.294 setrgbcolor
gsave
535.4375 140.20625 m
555.4375 140.20625 l
stroke
grestore
0.000 setgray
gsave
563.437500 136.706250 translate
0.000000 rotate
0.000000 0 m /m glyphshow
9.741211 0 m /colon glyphshow
13.110352 0 m /space glyphshow
16.289062 0 m /zero glyphshow
22.651367 0 m /period glyphshow
25.830078 0 m /six glyphshow
32.192383 0 m /comma glyphshow
35.371094 0 m /space glyphshow
38.549805 0 m /e glyphshow
44.702148 0 m /p glyphshow
51.049805 0 m /s glyphshow
56.259766 0 m /colon glyphshow
59.628906 0 m /space glyphshow
62.807617 0 m /one glyphshow
69.169922 0 m /zero glyphshow
75.532227 0 m /zero glyphshow
grestore

end
showpage
