%!PS-Adobe-3.0 EPSF-3.0
%%Title: ./fig/d.eps
%%Creator: matplotlib version 3.2.1, http://matplotlib.org/
%%CreationDate: Fri Apr 17 01:03:35 2020
%%Orientation: landscape
%%BoundingBox: -54.627874999999975 -165.16906249999994 666.6278749999999 957.1690625000001
%%EndComments
%%BeginProlog
/mpldict 8 dict def
mpldict begin
/m { moveto } bind def
/l { lineto } bind def
/r { rlineto } bind def
/c { curveto } bind def
/cl { closepath } bind def
/box {
m
1 index 0 r
0 exch r
neg 0 r
cl
} bind def
/clipbox {
box
clip
newpath
} bind def
%!PS-Adobe-3.0 Resource-Font
%%Title: DejaVu Sans
%%Copyright: Copyright (c) 2003 by Bitstream, Inc. All Rights Reserved. Copyright (c) 2006 by Tavmjong Bah. All Rights Reserved. DejaVu changes are in public domain 
%%Creator: Converted from TrueType to type 3 by PPR
25 dict begin
/_d{bind def}bind def
/_m{moveto}_d
/_l{lineto}_d
/_cl{closepath eofill}_d
/_c{curveto}_d
/_sc{7 -1 roll{setcachedevice}{pop pop pop pop pop pop}ifelse}_d
/_e{exec}_d
/FontName /DejaVuSans def
/PaintType 0 def
/FontMatrix[.001 0 0 .001 0 0]def
/FontBBox[-1021 -463 1793 1232]def
/FontType 3 def
/Encoding [ /space /plus /hyphen /period /zero /one /two /three /four /five /six /seven /eight /nine /A /I /N /S /a /b /c /d /e /f /g /h /i /j /l /m /n /o /p /r /s /t /u /v /w /z ] def
/FontInfo 10 dict dup begin
/FamilyName (DejaVu Sans) def
/FullName (DejaVu Sans) def
/Notice (Copyright (c) 2003 by Bitstream, Inc. All Rights Reserved. Copyright (c) 2006 by Tavmjong Bah. All Rights Reserved. DejaVu changes are in public domain ) def
/Weight (Book) def
/Version (Version 2.35) def
/ItalicAngle 0.0 def
/isFixedPitch false def
/UnderlinePosition -130 def
/UnderlineThickness 90 def
end readonly def
/CharStrings 41 dict dup begin
/.notdef 0 def
/space{318 0 0 0 0 0 _sc
}_d
/plus{838 0 106 0 732 627 _sc
460 627 _m
460 355 _l
732 355 _l
732 272 _l
460 272 _l
460 0 _l
378 0 _l
378 272 _l
106 272 _l
106 355 _l
378 355 _l
378 627 _l
460 627 _l
_cl}_d
/hyphen{361 0 49 234 312 314 _sc
49 314 _m
312 314 _l
312 234 _l
49 234 _l
49 314 _l
_cl}_d
/period{318 0 107 0 210 124 _sc
107 124 _m
210 124 _l
210 0 _l
107 0 _l
107 124 _l
_cl}_d
/zero{636 0 66 -13 570 742 _sc
318 664 _m
267 664 229 639 203 589 _c
177 539 165 464 165 364 _c
165 264 177 189 203 139 _c
229 89 267 64 318 64 _c
369 64 407 89 433 139 _c
458 189 471 264 471 364 _c
471 464 458 539 433 589 _c
407 639 369 664 318 664 _c
318 742 _m
399 742 461 709 505 645 _c
548 580 570 486 570 364 _c
570 241 548 147 505 83 _c
461 19 399 -13 318 -13 _c
236 -13 173 19 130 83 _c
87 147 66 241 66 364 _c
66 486 87 580 130 645 _c
173 709 236 742 318 742 _c
_cl}_d
/one{636 0 110 0 544 729 _sc
124 83 _m
285 83 _l
285 639 _l
110 604 _l
110 694 _l
284 729 _l
383 729 _l
383 83 _l
544 83 _l
544 0 _l
124 0 _l
124 83 _l
_cl}_d
/two{{636 0 73 0 536 742 _sc
192 83 _m
536 83 _l
536 0 _l
73 0 _l
73 83 _l
110 121 161 173 226 239 _c
290 304 331 346 348 365 _c
380 400 402 430 414 455 _c
426 479 433 504 433 528 _c
433 566 419 598 392 622 _c
365 646 330 659 286 659 _c
255 659 222 653 188 643 _c
154 632 117 616 78 594 _c
78 694 _l
118 710 155 722 189 730 _c
223 738 255 742 284 742 _c
}_e{359 742 419 723 464 685 _c
509 647 532 597 532 534 _c
532 504 526 475 515 449 _c
504 422 484 390 454 354 _c
446 344 420 317 376 272 _c
332 227 271 164 192 83 _c
_cl}_e}_d
/three{{636 0 76 -13 556 742 _sc
406 393 _m
453 383 490 362 516 330 _c
542 298 556 258 556 212 _c
556 140 531 84 482 45 _c
432 6 362 -13 271 -13 _c
240 -13 208 -10 176 -4 _c
144 1 110 10 76 22 _c
76 117 _l
103 101 133 89 166 81 _c
198 73 232 69 268 69 _c
330 69 377 81 409 105 _c
441 129 458 165 458 212 _c
458 254 443 288 413 312 _c
383 336 341 349 287 349 _c
}_e{202 349 _l
202 430 _l
291 430 _l
339 430 376 439 402 459 _c
428 478 441 506 441 543 _c
441 580 427 609 401 629 _c
374 649 336 659 287 659 _c
260 659 231 656 200 650 _c
169 644 135 635 98 623 _c
98 711 _l
135 721 170 729 203 734 _c
235 739 266 742 296 742 _c
370 742 429 725 473 691 _c
517 657 539 611 539 553 _c
539 513 527 479 504 451 _c
481 423 448 403 406 393 _c
_cl}_e}_d
/four{636 0 49 0 580 729 _sc
378 643 _m
129 254 _l
378 254 _l
378 643 _l
352 729 _m
476 729 _l
476 254 _l
580 254 _l
580 172 _l
476 172 _l
476 0 _l
378 0 _l
378 172 _l
49 172 _l
49 267 _l
352 729 _l
_cl}_d
/five{{636 0 77 -13 549 729 _sc
108 729 _m
495 729 _l
495 646 _l
198 646 _l
198 467 _l
212 472 227 476 241 478 _c
255 480 270 482 284 482 _c
365 482 429 459 477 415 _c
525 370 549 310 549 234 _c
549 155 524 94 475 51 _c
426 8 357 -13 269 -13 _c
238 -13 207 -10 175 -6 _c
143 -1 111 6 77 17 _c
77 116 _l
106 100 136 88 168 80 _c
199 72 232 69 267 69 _c
}_e{323 69 368 83 401 113 _c
433 143 450 183 450 234 _c
450 284 433 324 401 354 _c
368 384 323 399 267 399 _c
241 399 214 396 188 390 _c
162 384 135 375 108 363 _c
108 729 _l
_cl}_e}_d
/six{{636 0 70 -13 573 742 _sc
330 404 _m
286 404 251 388 225 358 _c
199 328 186 286 186 234 _c
186 181 199 139 225 109 _c
251 79 286 64 330 64 _c
374 64 409 79 435 109 _c
461 139 474 181 474 234 _c
474 286 461 328 435 358 _c
409 388 374 404 330 404 _c
526 713 _m
526 623 _l
501 635 476 644 451 650 _c
425 656 400 659 376 659 _c
310 659 260 637 226 593 _c
}_e{192 549 172 482 168 394 _c
187 422 211 444 240 459 _c
269 474 301 482 336 482 _c
409 482 467 459 509 415 _c
551 371 573 310 573 234 _c
573 159 550 99 506 54 _c
462 9 403 -13 330 -13 _c
246 -13 181 19 137 83 _c
92 147 70 241 70 364 _c
70 479 97 571 152 639 _c
206 707 280 742 372 742 _c
396 742 421 739 447 735 _c
472 730 498 723 526 713 _c
_cl}_e}_d
/seven{636 0 82 0 551 729 _sc
82 729 _m
551 729 _l
551 687 _l
286 0 _l
183 0 _l
432 646 _l
82 646 _l
82 729 _l
_cl}_d
/eight{{636 0 68 -13 568 742 _sc
318 346 _m
271 346 234 333 207 308 _c
180 283 167 249 167 205 _c
167 161 180 126 207 101 _c
234 76 271 64 318 64 _c
364 64 401 76 428 102 _c
455 127 469 161 469 205 _c
469 249 455 283 429 308 _c
402 333 365 346 318 346 _c
219 388 _m
177 398 144 418 120 447 _c
96 476 85 511 85 553 _c
85 611 105 657 147 691 _c
188 725 245 742 318 742 _c
}_e{390 742 447 725 489 691 _c
530 657 551 611 551 553 _c
551 511 539 476 515 447 _c
491 418 459 398 417 388 _c
464 377 501 355 528 323 _c
554 291 568 251 568 205 _c
568 134 546 80 503 43 _c
459 5 398 -13 318 -13 _c
237 -13 175 5 132 43 _c
89 80 68 134 68 205 _c
68 251 81 291 108 323 _c
134 355 171 377 219 388 _c
183 544 _m
183 506 194 476 218 455 _c
}_e{242 434 275 424 318 424 _c
360 424 393 434 417 455 _c
441 476 453 506 453 544 _c
453 582 441 611 417 632 _c
393 653 360 664 318 664 _c
275 664 242 653 218 632 _c
194 611 183 582 183 544 _c
_cl}_e}_d
/nine{{636 0 63 -13 566 742 _sc
110 15 _m
110 105 _l
134 93 159 84 185 78 _c
210 72 235 69 260 69 _c
324 69 374 90 408 134 _c
442 178 462 244 468 334 _c
448 306 424 284 396 269 _c
367 254 335 247 300 247 _c
226 247 168 269 126 313 _c
84 357 63 417 63 494 _c
63 568 85 628 129 674 _c
173 719 232 742 306 742 _c
390 742 455 709 499 645 _c
543 580 566 486 566 364 _c
}_e{566 248 538 157 484 89 _c
429 21 356 -13 264 -13 _c
239 -13 214 -10 189 -6 _c
163 -2 137 5 110 15 _c
306 324 _m
350 324 385 339 411 369 _c
437 399 450 441 450 494 _c
450 546 437 588 411 618 _c
385 648 350 664 306 664 _c
262 664 227 648 201 618 _c
175 588 162 546 162 494 _c
162 441 175 399 201 369 _c
227 339 262 324 306 324 _c
_cl}_e}_d
/A{684 0 8 0 676 729 _sc
342 632 _m
208 269 _l
476 269 _l
342 632 _l
286 729 _m
398 729 _l
676 0 _l
573 0 _l
507 187 _l
178 187 _l
112 0 _l
8 0 _l
286 729 _l
_cl}_d
/I{295 0 98 0 197 729 _sc
98 729 _m
197 729 _l
197 0 _l
98 0 _l
98 729 _l
_cl}_d
/N{748 0 98 0 650 729 _sc
98 729 _m
231 729 _l
554 119 _l
554 729 _l
650 729 _l
650 0 _l
517 0 _l
194 610 _l
194 0 _l
98 0 _l
98 729 _l
_cl}_d
/S{{635 0 66 -13 579 742 _sc
535 705 _m
535 609 _l
497 627 462 640 429 649 _c
395 657 363 662 333 662 _c
279 662 237 651 208 631 _c
179 610 165 580 165 542 _c
165 510 174 485 194 469 _c
213 452 250 439 304 429 _c
364 417 _l
437 403 491 378 526 343 _c
561 307 579 260 579 201 _c
579 130 555 77 508 41 _c
460 5 391 -13 300 -13 _c
265 -13 228 -9 189 -2 _c
}_e{150 5 110 16 69 32 _c
69 134 _l
109 111 148 94 186 83 _c
224 71 262 66 300 66 _c
356 66 399 77 430 99 _c
460 121 476 152 476 194 _c
476 230 465 258 443 278 _c
421 298 385 313 335 323 _c
275 335 _l
201 349 148 372 115 404 _c
82 435 66 478 66 534 _c
66 598 88 649 134 686 _c
179 723 242 742 322 742 _c
356 742 390 739 426 733 _c
461 727 497 717 535 705 _c
}_e{_cl}_e}_d
/a{{613 0 60 -13 522 560 _sc
343 275 _m
270 275 220 266 192 250 _c
164 233 150 205 150 165 _c
150 133 160 107 181 89 _c
202 70 231 61 267 61 _c
317 61 357 78 387 114 _c
417 149 432 196 432 255 _c
432 275 _l
343 275 _l
522 312 _m
522 0 _l
432 0 _l
432 83 _l
411 49 385 25 355 10 _c
325 -5 287 -13 243 -13 _c
187 -13 142 2 109 33 _c
76 64 60 106 60 159 _c
}_e{60 220 80 266 122 298 _c
163 329 224 345 306 345 _c
432 345 _l
432 354 _l
432 395 418 427 391 450 _c
364 472 326 484 277 484 _c
245 484 215 480 185 472 _c
155 464 127 453 100 439 _c
100 522 _l
132 534 164 544 195 550 _c
226 556 256 560 286 560 _c
365 560 424 539 463 498 _c
502 457 522 395 522 312 _c
_cl}_e}_d
/b{{635 0 91 -13 580 760 _sc
487 273 _m
487 339 473 390 446 428 _c
418 466 381 485 334 485 _c
286 485 249 466 222 428 _c
194 390 181 339 181 273 _c
181 207 194 155 222 117 _c
249 79 286 61 334 61 _c
381 61 418 79 446 117 _c
473 155 487 207 487 273 _c
181 464 _m
199 496 223 520 252 536 _c
281 552 316 560 356 560 _c
422 560 476 533 518 481 _c
559 428 580 359 580 273 _c
}_e{580 187 559 117 518 65 _c
476 13 422 -13 356 -13 _c
316 -13 281 -5 252 10 _c
223 25 199 49 181 82 _c
181 0 _l
91 0 _l
91 760 _l
181 760 _l
181 464 _l
_cl}_e}_d
/c{{550 0 55 -13 488 560 _sc
488 526 _m
488 442 _l
462 456 437 466 411 473 _c
385 480 360 484 334 484 _c
276 484 230 465 198 428 _c
166 391 150 339 150 273 _c
150 206 166 154 198 117 _c
230 80 276 62 334 62 _c
360 62 385 65 411 72 _c
437 79 462 90 488 104 _c
488 21 _l
462 9 436 0 410 -5 _c
383 -10 354 -13 324 -13 _c
242 -13 176 12 128 64 _c
}_e{79 115 55 185 55 273 _c
55 362 79 432 128 483 _c
177 534 244 560 330 560 _c
358 560 385 557 411 551 _c
437 545 463 537 488 526 _c
_cl}_e}_d
/d{{635 0 55 -13 544 760 _sc
454 464 _m
454 760 _l
544 760 _l
544 0 _l
454 0 _l
454 82 _l
435 49 411 25 382 10 _c
353 -5 319 -13 279 -13 _c
213 -13 159 13 117 65 _c
75 117 55 187 55 273 _c
55 359 75 428 117 481 _c
159 533 213 560 279 560 _c
319 560 353 552 382 536 _c
411 520 435 496 454 464 _c
148 273 _m
148 207 161 155 188 117 _c
215 79 253 61 301 61 _c
}_e{348 61 385 79 413 117 _c
440 155 454 207 454 273 _c
454 339 440 390 413 428 _c
385 466 348 485 301 485 _c
253 485 215 466 188 428 _c
161 390 148 339 148 273 _c
_cl}_e}_d
/e{{615 0 55 -13 562 560 _sc
562 296 _m
562 252 _l
149 252 _l
153 190 171 142 205 110 _c
238 78 284 62 344 62 _c
378 62 412 66 444 74 _c
476 82 509 95 541 113 _c
541 28 _l
509 14 476 3 442 -3 _c
408 -9 373 -13 339 -13 _c
251 -13 182 12 131 62 _c
80 112 55 181 55 268 _c
55 357 79 428 127 481 _c
175 533 241 560 323 560 _c
397 560 455 536 498 489 _c
}_e{540 441 562 377 562 296 _c
472 322 _m
471 371 457 410 431 440 _c
404 469 368 484 324 484 _c
274 484 234 469 204 441 _c
174 413 156 373 152 322 _c
472 322 _l
_cl}_e}_d
/f{352 0 23 0 371 760 _sc
371 760 _m
371 685 _l
285 685 _l
253 685 230 678 218 665 _c
205 652 199 629 199 595 _c
199 547 _l
347 547 _l
347 477 _l
199 477 _l
199 0 _l
109 0 _l
109 477 _l
23 477 _l
23 547 _l
109 547 _l
109 585 _l
109 645 123 690 151 718 _c
179 746 224 760 286 760 _c
371 760 _l
_cl}_d
/g{{635 0 55 -207 544 560 _sc
454 280 _m
454 344 440 395 414 431 _c
387 467 349 485 301 485 _c
253 485 215 467 188 431 _c
161 395 148 344 148 280 _c
148 215 161 165 188 129 _c
215 93 253 75 301 75 _c
349 75 387 93 414 129 _c
440 165 454 215 454 280 _c
544 68 _m
544 -24 523 -93 482 -139 _c
440 -184 377 -207 292 -207 _c
260 -207 231 -204 203 -200 _c
175 -195 147 -188 121 -178 _c
}_e{121 -91 _l
147 -105 173 -115 199 -122 _c
225 -129 251 -133 278 -133 _c
336 -133 380 -117 410 -87 _c
439 -56 454 -10 454 52 _c
454 96 _l
435 64 411 40 382 24 _c
353 8 319 0 279 0 _c
211 0 157 25 116 76 _c
75 127 55 195 55 280 _c
55 364 75 432 116 483 _c
157 534 211 560 279 560 _c
319 560 353 552 382 536 _c
411 520 435 496 454 464 _c
454 547 _l
544 547 _l
}_e{544 68 _l
_cl}_e}_d
/h{634 0 91 0 549 760 _sc
549 330 _m
549 0 _l
459 0 _l
459 327 _l
459 379 448 417 428 443 _c
408 469 378 482 338 482 _c
289 482 251 466 223 435 _c
195 404 181 362 181 309 _c
181 0 _l
91 0 _l
91 760 _l
181 760 _l
181 462 _l
202 494 227 519 257 535 _c
286 551 320 560 358 560 _c
420 560 468 540 500 501 _c
532 462 549 405 549 330 _c
_cl}_d
/i{278 0 94 0 184 760 _sc
94 547 _m
184 547 _l
184 0 _l
94 0 _l
94 547 _l
94 760 _m
184 760 _l
184 646 _l
94 646 _l
94 760 _l
_cl}_d
/j{278 0 -17 -207 184 760 _sc
94 547 _m
184 547 _l
184 -9 _l
184 -78 170 -128 144 -160 _c
117 -191 74 -207 16 -207 _c
-17 -207 _l
-17 -131 _l
6 -131 _l
40 -131 63 -123 75 -107 _c
87 -91 94 -58 94 -9 _c
94 547 _l
94 760 _m
184 760 _l
184 646 _l
94 646 _l
94 760 _l
_cl}_d
/l{278 0 94 0 184 760 _sc
94 760 _m
184 760 _l
184 0 _l
94 0 _l
94 760 _l
_cl}_d
/m{{974 0 91 0 889 560 _sc
520 442 _m
542 482 569 511 600 531 _c
631 550 668 560 711 560 _c
767 560 811 540 842 500 _c
873 460 889 403 889 330 _c
889 0 _l
799 0 _l
799 327 _l
799 379 789 418 771 444 _c
752 469 724 482 686 482 _c
639 482 602 466 575 435 _c
548 404 535 362 535 309 _c
535 0 _l
445 0 _l
445 327 _l
445 379 435 418 417 444 _c
398 469 369 482 331 482 _c
}_e{285 482 248 466 221 435 _c
194 404 181 362 181 309 _c
181 0 _l
91 0 _l
91 547 _l
181 547 _l
181 462 _l
201 495 226 520 255 536 _c
283 552 317 560 357 560 _c
397 560 430 550 458 530 _c
486 510 506 480 520 442 _c
_cl}_e}_d
/n{634 0 91 0 549 560 _sc
549 330 _m
549 0 _l
459 0 _l
459 327 _l
459 379 448 417 428 443 _c
408 469 378 482 338 482 _c
289 482 251 466 223 435 _c
195 404 181 362 181 309 _c
181 0 _l
91 0 _l
91 547 _l
181 547 _l
181 462 _l
202 494 227 519 257 535 _c
286 551 320 560 358 560 _c
420 560 468 540 500 501 _c
532 462 549 405 549 330 _c
_cl}_d
/o{612 0 55 -13 557 560 _sc
306 484 _m
258 484 220 465 192 427 _c
164 389 150 338 150 273 _c
150 207 163 156 191 118 _c
219 80 257 62 306 62 _c
354 62 392 80 420 118 _c
448 156 462 207 462 273 _c
462 337 448 389 420 427 _c
392 465 354 484 306 484 _c
306 560 _m
384 560 445 534 490 484 _c
534 433 557 363 557 273 _c
557 183 534 113 490 63 _c
445 12 384 -13 306 -13 _c
227 -13 165 12 121 63 _c
77 113 55 183 55 273 _c
55 363 77 433 121 484 _c
165 534 227 560 306 560 _c
_cl}_d
/p{{635 0 91 -207 580 560 _sc
181 82 _m
181 -207 _l
91 -207 _l
91 547 _l
181 547 _l
181 464 _l
199 496 223 520 252 536 _c
281 552 316 560 356 560 _c
422 560 476 533 518 481 _c
559 428 580 359 580 273 _c
580 187 559 117 518 65 _c
476 13 422 -13 356 -13 _c
316 -13 281 -5 252 10 _c
223 25 199 49 181 82 _c
487 273 _m
487 339 473 390 446 428 _c
418 466 381 485 334 485 _c
}_e{286 485 249 466 222 428 _c
194 390 181 339 181 273 _c
181 207 194 155 222 117 _c
249 79 286 61 334 61 _c
381 61 418 79 446 117 _c
473 155 487 207 487 273 _c
_cl}_e}_d
/r{411 0 91 0 411 560 _sc
411 463 _m
401 469 390 473 378 476 _c
366 478 353 480 339 480 _c
288 480 249 463 222 430 _c
194 397 181 350 181 288 _c
181 0 _l
91 0 _l
91 547 _l
181 547 _l
181 462 _l
199 495 224 520 254 536 _c
284 552 321 560 365 560 _c
371 560 378 559 386 559 _c
393 558 401 557 411 555 _c
411 463 _l
_cl}_d
/s{{521 0 54 -13 472 560 _sc
443 531 _m
443 446 _l
417 458 391 468 364 475 _c
336 481 308 485 279 485 _c
234 485 200 478 178 464 _c
156 450 145 430 145 403 _c
145 382 153 366 169 354 _c
185 342 217 330 265 320 _c
296 313 _l
360 299 405 279 432 255 _c
458 230 472 195 472 151 _c
472 100 452 60 412 31 _c
372 1 316 -13 246 -13 _c
216 -13 186 -10 154 -5 _c
}_e{122 0 89 8 54 20 _c
54 113 _l
87 95 120 82 152 74 _c
184 65 216 61 248 61 _c
290 61 323 68 346 82 _c
368 96 380 117 380 144 _c
380 168 371 187 355 200 _c
339 213 303 226 247 238 _c
216 245 _l
160 257 119 275 95 299 _c
70 323 58 356 58 399 _c
58 450 76 490 112 518 _c
148 546 200 560 268 560 _c
301 560 332 557 362 552 _c
391 547 418 540 443 531 _c
}_e{_cl}_e}_d
/t{392 0 27 0 368 702 _sc
183 702 _m
183 547 _l
368 547 _l
368 477 _l
183 477 _l
183 180 _l
183 135 189 106 201 94 _c
213 81 238 75 276 75 _c
368 75 _l
368 0 _l
276 0 _l
206 0 158 13 132 39 _c
106 65 93 112 93 180 _c
93 477 _l
27 477 _l
27 547 _l
93 547 _l
93 702 _l
183 702 _l
_cl}_d
/u{634 0 85 -13 543 560 _sc
85 216 _m
85 547 _l
175 547 _l
175 219 _l
175 167 185 129 205 103 _c
225 77 255 64 296 64 _c
344 64 383 79 411 110 _c
439 141 453 183 453 237 _c
453 547 _l
543 547 _l
543 0 _l
453 0 _l
453 84 _l
431 50 405 26 377 10 _c
348 -5 315 -13 277 -13 _c
214 -13 166 6 134 45 _c
101 83 85 140 85 216 _c
311 560 _m
311 560 _l
_cl}_d
/v{592 0 30 0 562 547 _sc
30 547 _m
125 547 _l
296 88 _l
467 547 _l
562 547 _l
357 0 _l
235 0 _l
30 547 _l
_cl}_d
/w{818 0 42 0 776 547 _sc
42 547 _m
132 547 _l
244 120 _l
356 547 _l
462 547 _l
574 120 _l
686 547 _l
776 547 _l
633 0 _l
527 0 _l
409 448 _l
291 0 _l
185 0 _l
42 547 _l
_cl}_d
/z{525 0 43 0 482 547 _sc
55 547 _m
482 547 _l
482 465 _l
144 72 _l
482 72 _l
482 0 _l
43 0 _l
43 82 _l
381 475 _l
55 475 _l
55 547 _l
_cl}_d
end readonly def

/BuildGlyph
 {exch begin
 CharStrings exch
 2 copy known not{pop /.notdef}if
 true 3 1 roll get exec
 end}_d

/BuildChar {
 1 index /Encoding get exch get
 1 index /BuildGlyph get exec
}_d

FontName currentdict end definefont pop
end
%%EndProlog
mpldict begin
666.628 -165.169 translate
90 rotate
1122.338 721.256 0 0 clipbox
gsave
0 0 m
1122.338125 0 l
1122.338125 721.25575 l
0 721.25575 l
cl
1.000 setgray
fill
grestore
gsave
43.778125 37.54375 m
530.759943 37.54375 l
530.759943 636.29575 l
43.778125 636.29575 l
cl
1.000 setgray
fill
grestore
0.800 setlinewidth
1 setlinejoin
0 setlinecap
[] 0 setdash
0.000 setgray
gsave
/o {
gsave
newpath
translate
0.8 setlinewidth
1 setlinejoin
0 setlinecap
0 0 m
0 -3.5 l

gsave
0.000 setgray
fill
grestore
stroke
grestore
} bind def
65.9137 37.5438 o
grestore
/DejaVuSans findfont
10.000 scalefont
setfont
gsave
62.733975 22.950000 translate
0.000000 rotate
0.000000 0 m /two glyphshow
grestore
gsave
/o {
gsave
newpath
translate
0.8 setlinewidth
1 setlinejoin
0 setlinecap
0 0 m
0 -3.5 l

gsave
0.000 setgray
fill
grestore
stroke
grestore
} bind def
121.253 37.5438 o
grestore
gsave
118.072818 22.950000 translate
0.000000 rotate
0.000000 0 m /three glyphshow
grestore
gsave
/o {
gsave
newpath
translate
0.8 setlinewidth
1 setlinejoin
0 setlinecap
0 0 m
0 -3.5 l

gsave
0.000 setgray
fill
grestore
stroke
grestore
} bind def
176.591 37.5438 o
grestore
gsave
173.411661 22.950000 translate
0.000000 rotate
0.000000 0 m /four glyphshow
grestore
gsave
/o {
gsave
newpath
translate
0.8 setlinewidth
1 setlinejoin
0 setlinecap
0 0 m
0 -3.5 l

gsave
0.000 setgray
fill
grestore
stroke
grestore
} bind def
231.93 37.5438 o
grestore
gsave
228.750504 22.950000 translate
0.000000 rotate
0.000000 0 m /five glyphshow
grestore
gsave
/o {
gsave
newpath
translate
0.8 setlinewidth
1 setlinejoin
0 setlinecap
0 0 m
0 -3.5 l

gsave
0.000 setgray
fill
grestore
stroke
grestore
} bind def
287.269 37.5438 o
grestore
gsave
284.089347 22.950000 translate
0.000000 rotate
0.000000 0 m /six glyphshow
grestore
gsave
/o {
gsave
newpath
translate
0.8 setlinewidth
1 setlinejoin
0 setlinecap
0 0 m
0 -3.5 l

gsave
0.000 setgray
fill
grestore
stroke
grestore
} bind def
342.608 37.5438 o
grestore
gsave
339.428190 22.950000 translate
0.000000 rotate
0.000000 0 m /seven glyphshow
grestore
gsave
/o {
gsave
newpath
translate
0.8 setlinewidth
1 setlinejoin
0 setlinecap
0 0 m
0 -3.5 l

gsave
0.000 setgray
fill
grestore
stroke
grestore
} bind def
397.947 37.5438 o
grestore
gsave
394.767033 22.950000 translate
0.000000 rotate
0.000000 0 m /eight glyphshow
grestore
gsave
/o {
gsave
newpath
translate
0.8 setlinewidth
1 setlinejoin
0 setlinecap
0 0 m
0 -3.5 l

gsave
0.000 setgray
fill
grestore
stroke
grestore
} bind def
453.286 37.5438 o
grestore
gsave
450.105876 22.950000 translate
0.000000 rotate
0.000000 0 m /nine glyphshow
grestore
gsave
/o {
gsave
newpath
translate
0.8 setlinewidth
1 setlinejoin
0 setlinecap
0 0 m
0 -3.5 l

gsave
0.000 setgray
fill
grestore
stroke
grestore
} bind def
508.624 37.5438 o
grestore
gsave
502.265031 22.950000 translate
0.000000 rotate
0.000000 0 m /one glyphshow
6.362305 0 m /zero glyphshow
grestore
gsave
215.245597 9.278125 translate
0.000000 rotate
0.000000 0 m /N glyphshow
7.480469 0 m /u glyphshow
13.818359 0 m /m glyphshow
23.559570 0 m /b glyphshow
29.907227 0 m /e glyphshow
36.059570 0 m /r glyphshow
40.170898 0 m /space glyphshow
43.349609 0 m /o glyphshow
49.467773 0 m /f glyphshow
52.988281 0 m /space glyphshow
56.166992 0 m /d glyphshow
62.514648 0 m /i glyphshow
65.292969 0 m /f glyphshow
68.813477 0 m /f glyphshow
72.333984 0 m /e glyphshow
78.486328 0 m /r glyphshow
82.347656 0 m /e glyphshow
88.500000 0 m /n glyphshow
94.837891 0 m /t glyphshow
98.758789 0 m /space glyphshow
101.937500 0 m /o glyphshow
108.055664 0 m /p glyphshow
114.403320 0 m /i glyphshow
117.181641 0 m /n glyphshow
123.519531 0 m /i glyphshow
126.297852 0 m /o glyphshow
132.416016 0 m /n glyphshow
138.753906 0 m /s glyphshow
grestore
gsave
/o {
gsave
newpath
translate
0.8 setlinewidth
1 setlinejoin
0 setlinecap
0 0 m
-3.5 0 l

gsave
0.000 setgray
fill
grestore
stroke
grestore
} bind def
43.7781 111.435 o
grestore
gsave
20.871875 107.638096 translate
0.000000 rotate
0.000000 0 m /zero glyphshow
6.362305 0 m /period glyphshow
9.541016 0 m /two glyphshow
grestore
gsave
/o {
gsave
newpath
translate
0.8 setlinewidth
1 setlinejoin
0 setlinecap
0 0 m
-3.5 0 l

gsave
0.000 setgray
fill
grestore
stroke
grestore
} bind def
43.7781 204.983 o
grestore
gsave
20.871875 201.185798 translate
0.000000 rotate
0.000000 0 m /zero glyphshow
6.362305 0 m /period glyphshow
9.541016 0 m /four glyphshow
grestore
gsave
/o {
gsave
newpath
translate
0.8 setlinewidth
1 setlinejoin
0 setlinecap
0 0 m
-3.5 0 l

gsave
0.000 setgray
fill
grestore
stroke
grestore
} bind def
43.7781 298.53 o
grestore
gsave
20.871875 294.733500 translate
0.000000 rotate
0.000000 0 m /zero glyphshow
6.362305 0 m /period glyphshow
9.541016 0 m /six glyphshow
grestore
gsave
/o {
gsave
newpath
translate
0.8 setlinewidth
1 setlinejoin
0 setlinecap
0 0 m
-3.5 0 l

gsave
0.000 setgray
fill
grestore
stroke
grestore
} bind def
43.7781 392.078 o
grestore
gsave
20.871875 388.281202 translate
0.000000 rotate
0.000000 0 m /zero glyphshow
6.362305 0 m /period glyphshow
9.541016 0 m /eight glyphshow
grestore
gsave
/o {
gsave
newpath
translate
0.8 setlinewidth
1 setlinejoin
0 setlinecap
0 0 m
-3.5 0 l

gsave
0.000 setgray
fill
grestore
stroke
grestore
} bind def
43.7781 485.626 o
grestore
gsave
20.871875 481.828904 translate
0.000000 rotate
0.000000 0 m /one glyphshow
6.362305 0 m /period glyphshow
9.541016 0 m /zero glyphshow
grestore
gsave
/o {
gsave
newpath
translate
0.8 setlinewidth
1 setlinejoin
0 setlinecap
0 0 m
-3.5 0 l

gsave
0.000 setgray
fill
grestore
stroke
grestore
} bind def
43.7781 579.173 o
grestore
gsave
20.871875 575.376605 translate
0.000000 rotate
0.000000 0 m /one glyphshow
6.362305 0 m /period glyphshow
9.541016 0 m /two glyphshow
grestore
gsave
14.793750 261.560375 translate
90.000000 rotate
0.000000 0 m /I glyphshow
2.949219 0 m /t glyphshow
6.870117 0 m /e glyphshow
13.022461 0 m /r glyphshow
17.133789 0 m /a glyphshow
23.261719 0 m /t glyphshow
27.182617 0 m /i glyphshow
29.960938 0 m /o glyphshow
36.079102 0 m /n glyphshow
42.416992 0 m /s glyphshow
47.626953 0 m /space glyphshow
50.805664 0 m /b glyphshow
57.153320 0 m /e glyphshow
63.305664 0 m /f glyphshow
66.826172 0 m /o glyphshow
72.944336 0 m /r glyphshow
76.805664 0 m /e glyphshow
82.958008 0 m /space glyphshow
86.136719 0 m /c glyphshow
91.634766 0 m /o glyphshow
97.752930 0 m /n glyphshow
104.090820 0 m /v glyphshow
110.008789 0 m /e glyphshow
116.161133 0 m /r glyphshow
120.147461 0 m /g glyphshow
126.495117 0 m /e glyphshow
132.647461 0 m /n glyphshow
138.985352 0 m /c glyphshow
144.483398 0 m /e glyphshow
grestore
gsave
43.778125 639.295750 translate
0.000000 rotate
0.000000 0 m /one glyphshow
6.362305 0 m /e glyphshow
12.514648 0 m /six glyphshow
grestore
1.500 setlinewidth
0.122 0.467 0.706 setrgbcolor
gsave
487 598.8 43.78 37.54 clipbox
65.913662 64.75975 m
65.913662 422.93789 l
stroke
grestore
gsave
487 598.8 43.78 37.54 clipbox
121.252505 114.643132 m
121.252505 406.351642 l
stroke
grestore
gsave
487 598.8 43.78 37.54 clipbox
176.591348 129.778846 m
176.591348 533.700772 l
stroke
grestore
gsave
487 598.8 43.78 37.54 clipbox
231.930191 137.048433 m
231.930191 456.182708 l
stroke
grestore
gsave
487 598.8 43.78 37.54 clipbox
287.269034 175.287624 m
287.269034 553.47075 l
stroke
grestore
gsave
487 598.8 43.78 37.54 clipbox
342.607877 133.484785 m
342.607877 578.727339 l
stroke
grestore
gsave
487 598.8 43.78 37.54 clipbox
397.94672 196.62843 m
397.94672 440.058542 l
stroke
grestore
gsave
487 598.8 43.78 37.54 clipbox
453.285563 181.127771 m
453.285563 609.07975 l
stroke
grestore
gsave
487 598.8 43.78 37.54 clipbox
508.624406 207.19866 m
508.624406 574.136446 l
stroke
grestore
2 setlinecap
1.000 0.498 0.055 setrgbcolor
gsave
487 598.8 43.78 37.54 clipbox
65.913662 260.336277 m
121.252505 277.399476 l
176.591348 294.462674 l
231.930191 311.525872 l
287.269034 328.589071 l
342.607877 345.652269 l
397.94672 362.715467 l
453.285563 379.778666 l
508.624406 396.841864 l
stroke
grestore
1.000 setlinewidth
2 setlinejoin
0 setlinecap
0.122 0.467 0.706 setrgbcolor
gsave
487 598.8 43.78 37.54 clipbox
/o {
gsave
newpath
translate
1.0 setlinewidth
2 setlinejoin
0 setlinecap
0 3 m
-0.673542 0.927051 l
-2.85317 0.927051 l
-1.089814 -0.354102 l
-1.763356 -2.427051 l
-0 -1.145898 l
1.763356 -2.427051 l
1.089814 -0.354102 l
2.85317 0.927051 l
0.673542 0.927051 l
cl

gsave
0.122 0.467 0.706 setrgbcolor
fill
grestore
stroke
grestore
} bind def
65.9137 243.849 o
121.253 260.497 o
176.591 331.74 o
231.93 296.616 o
287.269 364.379 o
342.608 356.106 o
397.947 318.343 o
453.286 395.104 o
508.624 390.668 o
grestore
0.800 setlinewidth
0 setlinejoin
2 setlinecap
[] 0 setdash
0.000 setgray
gsave
43.778125 37.54375 m
43.778125 636.29575 l
stroke
grestore
gsave
530.759943 37.54375 m
530.759943 636.29575 l
stroke
grestore
gsave
43.778125 37.54375 m
530.759943 37.54375 l
stroke
grestore
gsave
43.778125 636.29575 m
530.759943 636.29575 l
stroke
grestore
1.000 setlinewidth
0 setlinecap
0.800 setgray
gsave
368.900568 598.952 m
523.759943 598.952 l
525.093277 598.952 525.759943 599.618667 525.759943 600.952 c
525.759943 629.29575 l
525.759943 630.629083 525.093277 631.29575 523.759943 631.29575 c
368.900568 631.29575 l
367.567235 631.29575 366.900568 630.629083 366.900568 629.29575 c
366.900568 600.952 l
366.900568 599.618667 367.567235 598.952 368.900568 598.952 c
cl
gsave
1.000 setgray
fill
grestore
stroke
grestore
1.500 setlinewidth
1 setlinejoin
2 setlinecap
[] 0 setdash
1.000 0.498 0.055 setrgbcolor
gsave
370.900568 623.202 m
390.900568 623.202 l
stroke
grestore
0.000 setgray
gsave
398.900568 619.702000 translate
0.000000 rotate
0.000000 0 m /three glyphshow
6.362305 0 m /six glyphshow
12.724609 0 m /four glyphshow
19.086914 0 m /eight glyphshow
25.449219 0 m /zero glyphshow
31.811523 0 m /period glyphshow
34.990234 0 m /two glyphshow
41.352539 0 m /one glyphshow
47.714844 0 m /n glyphshow
54.052734 0 m /space glyphshow
57.231445 0 m /plus glyphshow
65.610352 0 m /space glyphshow
68.789062 0 m /four glyphshow
75.151367 0 m /four glyphshow
81.513672 0 m /five glyphshow
87.875977 0 m /three glyphshow
94.238281 0 m /eight glyphshow
100.600586 0 m /two glyphshow
106.962891 0 m /period glyphshow
110.141602 0 m /six glyphshow
116.503906 0 m /four glyphshow
grestore
0 setlinecap
0.122 0.467 0.706 setrgbcolor
gsave
380.900568 603.530125 m
380.900568 613.530125 l
stroke
grestore
1.000 setlinewidth
2 setlinejoin
gsave
/o {
gsave
newpath
translate
1.0 setlinewidth
2 setlinejoin
0 setlinecap
0 3 m
-0.673542 0.927051 l
-2.85317 0.927051 l
-1.089814 -0.354102 l
-1.763356 -2.427051 l
-0 -1.145898 l
1.763356 -2.427051 l
1.089814 -0.354102 l
2.85317 0.927051 l
0.673542 0.927051 l
cl

gsave
0.122 0.467 0.706 setrgbcolor
fill
grestore
stroke
grestore
} bind def
380.901 608.53 o
grestore
0.000 setgray
gsave
398.900568 605.030125 translate
0.000000 rotate
0.000000 0 m /d glyphshow
6.347656 0 m /a glyphshow
12.475586 0 m /t glyphshow
16.396484 0 m /a glyphshow
grestore
gsave
628.156307 37.54375 m
1115.138125 37.54375 l
1115.138125 636.29575 l
628.156307 636.29575 l
cl
1.000 setgray
fill
grestore
0.800 setlinewidth
1 setlinejoin
gsave
/o {
gsave
newpath
translate
0.8 setlinewidth
1 setlinejoin
0 setlinecap
0 0 m
0 -3.5 l

gsave
0.000 setgray
fill
grestore
stroke
grestore
} bind def
650.292 37.5438 o
grestore
gsave
647.112157 22.950000 translate
0.000000 rotate
0.000000 0 m /two glyphshow
grestore
gsave
/o {
gsave
newpath
translate
0.8 setlinewidth
1 setlinejoin
0 setlinecap
0 0 m
0 -3.5 l

gsave
0.000 setgray
fill
grestore
stroke
grestore
} bind def
705.631 37.5438 o
grestore
gsave
702.450999 22.950000 translate
0.000000 rotate
0.000000 0 m /three glyphshow
grestore
gsave
/o {
gsave
newpath
translate
0.8 setlinewidth
1 setlinejoin
0 setlinecap
0 0 m
0 -3.5 l

gsave
0.000 setgray
fill
grestore
stroke
grestore
} bind def
760.97 37.5438 o
grestore
gsave
757.789842 22.950000 translate
0.000000 rotate
0.000000 0 m /four glyphshow
grestore
gsave
/o {
gsave
newpath
translate
0.8 setlinewidth
1 setlinejoin
0 setlinecap
0 0 m
0 -3.5 l

gsave
0.000 setgray
fill
grestore
stroke
grestore
} bind def
816.308 37.5438 o
grestore
gsave
813.128685 22.950000 translate
0.000000 rotate
0.000000 0 m /five glyphshow
grestore
gsave
/o {
gsave
newpath
translate
0.8 setlinewidth
1 setlinejoin
0 setlinecap
0 0 m
0 -3.5 l

gsave
0.000 setgray
fill
grestore
stroke
grestore
} bind def
871.647 37.5438 o
grestore
gsave
868.467528 22.950000 translate
0.000000 rotate
0.000000 0 m /six glyphshow
grestore
gsave
/o {
gsave
newpath
translate
0.8 setlinewidth
1 setlinejoin
0 setlinecap
0 0 m
0 -3.5 l

gsave
0.000 setgray
fill
grestore
stroke
grestore
} bind def
926.986 37.5438 o
grestore
gsave
923.806371 22.950000 translate
0.000000 rotate
0.000000 0 m /seven glyphshow
grestore
gsave
/o {
gsave
newpath
translate
0.8 setlinewidth
1 setlinejoin
0 setlinecap
0 0 m
0 -3.5 l

gsave
0.000 setgray
fill
grestore
stroke
grestore
} bind def
982.325 37.5438 o
grestore
gsave
979.145214 22.950000 translate
0.000000 rotate
0.000000 0 m /eight glyphshow
grestore
gsave
/o {
gsave
newpath
translate
0.8 setlinewidth
1 setlinejoin
0 setlinecap
0 0 m
0 -3.5 l

gsave
0.000 setgray
fill
grestore
stroke
grestore
} bind def
1037.66 37.5438 o
grestore
gsave
1034.484057 22.950000 translate
0.000000 rotate
0.000000 0 m /nine glyphshow
grestore
gsave
/o {
gsave
newpath
translate
0.8 setlinewidth
1 setlinejoin
0 setlinecap
0 0 m
0 -3.5 l

gsave
0.000 setgray
fill
grestore
stroke
grestore
} bind def
1093 37.5438 o
grestore
gsave
1086.643213 22.950000 translate
0.000000 rotate
0.000000 0 m /one glyphshow
6.362305 0 m /zero glyphshow
grestore
gsave
799.623778 9.278125 translate
0.000000 rotate
0.000000 0 m /N glyphshow
7.480469 0 m /u glyphshow
13.818359 0 m /m glyphshow
23.559570 0 m /b glyphshow
29.907227 0 m /e glyphshow
36.059570 0 m /r glyphshow
40.170898 0 m /space glyphshow
43.349609 0 m /o glyphshow
49.467773 0 m /f glyphshow
52.988281 0 m /space glyphshow
56.166992 0 m /d glyphshow
62.514648 0 m /i glyphshow
65.292969 0 m /f glyphshow
68.813477 0 m /f glyphshow
72.333984 0 m /e glyphshow
78.486328 0 m /r glyphshow
82.347656 0 m /e glyphshow
88.500000 0 m /n glyphshow
94.837891 0 m /t glyphshow
98.758789 0 m /space glyphshow
101.937500 0 m /o glyphshow
108.055664 0 m /p glyphshow
114.403320 0 m /i glyphshow
117.181641 0 m /n glyphshow
123.519531 0 m /i glyphshow
126.297852 0 m /o glyphshow
132.416016 0 m /n glyphshow
138.753906 0 m /s glyphshow
grestore
gsave
/o {
gsave
newpath
translate
0.8 setlinewidth
1 setlinejoin
0 setlinecap
0 0 m
-3.5 0 l

gsave
0.000 setgray
fill
grestore
stroke
grestore
} bind def
628.156 134.607 o
grestore
gsave
614.796932 130.810231 translate
0.000000 rotate
0.000000 0 m /one glyphshow
grestore
gsave
/o {
gsave
newpath
translate
0.8 setlinewidth
1 setlinejoin
0 setlinecap
0 0 m
-3.5 0 l

gsave
0.000 setgray
fill
grestore
stroke
grestore
} bind def
628.156 262.735 o
grestore
gsave
614.796932 258.937865 translate
0.000000 rotate
0.000000 0 m /two glyphshow
grestore
gsave
/o {
gsave
newpath
translate
0.8 setlinewidth
1 setlinejoin
0 setlinecap
0 0 m
-3.5 0 l

gsave
0.000 setgray
fill
grestore
stroke
grestore
} bind def
628.156 390.862 o
grestore
gsave
614.796932 387.065499 translate
0.000000 rotate
0.000000 0 m /three glyphshow
grestore
gsave
/o {
gsave
newpath
translate
0.8 setlinewidth
1 setlinejoin
0 setlinecap
0 0 m
-3.5 0 l

gsave
0.000 setgray
fill
grestore
stroke
grestore
} bind def
628.156 518.99 o
grestore
gsave
614.796932 515.193132 translate
0.000000 rotate
0.000000 0 m /four glyphshow
grestore
gsave
608.718807 262.122875 translate
90.000000 rotate
0.000000 0 m /A glyphshow
6.215820 0 m /v glyphshow
12.133789 0 m /e glyphshow
18.286133 0 m /r glyphshow
22.397461 0 m /a glyphshow
28.525391 0 m /g glyphshow
34.873047 0 m /e glyphshow
41.025391 0 m /space glyphshow
44.204102 0 m /c glyphshow
49.702148 0 m /o glyphshow
55.820312 0 m /n glyphshow
62.158203 0 m /s glyphshow
67.368164 0 m /e glyphshow
73.520508 0 m /n glyphshow
79.858398 0 m /s glyphshow
85.068359 0 m /u glyphshow
91.406250 0 m /s glyphshow
96.616211 0 m /space glyphshow
99.794922 0 m /o glyphshow
105.913086 0 m /f glyphshow
109.433594 0 m /space glyphshow
112.612305 0 m /a glyphshow
118.740234 0 m /l glyphshow
121.518555 0 m /l glyphshow
124.296875 0 m /space glyphshow
127.475586 0 m /r glyphshow
131.586914 0 m /u glyphshow
137.924805 0 m /n glyphshow
144.262695 0 m /s glyphshow
grestore
1.000 setlinewidth
2 setlinejoin
0.122 0.467 0.706 setrgbcolor
gsave
487 598.8 628.2 37.54 clipbox
/o {
gsave
newpath
translate
1.0 setlinewidth
2 setlinejoin
0 setlinecap
0 3 m
-0.673542 0.927051 l
-2.85317 0.927051 l
-1.089814 -0.354102 l
-1.763356 -2.427051 l
-0 -1.145898 l
1.763356 -2.427051 l
1.089814 -0.354102 l
2.85317 0.927051 l
0.673542 0.927051 l
cl

gsave
0.122 0.467 0.706 setrgbcolor
fill
grestore
stroke
grestore
} bind def
650.292 66.5393 o
705.631 146.619 o
760.97 200.673 o
816.308 248.721 o
871.647 344.817 o
926.986 348.82 o
982.325 468.94 o
1037.66 539.01 o
1093 609.08 o
grestore
1.500 setlinewidth
1 setlinejoin
2 setlinecap
1.000 0.498 0.055 setrgbcolor
gsave
487 598.8 628.2 37.54 clipbox
650.291844 64.75975 m
705.630687 131.159227 l
760.96953 197.558704 l
816.308373 263.958181 l
871.647216 330.357658 l
926.986059 396.757135 l
982.324902 463.156611 l
1037.663745 529.556088 l
1093.002588 595.955565 l
stroke
grestore
0.800 setlinewidth
0 setlinejoin
[] 0 setdash
0.000 setgray
gsave
628.156307 37.54375 m
628.156307 636.29575 l
stroke
grestore
gsave
1115.138125 37.54375 m
1115.138125 636.29575 l
stroke
grestore
gsave
628.156307 37.54375 m
1115.138125 37.54375 l
stroke
grestore
gsave
628.156307 636.29575 m
1115.138125 636.29575 l
stroke
grestore
1.000 setlinewidth
0 setlinecap
0.800 setgray
gsave
635.156307 598.952 m
728.015682 598.952 l
729.349015 598.952 730.015682 599.618667 730.015682 600.952 c
730.015682 629.29575 l
730.015682 630.629083 729.349015 631.29575 728.015682 631.29575 c
635.156307 631.29575 l
633.822973 631.29575 633.156307 630.629083 633.156307 629.29575 c
633.156307 600.952 l
633.156307 599.618667 633.822973 598.952 635.156307 598.952 c
cl
gsave
1.000 setgray
fill
grestore
stroke
grestore
2 setlinejoin
[] 0 setdash
0.122 0.467 0.706 setrgbcolor
gsave
/o {
gsave
newpath
translate
1.0 setlinewidth
2 setlinejoin
0 setlinecap
0 3 m
-0.673542 0.927051 l
-2.85317 0.927051 l
-1.089814 -0.354102 l
-1.763356 -2.427051 l
-0 -1.145898 l
1.763356 -2.427051 l
1.089814 -0.354102 l
2.85317 0.927051 l
0.673542 0.927051 l
cl

gsave
0.122 0.467 0.706 setrgbcolor
fill
grestore
stroke
grestore
} bind def
647.156 623.202 o
grestore
0.000 setgray
gsave
665.156307 619.702000 translate
0.000000 rotate
0.000000 0 m /d glyphshow
6.347656 0 m /a glyphshow
12.475586 0 m /t glyphshow
16.396484 0 m /a glyphshow
grestore
1.500 setlinewidth
1 setlinejoin
2 setlinecap
1.000 0.498 0.055 setrgbcolor
gsave
637.156307 608.530125 m
657.156307 608.530125 l
stroke
grestore
0.000 setgray
gsave
665.156307 605.030125 translate
0.000000 rotate
0.000000 0 m /zero glyphshow
6.362305 0 m /period glyphshow
9.541016 0 m /five glyphshow
15.903320 0 m /two glyphshow
22.265625 0 m /n glyphshow
28.603516 0 m /space glyphshow
31.782227 0 m /hyphen glyphshow
35.390625 0 m /space glyphshow
38.569336 0 m /zero glyphshow
44.931641 0 m /period glyphshow
48.110352 0 m /five glyphshow
54.472656 0 m /eight glyphshow
grestore
/DejaVuSans findfont
12.000 scalefont
setfont
gsave
453.498437 704.930750 translate
0.000000 rotate
0.000000 0 m /S glyphshow
7.617188 0 m /z glyphshow
13.916016 0 m /n glyphshow
21.521484 0 m /a glyphshow
28.875000 0 m /j glyphshow
32.208984 0 m /d glyphshow
39.826172 0 m /space glyphshow
43.640625 0 m /m glyphshow
55.330078 0 m /o glyphshow
62.671875 0 m /d glyphshow
70.289062 0 m /e glyphshow
77.671875 0 m /l glyphshow
81.005859 0 m /space glyphshow
84.820312 0 m /w glyphshow
94.634766 0 m /i glyphshow
97.968750 0 m /t glyphshow
102.673828 0 m /h glyphshow
110.279297 0 m /space glyphshow
114.093750 0 m /m glyphshow
125.783203 0 m /u glyphshow
133.388672 0 m /l glyphshow
136.722656 0 m /t glyphshow
141.427734 0 m /i glyphshow
144.761719 0 m /p glyphshow
152.378906 0 m /l glyphshow
155.712891 0 m /e glyphshow
163.095703 0 m /space glyphshow
166.910156 0 m /o glyphshow
174.251953 0 m /p glyphshow
181.869141 0 m /i glyphshow
185.203125 0 m /n glyphshow
192.808594 0 m /i glyphshow
196.142578 0 m /o glyphshow
203.484375 0 m /n glyphshow
211.089844 0 m /s glyphshow
grestore

end
showpage
