%!PS-Adobe-3.0 EPSF-3.0
%%Title: ./fig/d_report.eps
%%Creator: matplotlib version 3.2.1, http://matplotlib.org/
%%CreationDate: Thu Apr 23 12:30:26 2020
%%Orientation: landscape
%%BoundingBox: 49.086850000000084 44.3599375000001 562.9131499999999 747.6400624999999
%%EndComments
%%BeginProlog
/mpldict 8 dict def
mpldict begin
/m { moveto } bind def
/l { lineto } bind def
/r { rlineto } bind def
/c { curveto } bind def
/cl { closepath } bind def
/box {
m
1 index 0 r
0 exch r
neg 0 r
cl
} bind def
/clipbox {
box
clip
newpath
} bind def
%!PS-Adobe-3.0 Resource-Font
%%Title: DejaVu Sans
%%Copyright: Copyright (c) 2003 by Bitstream, Inc. All Rights Reserved. Copyright (c) 2006 by Tavmjong Bah. All Rights Reserved. DejaVu changes are in public domain 
%%Creator: Converted from TrueType to type 3 by PPR
25 dict begin
/_d{bind def}bind def
/_m{moveto}_d
/_l{lineto}_d
/_cl{closepath eofill}_d
/_c{curveto}_d
/_sc{7 -1 roll{setcachedevice}{pop pop pop pop pop pop}ifelse}_d
/_e{exec}_d
/FontName /DejaVuSans def
/PaintType 0 def
/FontMatrix[.001 0 0 .001 0 0]def
/FontBBox[-1021 -463 1793 1232]def
/FontType 3 def
/Encoding [ /space /plus /hyphen /period /zero /one /two /three /four /five /six /seven /eight /nine /A /I /N /a /b /c /d /e /f /g /i /l /m /n /o /p /r /s /t /u /v ] def
/FontInfo 10 dict dup begin
/FamilyName (DejaVu Sans) def
/FullName (DejaVu Sans) def
/Notice (Copyright (c) 2003 by Bitstream, Inc. All Rights Reserved. Copyright (c) 2006 by Tavmjong Bah. All Rights Reserved. DejaVu changes are in public domain ) def
/Weight (Book) def
/Version (Version 2.35) def
/ItalicAngle 0.0 def
/isFixedPitch false def
/UnderlinePosition -130 def
/UnderlineThickness 90 def
end readonly def
/CharStrings 36 dict dup begin
/.notdef 0 def
/space{318 0 0 0 0 0 _sc
}_d
/plus{838 0 106 0 732 627 _sc
460 627 _m
460 355 _l
732 355 _l
732 272 _l
460 272 _l
460 0 _l
378 0 _l
378 272 _l
106 272 _l
106 355 _l
378 355 _l
378 627 _l
460 627 _l
_cl}_d
/hyphen{361 0 49 234 312 314 _sc
49 314 _m
312 314 _l
312 234 _l
49 234 _l
49 314 _l
_cl}_d
/period{318 0 107 0 210 124 _sc
107 124 _m
210 124 _l
210 0 _l
107 0 _l
107 124 _l
_cl}_d
/zero{636 0 66 -13 570 742 _sc
318 664 _m
267 664 229 639 203 589 _c
177 539 165 464 165 364 _c
165 264 177 189 203 139 _c
229 89 267 64 318 64 _c
369 64 407 89 433 139 _c
458 189 471 264 471 364 _c
471 464 458 539 433 589 _c
407 639 369 664 318 664 _c
318 742 _m
399 742 461 709 505 645 _c
548 580 570 486 570 364 _c
570 241 548 147 505 83 _c
461 19 399 -13 318 -13 _c
236 -13 173 19 130 83 _c
87 147 66 241 66 364 _c
66 486 87 580 130 645 _c
173 709 236 742 318 742 _c
_cl}_d
/one{636 0 110 0 544 729 _sc
124 83 _m
285 83 _l
285 639 _l
110 604 _l
110 694 _l
284 729 _l
383 729 _l
383 83 _l
544 83 _l
544 0 _l
124 0 _l
124 83 _l
_cl}_d
/two{{636 0 73 0 536 742 _sc
192 83 _m
536 83 _l
536 0 _l
73 0 _l
73 83 _l
110 121 161 173 226 239 _c
290 304 331 346 348 365 _c
380 400 402 430 414 455 _c
426 479 433 504 433 528 _c
433 566 419 598 392 622 _c
365 646 330 659 286 659 _c
255 659 222 653 188 643 _c
154 632 117 616 78 594 _c
78 694 _l
118 710 155 722 189 730 _c
223 738 255 742 284 742 _c
}_e{359 742 419 723 464 685 _c
509 647 532 597 532 534 _c
532 504 526 475 515 449 _c
504 422 484 390 454 354 _c
446 344 420 317 376 272 _c
332 227 271 164 192 83 _c
_cl}_e}_d
/three{{636 0 76 -13 556 742 _sc
406 393 _m
453 383 490 362 516 330 _c
542 298 556 258 556 212 _c
556 140 531 84 482 45 _c
432 6 362 -13 271 -13 _c
240 -13 208 -10 176 -4 _c
144 1 110 10 76 22 _c
76 117 _l
103 101 133 89 166 81 _c
198 73 232 69 268 69 _c
330 69 377 81 409 105 _c
441 129 458 165 458 212 _c
458 254 443 288 413 312 _c
383 336 341 349 287 349 _c
}_e{202 349 _l
202 430 _l
291 430 _l
339 430 376 439 402 459 _c
428 478 441 506 441 543 _c
441 580 427 609 401 629 _c
374 649 336 659 287 659 _c
260 659 231 656 200 650 _c
169 644 135 635 98 623 _c
98 711 _l
135 721 170 729 203 734 _c
235 739 266 742 296 742 _c
370 742 429 725 473 691 _c
517 657 539 611 539 553 _c
539 513 527 479 504 451 _c
481 423 448 403 406 393 _c
_cl}_e}_d
/four{636 0 49 0 580 729 _sc
378 643 _m
129 254 _l
378 254 _l
378 643 _l
352 729 _m
476 729 _l
476 254 _l
580 254 _l
580 172 _l
476 172 _l
476 0 _l
378 0 _l
378 172 _l
49 172 _l
49 267 _l
352 729 _l
_cl}_d
/five{{636 0 77 -13 549 729 _sc
108 729 _m
495 729 _l
495 646 _l
198 646 _l
198 467 _l
212 472 227 476 241 478 _c
255 480 270 482 284 482 _c
365 482 429 459 477 415 _c
525 370 549 310 549 234 _c
549 155 524 94 475 51 _c
426 8 357 -13 269 -13 _c
238 -13 207 -10 175 -6 _c
143 -1 111 6 77 17 _c
77 116 _l
106 100 136 88 168 80 _c
199 72 232 69 267 69 _c
}_e{323 69 368 83 401 113 _c
433 143 450 183 450 234 _c
450 284 433 324 401 354 _c
368 384 323 399 267 399 _c
241 399 214 396 188 390 _c
162 384 135 375 108 363 _c
108 729 _l
_cl}_e}_d
/six{{636 0 70 -13 573 742 _sc
330 404 _m
286 404 251 388 225 358 _c
199 328 186 286 186 234 _c
186 181 199 139 225 109 _c
251 79 286 64 330 64 _c
374 64 409 79 435 109 _c
461 139 474 181 474 234 _c
474 286 461 328 435 358 _c
409 388 374 404 330 404 _c
526 713 _m
526 623 _l
501 635 476 644 451 650 _c
425 656 400 659 376 659 _c
310 659 260 637 226 593 _c
}_e{192 549 172 482 168 394 _c
187 422 211 444 240 459 _c
269 474 301 482 336 482 _c
409 482 467 459 509 415 _c
551 371 573 310 573 234 _c
573 159 550 99 506 54 _c
462 9 403 -13 330 -13 _c
246 -13 181 19 137 83 _c
92 147 70 241 70 364 _c
70 479 97 571 152 639 _c
206 707 280 742 372 742 _c
396 742 421 739 447 735 _c
472 730 498 723 526 713 _c
_cl}_e}_d
/seven{636 0 82 0 551 729 _sc
82 729 _m
551 729 _l
551 687 _l
286 0 _l
183 0 _l
432 646 _l
82 646 _l
82 729 _l
_cl}_d
/eight{{636 0 68 -13 568 742 _sc
318 346 _m
271 346 234 333 207 308 _c
180 283 167 249 167 205 _c
167 161 180 126 207 101 _c
234 76 271 64 318 64 _c
364 64 401 76 428 102 _c
455 127 469 161 469 205 _c
469 249 455 283 429 308 _c
402 333 365 346 318 346 _c
219 388 _m
177 398 144 418 120 447 _c
96 476 85 511 85 553 _c
85 611 105 657 147 691 _c
188 725 245 742 318 742 _c
}_e{390 742 447 725 489 691 _c
530 657 551 611 551 553 _c
551 511 539 476 515 447 _c
491 418 459 398 417 388 _c
464 377 501 355 528 323 _c
554 291 568 251 568 205 _c
568 134 546 80 503 43 _c
459 5 398 -13 318 -13 _c
237 -13 175 5 132 43 _c
89 80 68 134 68 205 _c
68 251 81 291 108 323 _c
134 355 171 377 219 388 _c
183 544 _m
183 506 194 476 218 455 _c
}_e{242 434 275 424 318 424 _c
360 424 393 434 417 455 _c
441 476 453 506 453 544 _c
453 582 441 611 417 632 _c
393 653 360 664 318 664 _c
275 664 242 653 218 632 _c
194 611 183 582 183 544 _c
_cl}_e}_d
/nine{{636 0 63 -13 566 742 _sc
110 15 _m
110 105 _l
134 93 159 84 185 78 _c
210 72 235 69 260 69 _c
324 69 374 90 408 134 _c
442 178 462 244 468 334 _c
448 306 424 284 396 269 _c
367 254 335 247 300 247 _c
226 247 168 269 126 313 _c
84 357 63 417 63 494 _c
63 568 85 628 129 674 _c
173 719 232 742 306 742 _c
390 742 455 709 499 645 _c
543 580 566 486 566 364 _c
}_e{566 248 538 157 484 89 _c
429 21 356 -13 264 -13 _c
239 -13 214 -10 189 -6 _c
163 -2 137 5 110 15 _c
306 324 _m
350 324 385 339 411 369 _c
437 399 450 441 450 494 _c
450 546 437 588 411 618 _c
385 648 350 664 306 664 _c
262 664 227 648 201 618 _c
175 588 162 546 162 494 _c
162 441 175 399 201 369 _c
227 339 262 324 306 324 _c
_cl}_e}_d
/A{684 0 8 0 676 729 _sc
342 632 _m
208 269 _l
476 269 _l
342 632 _l
286 729 _m
398 729 _l
676 0 _l
573 0 _l
507 187 _l
178 187 _l
112 0 _l
8 0 _l
286 729 _l
_cl}_d
/I{295 0 98 0 197 729 _sc
98 729 _m
197 729 _l
197 0 _l
98 0 _l
98 729 _l
_cl}_d
/N{748 0 98 0 650 729 _sc
98 729 _m
231 729 _l
554 119 _l
554 729 _l
650 729 _l
650 0 _l
517 0 _l
194 610 _l
194 0 _l
98 0 _l
98 729 _l
_cl}_d
/a{{613 0 60 -13 522 560 _sc
343 275 _m
270 275 220 266 192 250 _c
164 233 150 205 150 165 _c
150 133 160 107 181 89 _c
202 70 231 61 267 61 _c
317 61 357 78 387 114 _c
417 149 432 196 432 255 _c
432 275 _l
343 275 _l
522 312 _m
522 0 _l
432 0 _l
432 83 _l
411 49 385 25 355 10 _c
325 -5 287 -13 243 -13 _c
187 -13 142 2 109 33 _c
76 64 60 106 60 159 _c
}_e{60 220 80 266 122 298 _c
163 329 224 345 306 345 _c
432 345 _l
432 354 _l
432 395 418 427 391 450 _c
364 472 326 484 277 484 _c
245 484 215 480 185 472 _c
155 464 127 453 100 439 _c
100 522 _l
132 534 164 544 195 550 _c
226 556 256 560 286 560 _c
365 560 424 539 463 498 _c
502 457 522 395 522 312 _c
_cl}_e}_d
/b{{635 0 91 -13 580 760 _sc
487 273 _m
487 339 473 390 446 428 _c
418 466 381 485 334 485 _c
286 485 249 466 222 428 _c
194 390 181 339 181 273 _c
181 207 194 155 222 117 _c
249 79 286 61 334 61 _c
381 61 418 79 446 117 _c
473 155 487 207 487 273 _c
181 464 _m
199 496 223 520 252 536 _c
281 552 316 560 356 560 _c
422 560 476 533 518 481 _c
559 428 580 359 580 273 _c
}_e{580 187 559 117 518 65 _c
476 13 422 -13 356 -13 _c
316 -13 281 -5 252 10 _c
223 25 199 49 181 82 _c
181 0 _l
91 0 _l
91 760 _l
181 760 _l
181 464 _l
_cl}_e}_d
/c{{550 0 55 -13 488 560 _sc
488 526 _m
488 442 _l
462 456 437 466 411 473 _c
385 480 360 484 334 484 _c
276 484 230 465 198 428 _c
166 391 150 339 150 273 _c
150 206 166 154 198 117 _c
230 80 276 62 334 62 _c
360 62 385 65 411 72 _c
437 79 462 90 488 104 _c
488 21 _l
462 9 436 0 410 -5 _c
383 -10 354 -13 324 -13 _c
242 -13 176 12 128 64 _c
}_e{79 115 55 185 55 273 _c
55 362 79 432 128 483 _c
177 534 244 560 330 560 _c
358 560 385 557 411 551 _c
437 545 463 537 488 526 _c
_cl}_e}_d
/d{{635 0 55 -13 544 760 _sc
454 464 _m
454 760 _l
544 760 _l
544 0 _l
454 0 _l
454 82 _l
435 49 411 25 382 10 _c
353 -5 319 -13 279 -13 _c
213 -13 159 13 117 65 _c
75 117 55 187 55 273 _c
55 359 75 428 117 481 _c
159 533 213 560 279 560 _c
319 560 353 552 382 536 _c
411 520 435 496 454 464 _c
148 273 _m
148 207 161 155 188 117 _c
215 79 253 61 301 61 _c
}_e{348 61 385 79 413 117 _c
440 155 454 207 454 273 _c
454 339 440 390 413 428 _c
385 466 348 485 301 485 _c
253 485 215 466 188 428 _c
161 390 148 339 148 273 _c
_cl}_e}_d
/e{{615 0 55 -13 562 560 _sc
562 296 _m
562 252 _l
149 252 _l
153 190 171 142 205 110 _c
238 78 284 62 344 62 _c
378 62 412 66 444 74 _c
476 82 509 95 541 113 _c
541 28 _l
509 14 476 3 442 -3 _c
408 -9 373 -13 339 -13 _c
251 -13 182 12 131 62 _c
80 112 55 181 55 268 _c
55 357 79 428 127 481 _c
175 533 241 560 323 560 _c
397 560 455 536 498 489 _c
}_e{540 441 562 377 562 296 _c
472 322 _m
471 371 457 410 431 440 _c
404 469 368 484 324 484 _c
274 484 234 469 204 441 _c
174 413 156 373 152 322 _c
472 322 _l
_cl}_e}_d
/f{352 0 23 0 371 760 _sc
371 760 _m
371 685 _l
285 685 _l
253 685 230 678 218 665 _c
205 652 199 629 199 595 _c
199 547 _l
347 547 _l
347 477 _l
199 477 _l
199 0 _l
109 0 _l
109 477 _l
23 477 _l
23 547 _l
109 547 _l
109 585 _l
109 645 123 690 151 718 _c
179 746 224 760 286 760 _c
371 760 _l
_cl}_d
/g{{635 0 55 -207 544 560 _sc
454 280 _m
454 344 440 395 414 431 _c
387 467 349 485 301 485 _c
253 485 215 467 188 431 _c
161 395 148 344 148 280 _c
148 215 161 165 188 129 _c
215 93 253 75 301 75 _c
349 75 387 93 414 129 _c
440 165 454 215 454 280 _c
544 68 _m
544 -24 523 -93 482 -139 _c
440 -184 377 -207 292 -207 _c
260 -207 231 -204 203 -200 _c
175 -195 147 -188 121 -178 _c
}_e{121 -91 _l
147 -105 173 -115 199 -122 _c
225 -129 251 -133 278 -133 _c
336 -133 380 -117 410 -87 _c
439 -56 454 -10 454 52 _c
454 96 _l
435 64 411 40 382 24 _c
353 8 319 0 279 0 _c
211 0 157 25 116 76 _c
75 127 55 195 55 280 _c
55 364 75 432 116 483 _c
157 534 211 560 279 560 _c
319 560 353 552 382 536 _c
411 520 435 496 454 464 _c
454 547 _l
544 547 _l
}_e{544 68 _l
_cl}_e}_d
/i{278 0 94 0 184 760 _sc
94 547 _m
184 547 _l
184 0 _l
94 0 _l
94 547 _l
94 760 _m
184 760 _l
184 646 _l
94 646 _l
94 760 _l
_cl}_d
/l{278 0 94 0 184 760 _sc
94 760 _m
184 760 _l
184 0 _l
94 0 _l
94 760 _l
_cl}_d
/m{{974 0 91 0 889 560 _sc
520 442 _m
542 482 569 511 600 531 _c
631 550 668 560 711 560 _c
767 560 811 540 842 500 _c
873 460 889 403 889 330 _c
889 0 _l
799 0 _l
799 327 _l
799 379 789 418 771 444 _c
752 469 724 482 686 482 _c
639 482 602 466 575 435 _c
548 404 535 362 535 309 _c
535 0 _l
445 0 _l
445 327 _l
445 379 435 418 417 444 _c
398 469 369 482 331 482 _c
}_e{285 482 248 466 221 435 _c
194 404 181 362 181 309 _c
181 0 _l
91 0 _l
91 547 _l
181 547 _l
181 462 _l
201 495 226 520 255 536 _c
283 552 317 560 357 560 _c
397 560 430 550 458 530 _c
486 510 506 480 520 442 _c
_cl}_e}_d
/n{634 0 91 0 549 560 _sc
549 330 _m
549 0 _l
459 0 _l
459 327 _l
459 379 448 417 428 443 _c
408 469 378 482 338 482 _c
289 482 251 466 223 435 _c
195 404 181 362 181 309 _c
181 0 _l
91 0 _l
91 547 _l
181 547 _l
181 462 _l
202 494 227 519 257 535 _c
286 551 320 560 358 560 _c
420 560 468 540 500 501 _c
532 462 549 405 549 330 _c
_cl}_d
/o{612 0 55 -13 557 560 _sc
306 484 _m
258 484 220 465 192 427 _c
164 389 150 338 150 273 _c
150 207 163 156 191 118 _c
219 80 257 62 306 62 _c
354 62 392 80 420 118 _c
448 156 462 207 462 273 _c
462 337 448 389 420 427 _c
392 465 354 484 306 484 _c
306 560 _m
384 560 445 534 490 484 _c
534 433 557 363 557 273 _c
557 183 534 113 490 63 _c
445 12 384 -13 306 -13 _c
227 -13 165 12 121 63 _c
77 113 55 183 55 273 _c
55 363 77 433 121 484 _c
165 534 227 560 306 560 _c
_cl}_d
/p{{635 0 91 -207 580 560 _sc
181 82 _m
181 -207 _l
91 -207 _l
91 547 _l
181 547 _l
181 464 _l
199 496 223 520 252 536 _c
281 552 316 560 356 560 _c
422 560 476 533 518 481 _c
559 428 580 359 580 273 _c
580 187 559 117 518 65 _c
476 13 422 -13 356 -13 _c
316 -13 281 -5 252 10 _c
223 25 199 49 181 82 _c
487 273 _m
487 339 473 390 446 428 _c
418 466 381 485 334 485 _c
}_e{286 485 249 466 222 428 _c
194 390 181 339 181 273 _c
181 207 194 155 222 117 _c
249 79 286 61 334 61 _c
381 61 418 79 446 117 _c
473 155 487 207 487 273 _c
_cl}_e}_d
/r{411 0 91 0 411 560 _sc
411 463 _m
401 469 390 473 378 476 _c
366 478 353 480 339 480 _c
288 480 249 463 222 430 _c
194 397 181 350 181 288 _c
181 0 _l
91 0 _l
91 547 _l
181 547 _l
181 462 _l
199 495 224 520 254 536 _c
284 552 321 560 365 560 _c
371 560 378 559 386 559 _c
393 558 401 557 411 555 _c
411 463 _l
_cl}_d
/s{{521 0 54 -13 472 560 _sc
443 531 _m
443 446 _l
417 458 391 468 364 475 _c
336 481 308 485 279 485 _c
234 485 200 478 178 464 _c
156 450 145 430 145 403 _c
145 382 153 366 169 354 _c
185 342 217 330 265 320 _c
296 313 _l
360 299 405 279 432 255 _c
458 230 472 195 472 151 _c
472 100 452 60 412 31 _c
372 1 316 -13 246 -13 _c
216 -13 186 -10 154 -5 _c
}_e{122 0 89 8 54 20 _c
54 113 _l
87 95 120 82 152 74 _c
184 65 216 61 248 61 _c
290 61 323 68 346 82 _c
368 96 380 117 380 144 _c
380 168 371 187 355 200 _c
339 213 303 226 247 238 _c
216 245 _l
160 257 119 275 95 299 _c
70 323 58 356 58 399 _c
58 450 76 490 112 518 _c
148 546 200 560 268 560 _c
301 560 332 557 362 552 _c
391 547 418 540 443 531 _c
}_e{_cl}_e}_d
/t{392 0 27 0 368 702 _sc
183 702 _m
183 547 _l
368 547 _l
368 477 _l
183 477 _l
183 180 _l
183 135 189 106 201 94 _c
213 81 238 75 276 75 _c
368 75 _l
368 0 _l
276 0 _l
206 0 158 13 132 39 _c
106 65 93 112 93 180 _c
93 477 _l
27 477 _l
27 547 _l
93 547 _l
93 702 _l
183 702 _l
_cl}_d
/u{634 0 85 -13 543 560 _sc
85 216 _m
85 547 _l
175 547 _l
175 219 _l
175 167 185 129 205 103 _c
225 77 255 64 296 64 _c
344 64 383 79 411 110 _c
439 141 453 183 453 237 _c
453 547 _l
543 547 _l
543 0 _l
453 0 _l
453 84 _l
431 50 405 26 377 10 _c
348 -5 315 -13 277 -13 _c
214 -13 166 6 134 45 _c
101 83 85 140 85 216 _c
311 560 _m
311 560 _l
_cl}_d
/v{592 0 30 0 562 547 _sc
30 547 _m
125 547 _l
296 88 _l
467 547 _l
562 547 _l
357 0 _l
235 0 _l
30 547 _l
_cl}_d
end readonly def

/BuildGlyph
 {exch begin
 CharStrings exch
 2 copy known not{pop /.notdef}if
 true 3 1 roll get exec
 end}_d

/BuildChar {
 1 index /Encoding get exch get
 1 index /BuildGlyph get exec
}_d

FontName currentdict end definefont pop
end
%%EndProlog
mpldict begin
562.913 44.36 translate
90 rotate
703.28 513.826 0 0 clipbox
gsave
0 0 m
703.280125 0 l
703.280125 513.8263 l
0 513.8263 l
cl
1.000 setgray
fill
grestore
gsave
43.778125 37.54375 m
340.279034 37.54375 l
340.279034 496.03255 l
43.778125 496.03255 l
cl
1.000 setgray
fill
grestore
0.800 setlinewidth
1 setlinejoin
0 setlinecap
[] 0 setdash
0.000 setgray
gsave
/o {
gsave
newpath
translate
0.8 setlinewidth
1 setlinejoin
0 setlinecap
0 0 m
0 -3.5 l

gsave
0.000 setgray
fill
grestore
stroke
grestore
} bind def
57.2554 37.5438 o
grestore
/DejaVuSans findfont
10.000 scalefont
setfont
gsave
54.075752 22.950000 translate
0.000000 rotate
0.000000 0 m /two glyphshow
grestore
gsave
/o {
gsave
newpath
translate
0.8 setlinewidth
1 setlinejoin
0 setlinecap
0 0 m
0 -3.5 l

gsave
0.000 setgray
fill
grestore
stroke
grestore
} bind def
90.9487 37.5438 o
grestore
gsave
87.769037 22.950000 translate
0.000000 rotate
0.000000 0 m /three glyphshow
grestore
gsave
/o {
gsave
newpath
translate
0.8 setlinewidth
1 setlinejoin
0 setlinecap
0 0 m
0 -3.5 l

gsave
0.000 setgray
fill
grestore
stroke
grestore
} bind def
124.642 37.5438 o
grestore
gsave
121.462322 22.950000 translate
0.000000 rotate
0.000000 0 m /four glyphshow
grestore
gsave
/o {
gsave
newpath
translate
0.8 setlinewidth
1 setlinejoin
0 setlinecap
0 0 m
0 -3.5 l

gsave
0.000 setgray
fill
grestore
stroke
grestore
} bind def
158.335 37.5438 o
grestore
gsave
155.155607 22.950000 translate
0.000000 rotate
0.000000 0 m /five glyphshow
grestore
gsave
/o {
gsave
newpath
translate
0.8 setlinewidth
1 setlinejoin
0 setlinecap
0 0 m
0 -3.5 l

gsave
0.000 setgray
fill
grestore
stroke
grestore
} bind def
192.029 37.5438 o
grestore
gsave
188.848892 22.950000 translate
0.000000 rotate
0.000000 0 m /six glyphshow
grestore
gsave
/o {
gsave
newpath
translate
0.8 setlinewidth
1 setlinejoin
0 setlinecap
0 0 m
0 -3.5 l

gsave
0.000 setgray
fill
grestore
stroke
grestore
} bind def
225.722 37.5438 o
grestore
gsave
222.542177 22.950000 translate
0.000000 rotate
0.000000 0 m /seven glyphshow
grestore
gsave
/o {
gsave
newpath
translate
0.8 setlinewidth
1 setlinejoin
0 setlinecap
0 0 m
0 -3.5 l

gsave
0.000 setgray
fill
grestore
stroke
grestore
} bind def
259.415 37.5438 o
grestore
gsave
256.235462 22.950000 translate
0.000000 rotate
0.000000 0 m /eight glyphshow
grestore
gsave
/o {
gsave
newpath
translate
0.8 setlinewidth
1 setlinejoin
0 setlinecap
0 0 m
0 -3.5 l

gsave
0.000 setgray
fill
grestore
stroke
grestore
} bind def
293.108 37.5438 o
grestore
gsave
289.928747 22.950000 translate
0.000000 rotate
0.000000 0 m /nine glyphshow
grestore
gsave
/o {
gsave
newpath
translate
0.8 setlinewidth
1 setlinejoin
0 setlinecap
0 0 m
0 -3.5 l

gsave
0.000 setgray
fill
grestore
stroke
grestore
} bind def
326.802 37.5438 o
grestore
gsave
320.442345 22.950000 translate
0.000000 rotate
0.000000 0 m /one glyphshow
6.362305 0 m /zero glyphshow
grestore
gsave
120.005142 9.278125 translate
0.000000 rotate
0.000000 0 m /N glyphshow
7.480469 0 m /u glyphshow
13.818359 0 m /m glyphshow
23.559570 0 m /b glyphshow
29.907227 0 m /e glyphshow
36.059570 0 m /r glyphshow
40.170898 0 m /space glyphshow
43.349609 0 m /o glyphshow
49.467773 0 m /f glyphshow
52.988281 0 m /space glyphshow
56.166992 0 m /d glyphshow
62.514648 0 m /i glyphshow
65.292969 0 m /f glyphshow
68.813477 0 m /f glyphshow
72.333984 0 m /e glyphshow
78.486328 0 m /r glyphshow
82.347656 0 m /e glyphshow
88.500000 0 m /n glyphshow
94.837891 0 m /t glyphshow
98.758789 0 m /space glyphshow
101.937500 0 m /o glyphshow
108.055664 0 m /p glyphshow
114.403320 0 m /i glyphshow
117.181641 0 m /n glyphshow
123.519531 0 m /i glyphshow
126.297852 0 m /o glyphshow
132.416016 0 m /n glyphshow
138.753906 0 m /s glyphshow
grestore
gsave
/o {
gsave
newpath
translate
0.8 setlinewidth
1 setlinejoin
0 setlinecap
0 0 m
-3.5 0 l

gsave
0.000 setgray
fill
grestore
stroke
grestore
} bind def
43.7781 80.2124 o
grestore
gsave
20.871875 76.415528 translate
0.000000 rotate
0.000000 0 m /zero glyphshow
6.362305 0 m /period glyphshow
9.541016 0 m /two glyphshow
grestore
gsave
/o {
gsave
newpath
translate
0.8 setlinewidth
1 setlinejoin
0 setlinecap
0 0 m
-3.5 0 l

gsave
0.000 setgray
fill
grestore
stroke
grestore
} bind def
43.7781 150.098 o
grestore
gsave
20.871875 146.300818 translate
0.000000 rotate
0.000000 0 m /zero glyphshow
6.362305 0 m /period glyphshow
9.541016 0 m /four glyphshow
grestore
gsave
/o {
gsave
newpath
translate
0.8 setlinewidth
1 setlinejoin
0 setlinecap
0 0 m
-3.5 0 l

gsave
0.000 setgray
fill
grestore
stroke
grestore
} bind def
43.7781 219.983 o
grestore
gsave
20.871875 216.186108 translate
0.000000 rotate
0.000000 0 m /zero glyphshow
6.362305 0 m /period glyphshow
9.541016 0 m /six glyphshow
grestore
gsave
/o {
gsave
newpath
translate
0.8 setlinewidth
1 setlinejoin
0 setlinecap
0 0 m
-3.5 0 l

gsave
0.000 setgray
fill
grestore
stroke
grestore
} bind def
43.7781 289.868 o
grestore
gsave
20.871875 286.071398 translate
0.000000 rotate
0.000000 0 m /zero glyphshow
6.362305 0 m /period glyphshow
9.541016 0 m /eight glyphshow
grestore
gsave
/o {
gsave
newpath
translate
0.8 setlinewidth
1 setlinejoin
0 setlinecap
0 0 m
-3.5 0 l

gsave
0.000 setgray
fill
grestore
stroke
grestore
} bind def
43.7781 359.754 o
grestore
gsave
20.871875 355.956688 translate
0.000000 rotate
0.000000 0 m /one glyphshow
6.362305 0 m /period glyphshow
9.541016 0 m /zero glyphshow
grestore
gsave
/o {
gsave
newpath
translate
0.8 setlinewidth
1 setlinejoin
0 setlinecap
0 0 m
-3.5 0 l

gsave
0.000 setgray
fill
grestore
stroke
grestore
} bind def
43.7781 429.639 o
grestore
gsave
20.871875 425.841978 translate
0.000000 rotate
0.000000 0 m /one glyphshow
6.362305 0 m /period glyphshow
9.541016 0 m /two glyphshow
grestore
gsave
14.793750 191.428775 translate
90.000000 rotate
0.000000 0 m /I glyphshow
2.949219 0 m /t glyphshow
6.870117 0 m /e glyphshow
13.022461 0 m /r glyphshow
17.133789 0 m /a glyphshow
23.261719 0 m /t glyphshow
27.182617 0 m /i glyphshow
29.960938 0 m /o glyphshow
36.079102 0 m /n glyphshow
42.416992 0 m /s glyphshow
47.626953 0 m /space glyphshow
50.805664 0 m /b glyphshow
57.153320 0 m /e glyphshow
63.305664 0 m /f glyphshow
66.826172 0 m /o glyphshow
72.944336 0 m /r glyphshow
76.805664 0 m /e glyphshow
82.958008 0 m /space glyphshow
86.136719 0 m /c glyphshow
91.634766 0 m /o glyphshow
97.752930 0 m /n glyphshow
104.090820 0 m /v glyphshow
110.008789 0 m /e glyphshow
116.161133 0 m /r glyphshow
120.147461 0 m /g glyphshow
126.495117 0 m /e glyphshow
132.647461 0 m /n glyphshow
138.985352 0 m /c glyphshow
144.483398 0 m /e glyphshow
grestore
gsave
43.778125 499.032550 translate
0.000000 rotate
0.000000 0 m /one glyphshow
6.362305 0 m /e glyphshow
12.514648 0 m /six glyphshow
grestore
1.500 setlinewidth
0.122 0.467 0.706 setrgbcolor
gsave
296.5 458.5 43.78 37.54 clipbox
57.255439 63.774253 m
57.255439 265.576403 l
stroke
grestore
gsave
296.5 458.5 43.78 37.54 clipbox
90.948724 66.997831 m
90.948724 389.59865 l
stroke
grestore
gsave
296.5 458.5 43.78 37.54 clipbox
124.642009 58.38415 m
124.642009 370.356491 l
stroke
grestore
gsave
296.5 458.5 43.78 37.54 clipbox
158.335294 102.38418 m
158.335294 339.197883 l
stroke
grestore
gsave
296.5 458.5 43.78 37.54 clipbox
192.02858 132.019589 m
192.02858 344.778109 l
stroke
grestore
gsave
296.5 458.5 43.78 37.54 clipbox
225.721865 74.26441 m
225.721865 475.19215 l
stroke
grestore
gsave
296.5 458.5 43.78 37.54 clipbox
259.41515 101.155483 m
259.41515 365.934712 l
stroke
grestore
gsave
296.5 458.5 43.78 37.54 clipbox
293.108435 140.797928 m
293.108435 413.943707 l
stroke
grestore
gsave
296.5 458.5 43.78 37.54 clipbox
326.80172 141.435046 m
326.80172 344.491418 l
stroke
grestore
2 setlinecap
1.000 0.498 0.055 setrgbcolor
gsave
296.5 458.5 43.78 37.54 clipbox
57.255439 195.949723 m
90.948724 205.160659 l
124.642009 214.371595 l
158.335294 223.58253 l
192.02858 232.793466 l
225.721865 242.004402 l
259.41515 251.215338 l
293.108435 260.426274 l
326.80172 269.63721 l
stroke
grestore
1.000 setlinewidth
2 setlinejoin
0 setlinecap
0.122 0.467 0.706 setrgbcolor
gsave
296.5 458.5 43.78 37.54 clipbox
/o {
gsave
newpath
translate
1.0 setlinewidth
2 setlinejoin
0 setlinecap
0 3 m
-0.673542 0.927051 l
-2.85317 0.927051 l
-1.089814 -0.354102 l
-1.763356 -2.427051 l
-0 -1.145898 l
1.763356 -2.427051 l
1.089814 -0.354102 l
2.85317 0.927051 l
0.673542 0.927051 l
cl

gsave
0.122 0.467 0.706 setrgbcolor
fill
grestore
stroke
grestore
} bind def
57.2554 164.675 o
90.9487 228.298 o
124.642 214.37 o
158.335 220.791 o
192.029 238.399 o
225.722 274.728 o
259.415 233.545 o
293.108 277.371 o
326.802 242.963 o
grestore
0.800 setlinewidth
0 setlinejoin
2 setlinecap
[] 0 setdash
0.000 setgray
gsave
43.778125 37.54375 m
43.778125 496.03255 l
stroke
grestore
gsave
340.279034 37.54375 m
340.279034 496.03255 l
stroke
grestore
gsave
43.778125 37.54375 m
340.279034 37.54375 l
stroke
grestore
gsave
43.778125 496.03255 m
340.279034 496.03255 l
stroke
grestore
1.000 setlinewidth
0 setlinecap
0.800 setgray
gsave
178.419659 458.6888 m
333.279034 458.6888 l
334.612367 458.6888 335.279034 459.355467 335.279034 460.6888 c
335.279034 489.03255 l
335.279034 490.365883 334.612367 491.03255 333.279034 491.03255 c
178.419659 491.03255 l
177.086326 491.03255 176.419659 490.365883 176.419659 489.03255 c
176.419659 460.6888 l
176.419659 459.355467 177.086326 458.6888 178.419659 458.6888 c
cl
gsave
1.000 setgray
fill
grestore
stroke
grestore
1.500 setlinewidth
1 setlinejoin
2 setlinecap
[] 0 setdash
1.000 0.498 0.055 setrgbcolor
gsave
180.419659 482.9388 m
200.419659 482.9388 l
stroke
grestore
0.000 setgray
gsave
208.419659 479.438800 translate
0.000000 rotate
0.000000 0 m /two glyphshow
6.362305 0 m /six glyphshow
12.724609 0 m /three glyphshow
19.086914 0 m /six glyphshow
25.449219 0 m /zero glyphshow
31.811523 0 m /period glyphshow
34.990234 0 m /one glyphshow
41.352539 0 m /six glyphshow
47.714844 0 m /n glyphshow
54.052734 0 m /space glyphshow
57.231445 0 m /plus glyphshow
65.610352 0 m /space glyphshow
68.789062 0 m /four glyphshow
75.151367 0 m /seven glyphshow
81.513672 0 m /eight glyphshow
87.875977 0 m /five glyphshow
94.238281 0 m /zero glyphshow
100.600586 0 m /zero glyphshow
106.962891 0 m /period glyphshow
110.141602 0 m /five glyphshow
116.503906 0 m /two glyphshow
grestore
0 setlinecap
0.122 0.467 0.706 setrgbcolor
gsave
190.419659 463.266925 m
190.419659 473.266925 l
stroke
grestore
1.000 setlinewidth
2 setlinejoin
gsave
/o {
gsave
newpath
translate
1.0 setlinewidth
2 setlinejoin
0 setlinecap
0 3 m
-0.673542 0.927051 l
-2.85317 0.927051 l
-1.089814 -0.354102 l
-1.763356 -2.427051 l
-0 -1.145898 l
1.763356 -2.427051 l
1.089814 -0.354102 l
2.85317 0.927051 l
0.673542 0.927051 l
cl

gsave
0.122 0.467 0.706 setrgbcolor
fill
grestore
stroke
grestore
} bind def
190.42 468.267 o
grestore
0.000 setgray
gsave
208.419659 464.766925 translate
0.000000 rotate
0.000000 0 m /d glyphshow
6.347656 0 m /a glyphshow
12.475586 0 m /t glyphshow
16.396484 0 m /a glyphshow
grestore
gsave
399.579216 37.54375 m
696.080125 37.54375 l
696.080125 496.03255 l
399.579216 496.03255 l
cl
1.000 setgray
fill
grestore
0.800 setlinewidth
1 setlinejoin
gsave
/o {
gsave
newpath
translate
0.8 setlinewidth
1 setlinejoin
0 setlinecap
0 0 m
0 -3.5 l

gsave
0.000 setgray
fill
grestore
stroke
grestore
} bind def
413.057 37.5438 o
grestore
gsave
409.876842 22.950000 translate
0.000000 rotate
0.000000 0 m /two glyphshow
grestore
gsave
/o {
gsave
newpath
translate
0.8 setlinewidth
1 setlinejoin
0 setlinecap
0 0 m
0 -3.5 l

gsave
0.000 setgray
fill
grestore
stroke
grestore
} bind def
446.75 37.5438 o
grestore
gsave
443.570128 22.950000 translate
0.000000 rotate
0.000000 0 m /three glyphshow
grestore
gsave
/o {
gsave
newpath
translate
0.8 setlinewidth
1 setlinejoin
0 setlinecap
0 0 m
0 -3.5 l

gsave
0.000 setgray
fill
grestore
stroke
grestore
} bind def
480.443 37.5438 o
grestore
gsave
477.263413 22.950000 translate
0.000000 rotate
0.000000 0 m /four glyphshow
grestore
gsave
/o {
gsave
newpath
translate
0.8 setlinewidth
1 setlinejoin
0 setlinecap
0 0 m
0 -3.5 l

gsave
0.000 setgray
fill
grestore
stroke
grestore
} bind def
514.136 37.5438 o
grestore
gsave
510.956698 22.950000 translate
0.000000 rotate
0.000000 0 m /five glyphshow
grestore
gsave
/o {
gsave
newpath
translate
0.8 setlinewidth
1 setlinejoin
0 setlinecap
0 0 m
0 -3.5 l

gsave
0.000 setgray
fill
grestore
stroke
grestore
} bind def
547.83 37.5438 o
grestore
gsave
544.649983 22.950000 translate
0.000000 rotate
0.000000 0 m /six glyphshow
grestore
gsave
/o {
gsave
newpath
translate
0.8 setlinewidth
1 setlinejoin
0 setlinecap
0 0 m
0 -3.5 l

gsave
0.000 setgray
fill
grestore
stroke
grestore
} bind def
581.523 37.5438 o
grestore
gsave
578.343268 22.950000 translate
0.000000 rotate
0.000000 0 m /seven glyphshow
grestore
gsave
/o {
gsave
newpath
translate
0.8 setlinewidth
1 setlinejoin
0 setlinecap
0 0 m
0 -3.5 l

gsave
0.000 setgray
fill
grestore
stroke
grestore
} bind def
615.216 37.5438 o
grestore
gsave
612.036553 22.950000 translate
0.000000 rotate
0.000000 0 m /eight glyphshow
grestore
gsave
/o {
gsave
newpath
translate
0.8 setlinewidth
1 setlinejoin
0 setlinecap
0 0 m
0 -3.5 l

gsave
0.000 setgray
fill
grestore
stroke
grestore
} bind def
648.91 37.5438 o
grestore
gsave
645.729838 22.950000 translate
0.000000 rotate
0.000000 0 m /nine glyphshow
grestore
gsave
/o {
gsave
newpath
translate
0.8 setlinewidth
1 setlinejoin
0 setlinecap
0 0 m
0 -3.5 l

gsave
0.000 setgray
fill
grestore
stroke
grestore
} bind def
682.603 37.5438 o
grestore
gsave
676.243436 22.950000 translate
0.000000 rotate
0.000000 0 m /one glyphshow
6.362305 0 m /zero glyphshow
grestore
gsave
475.806233 9.278125 translate
0.000000 rotate
0.000000 0 m /N glyphshow
7.480469 0 m /u glyphshow
13.818359 0 m /m glyphshow
23.559570 0 m /b glyphshow
29.907227 0 m /e glyphshow
36.059570 0 m /r glyphshow
40.170898 0 m /space glyphshow
43.349609 0 m /o glyphshow
49.467773 0 m /f glyphshow
52.988281 0 m /space glyphshow
56.166992 0 m /d glyphshow
62.514648 0 m /i glyphshow
65.292969 0 m /f glyphshow
68.813477 0 m /f glyphshow
72.333984 0 m /e glyphshow
78.486328 0 m /r glyphshow
82.347656 0 m /e glyphshow
88.500000 0 m /n glyphshow
94.837891 0 m /t glyphshow
98.758789 0 m /space glyphshow
101.937500 0 m /o glyphshow
108.055664 0 m /p glyphshow
114.403320 0 m /i glyphshow
117.181641 0 m /n glyphshow
123.519531 0 m /i glyphshow
126.297852 0 m /o glyphshow
132.416016 0 m /n glyphshow
138.753906 0 m /s glyphshow
grestore
gsave
/o {
gsave
newpath
translate
0.8 setlinewidth
1 setlinejoin
0 setlinecap
0 0 m
-3.5 0 l

gsave
0.000 setgray
fill
grestore
stroke
grestore
} bind def
399.579 105.2 o
grestore
gsave
386.219841 101.402666 translate
0.000000 rotate
0.000000 0 m /one glyphshow
grestore
gsave
/o {
gsave
newpath
translate
0.8 setlinewidth
1 setlinejoin
0 setlinecap
0 0 m
-3.5 0 l

gsave
0.000 setgray
fill
grestore
stroke
grestore
} bind def
399.579 201.851 o
grestore
gsave
386.219841 198.053797 translate
0.000000 rotate
0.000000 0 m /two glyphshow
grestore
gsave
/o {
gsave
newpath
translate
0.8 setlinewidth
1 setlinejoin
0 setlinecap
0 0 m
-3.5 0 l

gsave
0.000 setgray
fill
grestore
stroke
grestore
} bind def
399.579 298.502 o
grestore
gsave
386.219841 294.704927 translate
0.000000 rotate
0.000000 0 m /three glyphshow
grestore
gsave
/o {
gsave
newpath
translate
0.8 setlinewidth
1 setlinejoin
0 setlinecap
0 0 m
-3.5 0 l

gsave
0.000 setgray
fill
grestore
stroke
grestore
} bind def
399.579 395.153 o
grestore
gsave
386.219841 391.356058 translate
0.000000 rotate
0.000000 0 m /four glyphshow
grestore
gsave
/o {
gsave
newpath
translate
0.8 setlinewidth
1 setlinejoin
0 setlinecap
0 0 m
-3.5 0 l

gsave
0.000 setgray
fill
grestore
stroke
grestore
} bind def
399.579 491.804 o
grestore
gsave
386.219841 488.007188 translate
0.000000 rotate
0.000000 0 m /five glyphshow
grestore
gsave
380.141716 191.991275 translate
90.000000 rotate
0.000000 0 m /A glyphshow
6.215820 0 m /v glyphshow
12.133789 0 m /e glyphshow
18.286133 0 m /r glyphshow
22.397461 0 m /a glyphshow
28.525391 0 m /g glyphshow
34.873047 0 m /e glyphshow
41.025391 0 m /space glyphshow
44.204102 0 m /c glyphshow
49.702148 0 m /o glyphshow
55.820312 0 m /n glyphshow
62.158203 0 m /s glyphshow
67.368164 0 m /e glyphshow
73.520508 0 m /n glyphshow
79.858398 0 m /s glyphshow
85.068359 0 m /u glyphshow
91.406250 0 m /s glyphshow
96.616211 0 m /space glyphshow
99.794922 0 m /o glyphshow
105.913086 0 m /f glyphshow
109.433594 0 m /space glyphshow
112.612305 0 m /a glyphshow
118.740234 0 m /l glyphshow
121.518555 0 m /l glyphshow
124.296875 0 m /space glyphshow
127.475586 0 m /r glyphshow
131.586914 0 m /u glyphshow
137.924805 0 m /n glyphshow
144.262695 0 m /s glyphshow
grestore
1.000 setlinewidth
2 setlinejoin
0.122 0.467 0.706 setrgbcolor
gsave
296.5 458.5 399.6 37.54 clipbox
/o {
gsave
newpath
translate
1.0 setlinewidth
2 setlinejoin
0 setlinecap
0 3 m
-0.673542 0.927051 l
-2.85317 0.927051 l
-1.089814 -0.354102 l
-1.763356 -2.427051 l
-0 -1.145898 l
1.763356 -2.427051 l
1.089814 -0.354102 l
2.85317 0.927051 l
0.673542 0.927051 l
cl

gsave
0.122 0.467 0.706 setrgbcolor
fill
grestore
stroke
grestore
} bind def
413.057 58.3842 o
446.75 103.689 o
480.443 162.586 o
514.136 219.973 o
547.83 239.605 o
581.523 286.42 o
615.216 354.378 o
648.91 337.766 o
682.603 475.192 o
grestore
1.500 setlinewidth
1 setlinejoin
2 setlinecap
1.000 0.498 0.055 setrgbcolor
gsave
296.5 458.5 399.6 37.54 clipbox
413.05653 60.69975 m
446.749815 107.691328 l
480.4431 154.682907 l
514.136385 201.674485 l
547.82967 248.666063 l
581.522956 295.657641 l
615.216241 342.64922 l
648.909526 389.640798 l
682.602811 436.632376 l
stroke
grestore
0.800 setlinewidth
0 setlinejoin
[] 0 setdash
0.000 setgray
gsave
399.579216 37.54375 m
399.579216 496.03255 l
stroke
grestore
gsave
696.080125 37.54375 m
696.080125 496.03255 l
stroke
grestore
gsave
399.579216 37.54375 m
696.080125 37.54375 l
stroke
grestore
gsave
399.579216 496.03255 m
696.080125 496.03255 l
stroke
grestore
1.000 setlinewidth
0 setlinecap
0.800 setgray
gsave
406.579216 458.6888 m
499.438591 458.6888 l
500.771924 458.6888 501.438591 459.355467 501.438591 460.6888 c
501.438591 489.03255 l
501.438591 490.365883 500.771924 491.03255 499.438591 491.03255 c
406.579216 491.03255 l
405.245883 491.03255 404.579216 490.365883 404.579216 489.03255 c
404.579216 460.6888 l
404.579216 459.355467 405.245883 458.6888 406.579216 458.6888 c
cl
gsave
1.000 setgray
fill
grestore
stroke
grestore
2 setlinejoin
[] 0 setdash
0.122 0.467 0.706 setrgbcolor
gsave
/o {
gsave
newpath
translate
1.0 setlinewidth
2 setlinejoin
0 setlinecap
0 3 m
-0.673542 0.927051 l
-2.85317 0.927051 l
-1.089814 -0.354102 l
-1.763356 -2.427051 l
-0 -1.145898 l
1.763356 -2.427051 l
1.089814 -0.354102 l
2.85317 0.927051 l
0.673542 0.927051 l
cl

gsave
0.122 0.467 0.706 setrgbcolor
fill
grestore
stroke
grestore
} bind def
418.579 482.939 o
grestore
0.000 setgray
gsave
436.579216 479.438800 translate
0.000000 rotate
0.000000 0 m /d glyphshow
6.347656 0 m /a glyphshow
12.475586 0 m /t glyphshow
16.396484 0 m /a glyphshow
grestore
1.500 setlinewidth
1 setlinejoin
2 setlinecap
1.000 0.498 0.055 setrgbcolor
gsave
408.579216 468.266925 m
428.579216 468.266925 l
stroke
grestore
0.000 setgray
gsave
436.579216 464.766925 translate
0.000000 rotate
0.000000 0 m /zero glyphshow
6.362305 0 m /period glyphshow
9.541016 0 m /four glyphshow
15.903320 0 m /nine glyphshow
22.265625 0 m /n glyphshow
28.603516 0 m /space glyphshow
31.782227 0 m /hyphen glyphshow
35.390625 0 m /space glyphshow
38.569336 0 m /zero glyphshow
44.931641 0 m /period glyphshow
48.110352 0 m /four glyphshow
54.472656 0 m /three glyphshow
grestore

end
showpage
